"PuMA_Matrix","vtkValidPointMask","arc_length"
0,1,0
0,1,0.199
0,1,0.398
0,1,0.597
0,1,0.796
0,1,0.995
0,1,1.194
0,1,1.393
0,1,1.592
0,1,1.791
0,1,1.99
0,1,2.189
0,1,2.388
0,1,2.587
0,1,2.786
0,1,2.985
0,1,3.184
0,1,3.383
0,1,3.582
0,1,3.781
0,1,3.98
0,1,4.179
0,1,4.378
0,1,4.577
0,1,4.776
0,1,4.975
0,1,5.174
0,1,5.373
0,1,5.572
0,1,5.771
0,1,5.97
0,1,6.169
0,1,6.368
0,1,6.567
0,1,6.766
0,1,6.965
0,1,7.164
0,1,7.363
0,1,7.562
0,1,7.761
0,1,7.96
0,1,8.159
0,1,8.358
0,1,8.557
0,1,8.756
0,1,8.955
0,1,9.154
0,1,9.353
0,1,9.552
0,1,9.751
0,1,9.95
0,1,10.149
0,1,10.348
0,1,10.547
0,1,10.746
0,1,10.945
0,1,11.144
0,1,11.343
0,1,11.542
0,1,11.741
0,1,11.94
0,1,12.139
0,1,12.338
0,1,12.537
0,1,12.736
0,1,12.935
0,1,13.134
0,1,13.333
0,1,13.532
0,1,13.731
0,1,13.93
0,1,14.129
0,1,14.328
0,1,14.527
0,1,14.726
0,1,14.925
0,1,15.124
0,1,15.323
0,1,15.522
0,1,15.721
0,1,15.92
0,1,16.119
0,1,16.318
0,1,16.517
0,1,16.716
0,1,16.915
0,1,17.114
0,1,17.313
0,1,17.512
0,1,17.711
0,1,17.91
0,1,18.109
0,1,18.308
0,1,18.507
0,1,18.706
0,1,18.905
0,1,19.104
0,1,19.303
0,1,19.502
0,1,19.701
0,1,19.9
284.82,1,20.099
284.82,1,20.298
284.82,1,20.497
284.82,1,20.696
284.82,1,20.895
297.53,1,21.094
297.53,1,21.293
297.53,1,21.492
297.53,1,21.691
297.53,1,21.89
309.99,1,22.089
309.99,1,22.288
309.99,1,22.487
309.99,1,22.686
309.99,1,22.885
322.1,1,23.084
322.1,1,23.283
322.1,1,23.482
322.1,1,23.681
322.1,1,23.88
333.82,1,24.079
333.82,1,24.278
333.82,1,24.477
333.82,1,24.676
333.82,1,24.875
345.14,1,25.074
345.14,1,25.273
345.14,1,25.472
345.14,1,25.671
345.14,1,25.87
356.03,1,26.069
356.03,1,26.268
356.03,1,26.467
356.03,1,26.666
356.03,1,26.865
366.47,1,27.064
366.47,1,27.263
366.47,1,27.462
366.47,1,27.661
366.47,1,27.86
376.47,1,28.059
376.47,1,28.258
376.47,1,28.457
376.47,1,28.656
376.47,1,28.855
385.99,1,29.054
385.99,1,29.253
385.99,1,29.452
385.99,1,29.651
385.99,1,29.85
395.05,1,30.049
395.05,1,30.248
395.05,1,30.447
395.05,1,30.646
395.05,1,30.845
403.63,1,31.044
403.63,1,31.243
403.63,1,31.442
403.63,1,31.641
403.63,1,31.84
411.73,1,32.039
411.73,1,32.238
411.73,1,32.437
411.73,1,32.636
411.73,1,32.835
419.36,1,33.034
419.36,1,33.233
419.36,1,33.432
419.36,1,33.631
419.36,1,33.83
426.52,1,34.029
426.52,1,34.228
426.52,1,34.427
426.52,1,34.626
426.52,1,34.825
433.22,1,35.024
433.22,1,35.223
433.22,1,35.422
433.22,1,35.621
433.22,1,35.82
439.47,1,36.019
439.47,1,36.218
439.47,1,36.417
439.47,1,36.616
439.47,1,36.815
445.28,1,37.014
445.28,1,37.213
445.28,1,37.412
445.28,1,37.611
445.28,1,37.81
450.67,1,38.009
450.67,1,38.208
450.67,1,38.407
450.67,1,38.606
450.67,1,38.805
455.64,1,39.004
455.64,1,39.203
455.64,1,39.402
455.64,1,39.601
455.64,1,39.8
455.64,1,39.999
460.22,1,40.198
460.22,1,40.397
460.22,1,40.596
460.22,1,40.795
460.22,1,40.994
464.43,1,41.193
464.43,1,41.392
464.43,1,41.591
464.43,1,41.79
464.43,1,41.989
468.27,1,42.188
468.27,1,42.387
468.27,1,42.586
468.27,1,42.785
468.27,1,42.984
471.78,1,43.183
471.78,1,43.382
471.78,1,43.581
471.78,1,43.78
471.78,1,43.979
474.97,1,44.178
474.97,1,44.377
474.97,1,44.576
474.97,1,44.775
474.97,1,44.974
477.86,1,45.173
477.86,1,45.372
477.86,1,45.571
477.86,1,45.77
477.86,1,45.969
480.47,1,46.168
480.47,1,46.367
480.47,1,46.566
480.47,1,46.765
480.47,1,46.964
482.82,1,47.163
482.82,1,47.362
482.82,1,47.561
482.82,1,47.76
482.82,1,47.959
484.92,1,48.158
484.92,1,48.357
484.92,1,48.556
484.92,1,48.755
484.92,1,48.954
486.81,1,49.153
486.81,1,49.352
486.81,1,49.551
486.81,1,49.75
486.81,1,49.949
488.49,1,50.148
488.49,1,50.347
488.49,1,50.546
488.49,1,50.745
488.49,1,50.944
489.99,1,51.143
489.99,1,51.342
489.99,1,51.541
489.99,1,51.74
489.99,1,51.939
491.31,1,52.138
491.31,1,52.337
491.31,1,52.536
491.31,1,52.735
491.31,1,52.934
492.48,1,53.133
492.48,1,53.332
492.48,1,53.531
492.48,1,53.73
492.48,1,53.929
493.51,1,54.128
493.51,1,54.327
493.51,1,54.526
493.51,1,54.725
493.51,1,54.924
494.42,1,55.123
494.42,1,55.322
494.42,1,55.521
494.42,1,55.72
494.42,1,55.919
495.21,1,56.118
495.21,1,56.317
495.21,1,56.516
495.21,1,56.715
495.21,1,56.914
495.9,1,57.113
495.9,1,57.312
495.9,1,57.511
495.9,1,57.71
495.9,1,57.909
496.5,1,58.108
496.5,1,58.307
496.5,1,58.506
496.5,1,58.705
496.5,1,58.904
497.02,1,59.103
497.02,1,59.302
497.02,1,59.501
497.02,1,59.7
497.02,1,59.899
497.47,1,60.098
497.47,1,60.297
497.47,1,60.496
497.47,1,60.695
497.47,1,60.894
497.86,1,61.093
497.86,1,61.292
497.86,1,61.491
497.86,1,61.69
497.86,1,61.889
498.19,1,62.088
498.19,1,62.287
498.19,1,62.486
498.19,1,62.685
498.19,1,62.884
498.48,1,63.083
498.48,1,63.282
498.48,1,63.481
498.48,1,63.68
498.48,1,63.879
498.72,1,64.078
498.72,1,64.277
498.72,1,64.476
498.72,1,64.675
498.72,1,64.874
498.93,1,65.073
498.93,1,65.272
498.93,1,65.471
498.93,1,65.67
498.93,1,65.869
499.1,1,66.068
499.1,1,66.267
499.1,1,66.466
499.1,1,66.665
499.1,1,66.864
499.25,1,67.063
499.25,1,67.262
499.25,1,67.461
499.25,1,67.66
499.25,1,67.859
499.38,1,68.058
499.38,1,68.257
499.38,1,68.456
499.38,1,68.655
499.38,1,68.854
499.48,1,69.053
499.48,1,69.252
499.48,1,69.451
499.48,1,69.65
499.48,1,69.849
499.57,1,70.048
499.57,1,70.247
499.57,1,70.446
499.57,1,70.645
499.57,1,70.844
499.65,1,71.043
499.65,1,71.242
499.65,1,71.441
499.65,1,71.64
499.65,1,71.839
499.71,1,72.038
499.71,1,72.237
499.71,1,72.436
499.71,1,72.635
499.71,1,72.834
499.76,1,73.033
499.76,1,73.232
499.76,1,73.431
499.76,1,73.63
499.76,1,73.829
499.8,1,74.028
499.8,1,74.227
499.8,1,74.426
499.8,1,74.625
499.8,1,74.824
499.84,1,75.023
499.84,1,75.222
499.84,1,75.421
499.84,1,75.62
499.84,1,75.819
499.87,1,76.018
499.87,1,76.217
499.87,1,76.416
499.87,1,76.615
499.87,1,76.814
499.89,1,77.013
499.89,1,77.212
499.89,1,77.411
499.89,1,77.61
499.89,1,77.809
499.91,1,78.008
499.91,1,78.207
499.91,1,78.406
499.91,1,78.605
499.91,1,78.804
499.93,1,79.003
499.93,1,79.202
499.93,1,79.401
499.93,1,79.6
499.93,1,79.799
499.93,1,79.998
499.94,1,80.197
499.94,1,80.396
499.94,1,80.595
499.94,1,80.794
499.94,1,80.993
499.95,1,81.192
499.95,1,81.391
499.95,1,81.59
499.95,1,81.789
499.95,1,81.988
499.96,1,82.187
499.96,1,82.386
499.96,1,82.585
499.96,1,82.784
499.96,1,82.983
499.97,1,83.182
499.97,1,83.381
499.97,1,83.58
499.97,1,83.779
499.97,1,83.978
499.97,1,84.177
499.97,1,84.376
499.97,1,84.575
499.97,1,84.774
499.97,1,84.973
499.98,1,85.172
499.98,1,85.371
499.98,1,85.57
499.98,1,85.769
499.98,1,85.968
499.98,1,86.167
499.98,1,86.366
499.98,1,86.565
499.98,1,86.764
499.98,1,86.963
499.99,1,87.162
499.99,1,87.361
499.99,1,87.56
499.99,1,87.759
499.99,1,87.958
499.99,1,88.157
499.99,1,88.356
499.99,1,88.555
499.99,1,88.754
499.99,1,88.953
499.99,1,89.152
499.99,1,89.351
499.99,1,89.55
499.99,1,89.749
499.99,1,89.948
499.99,1,90.147
499.99,1,90.346
499.99,1,90.545
499.99,1,90.744
499.99,1,90.943
499.99,1,91.142
499.99,1,91.341
499.99,1,91.54
499.99,1,91.739
499.99,1,91.938
499.99,1,92.137
499.99,1,92.336
499.99,1,92.535
499.99,1,92.734
499.99,1,92.933
500,1,93.132
500,1,93.331
500,1,93.53
500,1,93.729
500,1,93.928
500,1,94.127
500,1,94.326
500,1,94.525
500,1,94.724
500,1,94.923
500,1,95.122
500,1,95.321
500,1,95.52
500,1,95.719
500,1,95.918
500,1,96.117
500,1,96.316
500,1,96.515
500,1,96.714
500,1,96.913
500,1,97.112
500,1,97.311
500,1,97.51
500,1,97.709
500,1,97.908
500,1,98.107
500,1,98.306
500,1,98.505
500,1,98.704
500,1,98.903
500,1,99.102
500,1,99.301
500,1,99.5
500,1,99.699
500,1,99.898
500,1,100.1
500,1,100.3
500,1,100.5
500,1,100.69
500,1,100.89
500,1,101.09
500,1,101.29
500,1,101.49
500,1,101.69
500,1,101.89
500,1,102.09
500,1,102.29
500,1,102.49
500,1,102.68
500,1,102.88
500,1,103.08
500,1,103.28
500,1,103.48
500,1,103.68
500,1,103.88
500,1,104.08
500,1,104.28
500,1,104.47
500,1,104.67
500,1,104.87
500,1,105.07
500,1,105.27
500,1,105.47
500,1,105.67
500,1,105.87
500,1,106.07
500,1,106.27
500,1,106.46
500,1,106.66
500,1,106.86
499.99,1,107.06
499.99,1,107.26
499.99,1,107.46
499.99,1,107.66
499.99,1,107.86
499.99,1,108.06
499.99,1,108.26
499.99,1,108.46
499.99,1,108.65
499.99,1,108.85
499.99,1,109.05
499.99,1,109.25
499.99,1,109.45
499.99,1,109.65
499.99,1,109.85
499.99,1,110.05
499.99,1,110.25
499.99,1,110.44
499.99,1,110.64
499.99,1,110.84
499.99,1,111.04
499.99,1,111.24
499.99,1,111.44
499.99,1,111.64
499.99,1,111.84
499.99,1,112.04
499.99,1,112.24
499.99,1,112.43
499.99,1,112.63
499.99,1,112.83
499.98,1,113.03
499.98,1,113.23
499.98,1,113.43
499.98,1,113.63
499.98,1,113.83
499.98,1,114.03
499.98,1,114.23
499.98,1,114.43
499.98,1,114.62
499.98,1,114.82
499.97,1,115.02
499.97,1,115.22
499.97,1,115.42
499.97,1,115.62
499.97,1,115.82
499.97,1,116.02
499.97,1,116.22
499.97,1,116.42
499.97,1,116.61
499.97,1,116.81
499.96,1,117.01
499.96,1,117.21
499.96,1,117.41
499.96,1,117.61
499.96,1,117.81
499.95,1,118.01
499.95,1,118.21
499.95,1,118.4
499.95,1,118.6
499.95,1,118.8
499.94,1,119
499.94,1,119.2
499.94,1,119.4
499.94,1,119.6
499.94,1,119.8
499.94,1,120
499.93,1,120.2
499.93,1,120.39
499.93,1,120.59
499.93,1,120.79
499.93,1,120.99
499.91,1,121.19
499.91,1,121.39
499.91,1,121.59
499.91,1,121.79
499.91,1,121.99
499.89,1,122.19
499.89,1,122.39
499.89,1,122.58
499.89,1,122.78
499.89,1,122.98
499.87,1,123.18
499.87,1,123.38
499.87,1,123.58
499.87,1,123.78
499.87,1,123.98
499.84,1,124.18
499.84,1,124.38
499.84,1,124.57
499.84,1,124.77
499.84,1,124.97
499.8,1,125.17
499.8,1,125.37
499.8,1,125.57
499.8,1,125.77
499.8,1,125.97
499.76,1,126.17
499.76,1,126.36
499.76,1,126.56
499.76,1,126.76
499.76,1,126.96
499.71,1,127.16
499.71,1,127.36
499.71,1,127.56
499.71,1,127.76
499.71,1,127.96
499.65,1,128.16
499.65,1,128.35
499.65,1,128.55
499.65,1,128.75
499.65,1,128.95
499.57,1,129.15
499.57,1,129.35
499.57,1,129.55
499.57,1,129.75
499.57,1,129.95
499.48,1,130.15
499.48,1,130.35
499.48,1,130.54
499.48,1,130.74
499.48,1,130.94
499.38,1,131.14
499.38,1,131.34
499.38,1,131.54
499.38,1,131.74
499.38,1,131.94
499.25,1,132.14
499.25,1,132.34
499.25,1,132.53
499.25,1,132.73
499.25,1,132.93
499.1,1,133.13
499.1,1,133.33
499.1,1,133.53
499.1,1,133.73
499.1,1,133.93
498.93,1,134.13
498.93,1,134.32
498.93,1,134.52
498.93,1,134.72
498.93,1,134.92
498.72,1,135.12
498.72,1,135.32
498.72,1,135.52
498.72,1,135.72
498.72,1,135.92
498.48,1,136.12
498.48,1,136.32
498.48,1,136.51
498.48,1,136.71
498.48,1,136.91
498.19,1,137.11
498.19,1,137.31
498.19,1,137.51
498.19,1,137.71
498.19,1,137.91
497.86,1,138.11
497.86,1,138.3
497.86,1,138.5
497.86,1,138.7
497.86,1,138.9
497.47,1,139.1
497.47,1,139.3
497.47,1,139.5
497.47,1,139.7
497.47,1,139.9
497.02,1,140.1
497.02,1,140.29
497.02,1,140.49
497.02,1,140.69
497.02,1,140.89
496.5,1,141.09
496.5,1,141.29
496.5,1,141.49
496.5,1,141.69
496.5,1,141.89
495.9,1,142.09
495.9,1,142.29
495.9,1,142.48
495.9,1,142.68
495.9,1,142.88
495.21,1,143.08
495.21,1,143.28
495.21,1,143.48
495.21,1,143.68
495.21,1,143.88
494.42,1,144.08
494.42,1,144.27
494.42,1,144.47
494.42,1,144.67
494.42,1,144.87
493.51,1,145.07
493.51,1,145.27
493.51,1,145.47
493.51,1,145.67
493.51,1,145.87
492.48,1,146.07
492.48,1,146.26
492.48,1,146.46
492.48,1,146.66
492.48,1,146.86
491.31,1,147.06
491.31,1,147.26
491.31,1,147.46
491.31,1,147.66
491.31,1,147.86
489.99,1,148.06
489.99,1,148.26
489.99,1,148.45
489.99,1,148.65
489.99,1,148.85
488.49,1,149.05
488.49,1,149.25
488.49,1,149.45
488.49,1,149.65
488.49,1,149.85
486.81,1,150.05
486.81,1,150.24
486.81,1,150.44
486.81,1,150.64
486.81,1,150.84
484.92,1,151.04
484.92,1,151.24
484.92,1,151.44
484.92,1,151.64
484.92,1,151.84
482.82,1,152.04
482.82,1,152.24
482.82,1,152.43
482.82,1,152.63
482.82,1,152.83
480.47,1,153.03
480.47,1,153.23
480.47,1,153.43
480.47,1,153.63
480.47,1,153.83
477.86,1,154.03
477.86,1,154.23
477.86,1,154.42
477.86,1,154.62
477.86,1,154.82
474.97,1,155.02
474.97,1,155.22
474.97,1,155.42
474.97,1,155.62
474.97,1,155.82
471.78,1,156.02
471.78,1,156.21
471.78,1,156.41
471.78,1,156.61
471.78,1,156.81
468.27,1,157.01
468.27,1,157.21
468.27,1,157.41
468.27,1,157.61
468.27,1,157.81
464.43,1,158.01
464.43,1,158.21
464.43,1,158.4
464.43,1,158.6
464.43,1,158.8
460.22,1,159
460.22,1,159.2
460.22,1,159.4
460.22,1,159.6
460.22,1,159.8
460.22,1,160
455.64,1,160.2
455.64,1,160.39
455.64,1,160.59
455.64,1,160.79
455.64,1,160.99
450.67,1,161.19
450.67,1,161.39
450.67,1,161.59
450.67,1,161.79
450.67,1,161.99
445.28,1,162.18
445.28,1,162.38
445.28,1,162.58
445.28,1,162.78
445.28,1,162.98
439.47,1,163.18
439.47,1,163.38
439.47,1,163.58
439.47,1,163.78
439.47,1,163.98
433.22,1,164.18
433.22,1,164.37
433.22,1,164.57
433.22,1,164.77
433.22,1,164.97
426.52,1,165.17
426.52,1,165.37
426.52,1,165.57
426.52,1,165.77
426.52,1,165.97
419.36,1,166.16
419.36,1,166.36
419.36,1,166.56
419.36,1,166.76
419.36,1,166.96
411.73,1,167.16
411.73,1,167.36
411.73,1,167.56
411.73,1,167.76
411.73,1,167.96
403.63,1,168.15
403.63,1,168.35
403.63,1,168.55
403.63,1,168.75
403.63,1,168.95
395.05,1,169.15
395.05,1,169.35
395.05,1,169.55
395.05,1,169.75
395.05,1,169.95
385.99,1,170.15
385.99,1,170.34
385.99,1,170.54
385.99,1,170.74
385.99,1,170.94
376.47,1,171.14
376.47,1,171.34
376.47,1,171.54
376.47,1,171.74
376.47,1,171.94
366.47,1,172.13
366.47,1,172.33
366.47,1,172.53
366.47,1,172.73
366.47,1,172.93
356.03,1,173.13
356.03,1,173.33
356.03,1,173.53
356.03,1,173.73
356.03,1,173.93
345.14,1,174.12
345.14,1,174.32
345.14,1,174.52
345.14,1,174.72
345.14,1,174.92
333.82,1,175.12
333.82,1,175.32
333.82,1,175.52
333.82,1,175.72
333.82,1,175.92
322.1,1,176.12
322.1,1,176.31
322.1,1,176.51
322.1,1,176.71
322.1,1,176.91
309.99,1,177.11
309.99,1,177.31
309.99,1,177.51
309.99,1,177.71
309.99,1,177.91
297.53,1,178.1
297.53,1,178.3
297.53,1,178.5
297.53,1,178.7
297.53,1,178.9
284.82,1,179.1
284.82,1,179.3
284.82,1,179.5
284.82,1,179.7
284.82,1,179.9
0,1,180.1
0,1,180.29
0,1,180.49
0,1,180.69
0,1,180.89
0,1,181.09
0,1,181.29
0,1,181.49
0,1,181.69
0,1,181.89
0,1,182.09
0,1,182.28
0,1,182.48
0,1,182.68
0,1,182.88
0,1,183.08
0,1,183.28
0,1,183.48
0,1,183.68
0,1,183.88
0,1,184.07
0,1,184.27
0,1,184.47
0,1,184.67
0,1,184.87
0,1,185.07
0,1,185.27
0,1,185.47
0,1,185.67
0,1,185.87
0,1,186.07
0,1,186.26
0,1,186.46
0,1,186.66
0,1,186.86
0,1,187.06
0,1,187.26
0,1,187.46
0,1,187.66
0,1,187.86
0,1,188.05
0,1,188.25
0,1,188.45
0,1,188.65
0,1,188.85
0,1,189.05
0,1,189.25
0,1,189.45
0,1,189.65
0,1,189.85
0,1,190.04
0,1,190.24
0,1,190.44
0,1,190.64
0,1,190.84
0,1,191.04
0,1,191.24
0,1,191.44
0,1,191.64
0,1,191.84
0,1,192.04
0,1,192.23
0,1,192.43
0,1,192.63
0,1,192.83
0,1,193.03
0,1,193.23
0,1,193.43
0,1,193.63
0,1,193.83
0,1,194.02
0,1,194.22
0,1,194.42
0,1,194.62
0,1,194.82
0,1,195.02
0,1,195.22
0,1,195.42
0,1,195.62
0,1,195.82
0,1,196.01
0,1,196.21
0,1,196.41
0,1,196.61
0,1,196.81
0,1,197.01
0,1,197.21
0,1,197.41
0,1,197.61
0,1,197.81
0,1,198.01
0,1,198.2
0,1,198.4
0,1,198.6
0,1,198.8
0,1,199
