"PuMA_Matrix","vtkValidPointMask","arc_length"
0,1,0
0,1,0.199
0,1,0.398
0,1,0.597
0,1,0.796
0,1,0.995
0,1,1.194
0,1,1.393
0,1,1.592
0,1,1.791
0,1,1.99
0,1,2.189
0,1,2.388
0,1,2.587
0,1,2.786
0,1,2.985
0,1,3.184
0,1,3.383
0,1,3.582
0,1,3.781
0,1,3.98
0,1,4.179
0,1,4.378
0,1,4.577
0,1,4.776
0,1,4.975
0,1,5.174
0,1,5.373
0,1,5.572
0,1,5.771
0,1,5.97
0,1,6.169
0,1,6.368
0,1,6.567
0,1,6.766
0,1,6.965
0,1,7.164
0,1,7.363
0,1,7.562
0,1,7.761
0,1,7.96
0,1,8.159
0,1,8.358
0,1,8.557
0,1,8.756
0,1,8.955
0,1,9.154
0,1,9.353
0,1,9.552
0,1,9.751
0,1,9.95
0,1,10.149
0,1,10.348
0,1,10.547
0,1,10.746
0,1,10.945
0,1,11.144
0,1,11.343
0,1,11.542
0,1,11.741
0,1,11.94
0,1,12.139
0,1,12.338
0,1,12.537
0,1,12.736
0,1,12.935
0,1,13.134
0,1,13.333
0,1,13.532
0,1,13.731
0,1,13.93
0,1,14.129
0,1,14.328
0,1,14.527
0,1,14.726
0,1,14.925
0,1,15.124
0,1,15.323
0,1,15.522
0,1,15.721
0,1,15.92
0,1,16.119
0,1,16.318
0,1,16.517
0,1,16.716
0,1,16.915
0,1,17.114
0,1,17.313
0,1,17.512
0,1,17.711
0,1,17.91
0,1,18.109
0,1,18.308
0,1,18.507
0,1,18.706
0,1,18.905
0,1,19.104
0,1,19.303
0,1,19.502
0,1,19.701
0,1,19.9
259.19,1,20.099
259.19,1,20.298
259.19,1,20.497
259.19,1,20.696
259.19,1,20.895
270.74,1,21.094
270.74,1,21.293
270.74,1,21.492
270.74,1,21.691
270.74,1,21.89
282.16,1,22.089
282.16,1,22.288
282.16,1,22.487
282.16,1,22.686
282.16,1,22.885
293.36,1,23.084
293.36,1,23.283
293.36,1,23.482
293.36,1,23.681
293.36,1,23.88
304.3,1,24.079
304.3,1,24.278
304.3,1,24.477
304.3,1,24.676
304.3,1,24.875
314.97,1,25.074
314.97,1,25.273
314.97,1,25.472
314.97,1,25.671
314.97,1,25.87
325.36,1,26.069
325.36,1,26.268
325.36,1,26.467
325.36,1,26.666
325.36,1,26.865
335.44,1,27.064
335.44,1,27.263
335.44,1,27.462
335.44,1,27.661
335.44,1,27.86
345.21,1,28.059
345.21,1,28.258
345.21,1,28.457
345.21,1,28.656
345.21,1,28.855
354.65,1,29.054
354.65,1,29.253
354.65,1,29.452
354.65,1,29.651
354.65,1,29.85
363.76,1,30.049
363.76,1,30.248
363.76,1,30.447
363.76,1,30.646
363.76,1,30.845
372.52,1,31.044
372.52,1,31.243
372.52,1,31.442
372.52,1,31.641
372.52,1,31.84
380.93,1,32.039
380.93,1,32.238
380.93,1,32.437
380.93,1,32.636
380.93,1,32.835
388.98,1,33.034
388.98,1,33.233
388.98,1,33.432
388.98,1,33.631
388.98,1,33.83
396.68,1,34.029
396.68,1,34.228
396.68,1,34.427
396.68,1,34.626
396.68,1,34.825
404.02,1,35.024
404.02,1,35.223
404.02,1,35.422
404.02,1,35.621
404.02,1,35.82
411,1,36.019
411,1,36.218
411,1,36.417
411,1,36.616
411,1,36.815
417.63,1,37.014
417.63,1,37.213
417.63,1,37.412
417.63,1,37.611
417.63,1,37.81
423.9,1,38.009
423.9,1,38.208
423.9,1,38.407
423.9,1,38.606
423.9,1,38.805
429.83,1,39.004
429.83,1,39.203
429.83,1,39.402
429.83,1,39.601
429.83,1,39.8
429.83,1,39.999
435.41,1,40.198
435.41,1,40.397
435.41,1,40.596
435.41,1,40.795
435.41,1,40.994
440.66,1,41.193
440.66,1,41.392
440.66,1,41.591
440.66,1,41.79
440.66,1,41.989
445.59,1,42.188
445.59,1,42.387
445.59,1,42.586
445.59,1,42.785
445.59,1,42.984
450.2,1,43.183
450.2,1,43.382
450.2,1,43.581
450.2,1,43.78
450.2,1,43.979
454.51,1,44.178
454.51,1,44.377
454.51,1,44.576
454.51,1,44.775
454.51,1,44.974
458.52,1,45.173
458.52,1,45.372
458.52,1,45.571
458.52,1,45.77
458.52,1,45.969
462.25,1,46.168
462.25,1,46.367
462.25,1,46.566
462.25,1,46.765
462.25,1,46.964
465.71,1,47.163
465.71,1,47.362
465.71,1,47.561
465.71,1,47.76
465.71,1,47.959
468.91,1,48.158
468.91,1,48.357
468.91,1,48.556
468.91,1,48.755
468.91,1,48.954
471.87,1,49.153
471.87,1,49.352
471.87,1,49.551
471.87,1,49.75
471.87,1,49.949
474.59,1,50.148
474.59,1,50.347
474.59,1,50.546
474.59,1,50.745
474.59,1,50.944
477.09,1,51.143
477.09,1,51.342
477.09,1,51.541
477.09,1,51.74
477.09,1,51.939
479.38,1,52.138
479.38,1,52.337
479.38,1,52.536
479.38,1,52.735
479.38,1,52.934
481.48,1,53.133
481.48,1,53.332
481.48,1,53.531
481.48,1,53.73
481.48,1,53.929
483.4,1,54.128
483.4,1,54.327
483.4,1,54.526
483.4,1,54.725
483.4,1,54.924
485.14,1,55.123
485.14,1,55.322
485.14,1,55.521
485.14,1,55.72
485.14,1,55.919
486.73,1,56.118
486.73,1,56.317
486.73,1,56.516
486.73,1,56.715
486.73,1,56.914
488.17,1,57.113
488.17,1,57.312
488.17,1,57.511
488.17,1,57.71
488.17,1,57.909
489.47,1,58.108
489.47,1,58.307
489.47,1,58.506
489.47,1,58.705
489.47,1,58.904
490.64,1,59.103
490.64,1,59.302
490.64,1,59.501
490.64,1,59.7
490.64,1,59.899
491.7,1,60.098
491.7,1,60.297
491.7,1,60.496
491.7,1,60.695
491.7,1,60.894
492.65,1,61.093
492.65,1,61.292
492.65,1,61.491
492.65,1,61.69
492.65,1,61.889
493.51,1,62.088
493.51,1,62.287
493.51,1,62.486
493.51,1,62.685
493.51,1,62.884
494.27,1,63.083
494.27,1,63.282
494.27,1,63.481
494.27,1,63.68
494.27,1,63.879
494.95,1,64.078
494.95,1,64.277
494.95,1,64.476
494.95,1,64.675
494.95,1,64.874
495.56,1,65.073
495.56,1,65.272
495.56,1,65.471
495.56,1,65.67
495.56,1,65.869
496.1,1,66.068
496.1,1,66.267
496.1,1,66.466
496.1,1,66.665
496.1,1,66.864
496.58,1,67.063
496.58,1,67.262
496.58,1,67.461
496.58,1,67.66
496.58,1,67.859
497.01,1,68.058
497.01,1,68.257
497.01,1,68.456
497.01,1,68.655
497.01,1,68.854
497.38,1,69.053
497.38,1,69.252
497.38,1,69.451
497.38,1,69.65
497.38,1,69.849
497.72,1,70.048
497.72,1,70.247
497.72,1,70.446
497.72,1,70.645
497.72,1,70.844
498.01,1,71.043
498.01,1,71.242
498.01,1,71.441
498.01,1,71.64
498.01,1,71.839
498.27,1,72.038
498.27,1,72.237
498.27,1,72.436
498.27,1,72.635
498.27,1,72.834
498.49,1,73.033
498.49,1,73.232
498.49,1,73.431
498.49,1,73.63
498.49,1,73.829
498.69,1,74.028
498.69,1,74.227
498.69,1,74.426
498.69,1,74.625
498.69,1,74.824
498.86,1,75.023
498.86,1,75.222
498.86,1,75.421
498.86,1,75.62
498.86,1,75.819
499.01,1,76.018
499.01,1,76.217
499.01,1,76.416
499.01,1,76.615
499.01,1,76.814
499.14,1,77.013
499.14,1,77.212
499.14,1,77.411
499.14,1,77.61
499.14,1,77.809
499.26,1,78.008
499.26,1,78.207
499.26,1,78.406
499.26,1,78.605
499.26,1,78.804
499.36,1,79.003
499.36,1,79.202
499.36,1,79.401
499.36,1,79.6
499.36,1,79.799
499.36,1,79.998
499.44,1,80.197
499.44,1,80.396
499.44,1,80.595
499.44,1,80.794
499.44,1,80.993
499.52,1,81.192
499.52,1,81.391
499.52,1,81.59
499.52,1,81.789
499.52,1,81.988
499.58,1,82.187
499.58,1,82.386
499.58,1,82.585
499.58,1,82.784
499.58,1,82.983
499.64,1,83.182
499.64,1,83.381
499.64,1,83.58
499.64,1,83.779
499.64,1,83.978
499.69,1,84.177
499.69,1,84.376
499.69,1,84.575
499.69,1,84.774
499.69,1,84.973
499.73,1,85.172
499.73,1,85.371
499.73,1,85.57
499.73,1,85.769
499.73,1,85.968
499.76,1,86.167
499.76,1,86.366
499.76,1,86.565
499.76,1,86.764
499.76,1,86.963
499.79,1,87.162
499.79,1,87.361
499.79,1,87.56
499.79,1,87.759
499.79,1,87.958
499.82,1,88.157
499.82,1,88.356
499.82,1,88.555
499.82,1,88.754
499.82,1,88.953
499.84,1,89.152
499.84,1,89.351
499.84,1,89.55
499.84,1,89.749
499.84,1,89.948
499.86,1,90.147
499.86,1,90.346
499.86,1,90.545
499.86,1,90.744
499.86,1,90.943
499.87,1,91.142
499.87,1,91.341
499.87,1,91.54
499.87,1,91.739
499.87,1,91.938
499.89,1,92.137
499.89,1,92.336
499.89,1,92.535
499.89,1,92.734
499.89,1,92.933
499.9,1,93.132
499.9,1,93.331
499.9,1,93.53
499.9,1,93.729
499.9,1,93.928
499.91,1,94.127
499.91,1,94.326
499.91,1,94.525
499.91,1,94.724
499.91,1,94.923
499.91,1,95.122
499.91,1,95.321
499.91,1,95.52
499.91,1,95.719
499.91,1,95.918
499.92,1,96.117
499.92,1,96.316
499.92,1,96.515
499.92,1,96.714
499.92,1,96.913
499.92,1,97.112
499.92,1,97.311
499.92,1,97.51
499.92,1,97.709
499.92,1,97.908
499.92,1,98.107
499.92,1,98.306
499.92,1,98.505
499.92,1,98.704
499.92,1,98.903
499.93,1,99.102
499.93,1,99.301
499.93,1,99.5
499.93,1,99.699
499.93,1,99.898
499.93,1,100.1
499.93,1,100.3
499.93,1,100.5
499.93,1,100.69
499.93,1,100.89
499.92,1,101.09
499.92,1,101.29
499.92,1,101.49
499.92,1,101.69
499.92,1,101.89
499.92,1,102.09
499.92,1,102.29
499.92,1,102.49
499.92,1,102.68
499.92,1,102.88
499.92,1,103.08
499.92,1,103.28
499.92,1,103.48
499.92,1,103.68
499.92,1,103.88
499.91,1,104.08
499.91,1,104.28
499.91,1,104.47
499.91,1,104.67
499.91,1,104.87
499.91,1,105.07
499.91,1,105.27
499.91,1,105.47
499.91,1,105.67
499.91,1,105.87
499.9,1,106.07
499.9,1,106.27
499.9,1,106.46
499.9,1,106.66
499.9,1,106.86
499.89,1,107.06
499.89,1,107.26
499.89,1,107.46
499.89,1,107.66
499.89,1,107.86
499.87,1,108.06
499.87,1,108.26
499.87,1,108.46
499.87,1,108.65
499.87,1,108.85
499.86,1,109.05
499.86,1,109.25
499.86,1,109.45
499.86,1,109.65
499.86,1,109.85
499.84,1,110.05
499.84,1,110.25
499.84,1,110.44
499.84,1,110.64
499.84,1,110.84
499.82,1,111.04
499.82,1,111.24
499.82,1,111.44
499.82,1,111.64
499.82,1,111.84
499.79,1,112.04
499.79,1,112.24
499.79,1,112.43
499.79,1,112.63
499.79,1,112.83
499.76,1,113.03
499.76,1,113.23
499.76,1,113.43
499.76,1,113.63
499.76,1,113.83
499.73,1,114.03
499.73,1,114.23
499.73,1,114.43
499.73,1,114.62
499.73,1,114.82
499.69,1,115.02
499.69,1,115.22
499.69,1,115.42
499.69,1,115.62
499.69,1,115.82
499.64,1,116.02
499.64,1,116.22
499.64,1,116.42
499.64,1,116.61
499.64,1,116.81
499.58,1,117.01
499.58,1,117.21
499.58,1,117.41
499.58,1,117.61
499.58,1,117.81
499.52,1,118.01
499.52,1,118.21
499.52,1,118.4
499.52,1,118.6
499.52,1,118.8
499.44,1,119
499.44,1,119.2
499.44,1,119.4
499.44,1,119.6
499.44,1,119.8
499.44,1,120
499.36,1,120.2
499.36,1,120.39
499.36,1,120.59
499.36,1,120.79
499.36,1,120.99
499.26,1,121.19
499.26,1,121.39
499.26,1,121.59
499.26,1,121.79
499.26,1,121.99
499.14,1,122.19
499.14,1,122.39
499.14,1,122.58
499.14,1,122.78
499.14,1,122.98
499.01,1,123.18
499.01,1,123.38
499.01,1,123.58
499.01,1,123.78
499.01,1,123.98
498.86,1,124.18
498.86,1,124.38
498.86,1,124.57
498.86,1,124.77
498.86,1,124.97
498.69,1,125.17
498.69,1,125.37
498.69,1,125.57
498.69,1,125.77
498.69,1,125.97
498.49,1,126.17
498.49,1,126.36
498.49,1,126.56
498.49,1,126.76
498.49,1,126.96
498.27,1,127.16
498.27,1,127.36
498.27,1,127.56
498.27,1,127.76
498.27,1,127.96
498.01,1,128.16
498.01,1,128.35
498.01,1,128.55
498.01,1,128.75
498.01,1,128.95
497.72,1,129.15
497.72,1,129.35
497.72,1,129.55
497.72,1,129.75
497.72,1,129.95
497.38,1,130.15
497.38,1,130.35
497.38,1,130.54
497.38,1,130.74
497.38,1,130.94
497.01,1,131.14
497.01,1,131.34
497.01,1,131.54
497.01,1,131.74
497.01,1,131.94
496.58,1,132.14
496.58,1,132.34
496.58,1,132.53
496.58,1,132.73
496.58,1,132.93
496.1,1,133.13
496.1,1,133.33
496.1,1,133.53
496.1,1,133.73
496.1,1,133.93
495.56,1,134.13
495.56,1,134.32
495.56,1,134.52
495.56,1,134.72
495.56,1,134.92
494.95,1,135.12
494.95,1,135.32
494.95,1,135.52
494.95,1,135.72
494.95,1,135.92
494.27,1,136.12
494.27,1,136.32
494.27,1,136.51
494.27,1,136.71
494.27,1,136.91
493.51,1,137.11
493.51,1,137.31
493.51,1,137.51
493.51,1,137.71
493.51,1,137.91
492.65,1,138.11
492.65,1,138.3
492.65,1,138.5
492.65,1,138.7
492.65,1,138.9
491.7,1,139.1
491.7,1,139.3
491.7,1,139.5
491.7,1,139.7
491.7,1,139.9
490.64,1,140.1
490.64,1,140.29
490.64,1,140.49
490.64,1,140.69
490.64,1,140.89
489.47,1,141.09
489.47,1,141.29
489.47,1,141.49
489.47,1,141.69
489.47,1,141.89
488.17,1,142.09
488.17,1,142.29
488.17,1,142.48
488.17,1,142.68
488.17,1,142.88
486.73,1,143.08
486.73,1,143.28
486.73,1,143.48
486.73,1,143.68
486.73,1,143.88
485.14,1,144.08
485.14,1,144.27
485.14,1,144.47
485.14,1,144.67
485.14,1,144.87
483.4,1,145.07
483.4,1,145.27
483.4,1,145.47
483.4,1,145.67
483.4,1,145.87
481.48,1,146.07
481.48,1,146.26
481.48,1,146.46
481.48,1,146.66
481.48,1,146.86
479.38,1,147.06
479.38,1,147.26
479.38,1,147.46
479.38,1,147.66
479.38,1,147.86
477.09,1,148.06
477.09,1,148.26
477.09,1,148.45
477.09,1,148.65
477.09,1,148.85
474.59,1,149.05
474.59,1,149.25
474.59,1,149.45
474.59,1,149.65
474.59,1,149.85
471.87,1,150.05
471.87,1,150.24
471.87,1,150.44
471.87,1,150.64
471.87,1,150.84
468.91,1,151.04
468.91,1,151.24
468.91,1,151.44
468.91,1,151.64
468.91,1,151.84
465.71,1,152.04
465.71,1,152.24
465.71,1,152.43
465.71,1,152.63
465.71,1,152.83
462.25,1,153.03
462.25,1,153.23
462.25,1,153.43
462.25,1,153.63
462.25,1,153.83
458.52,1,154.03
458.52,1,154.23
458.52,1,154.42
458.52,1,154.62
458.52,1,154.82
454.51,1,155.02
454.51,1,155.22
454.51,1,155.42
454.51,1,155.62
454.51,1,155.82
450.2,1,156.02
450.2,1,156.21
450.2,1,156.41
450.2,1,156.61
450.2,1,156.81
445.59,1,157.01
445.59,1,157.21
445.59,1,157.41
445.59,1,157.61
445.59,1,157.81
440.66,1,158.01
440.66,1,158.21
440.66,1,158.4
440.66,1,158.6
440.66,1,158.8
435.41,1,159
435.41,1,159.2
435.41,1,159.4
435.41,1,159.6
435.41,1,159.8
435.41,1,160
429.83,1,160.2
429.83,1,160.39
429.83,1,160.59
429.83,1,160.79
429.83,1,160.99
423.9,1,161.19
423.9,1,161.39
423.9,1,161.59
423.9,1,161.79
423.9,1,161.99
417.63,1,162.18
417.63,1,162.38
417.63,1,162.58
417.63,1,162.78
417.63,1,162.98
411,1,163.18
411,1,163.38
411,1,163.58
411,1,163.78
411,1,163.98
404.02,1,164.18
404.02,1,164.37
404.02,1,164.57
404.02,1,164.77
404.02,1,164.97
396.68,1,165.17
396.68,1,165.37
396.68,1,165.57
396.68,1,165.77
396.68,1,165.97
388.98,1,166.16
388.98,1,166.36
388.98,1,166.56
388.98,1,166.76
388.98,1,166.96
380.93,1,167.16
380.93,1,167.36
380.93,1,167.56
380.93,1,167.76
380.93,1,167.96
372.52,1,168.15
372.52,1,168.35
372.52,1,168.55
372.52,1,168.75
372.52,1,168.95
363.76,1,169.15
363.76,1,169.35
363.76,1,169.55
363.76,1,169.75
363.76,1,169.95
354.65,1,170.15
354.65,1,170.34
354.65,1,170.54
354.65,1,170.74
354.65,1,170.94
345.21,1,171.14
345.21,1,171.34
345.21,1,171.54
345.21,1,171.74
345.21,1,171.94
335.44,1,172.13
335.44,1,172.33
335.44,1,172.53
335.44,1,172.73
335.44,1,172.93
325.36,1,173.13
325.36,1,173.33
325.36,1,173.53
325.36,1,173.73
325.36,1,173.93
314.97,1,174.12
314.97,1,174.32
314.97,1,174.52
314.97,1,174.72
314.97,1,174.92
304.3,1,175.12
304.3,1,175.32
304.3,1,175.52
304.3,1,175.72
304.3,1,175.92
293.36,1,176.12
293.36,1,176.31
293.36,1,176.51
293.36,1,176.71
293.36,1,176.91
282.16,1,177.11
282.16,1,177.31
282.16,1,177.51
282.16,1,177.71
282.16,1,177.91
270.74,1,178.1
270.74,1,178.3
270.74,1,178.5
270.74,1,178.7
270.74,1,178.9
259.19,1,179.1
259.19,1,179.3
259.19,1,179.5
259.19,1,179.7
259.19,1,179.9
0,1,180.1
0,1,180.29
0,1,180.49
0,1,180.69
0,1,180.89
0,1,181.09
0,1,181.29
0,1,181.49
0,1,181.69
0,1,181.89
0,1,182.09
0,1,182.28
0,1,182.48
0,1,182.68
0,1,182.88
0,1,183.08
0,1,183.28
0,1,183.48
0,1,183.68
0,1,183.88
0,1,184.07
0,1,184.27
0,1,184.47
0,1,184.67
0,1,184.87
0,1,185.07
0,1,185.27
0,1,185.47
0,1,185.67
0,1,185.87
0,1,186.07
0,1,186.26
0,1,186.46
0,1,186.66
0,1,186.86
0,1,187.06
0,1,187.26
0,1,187.46
0,1,187.66
0,1,187.86
0,1,188.05
0,1,188.25
0,1,188.45
0,1,188.65
0,1,188.85
0,1,189.05
0,1,189.25
0,1,189.45
0,1,189.65
0,1,189.85
0,1,190.04
0,1,190.24
0,1,190.44
0,1,190.64
0,1,190.84
0,1,191.04
0,1,191.24
0,1,191.44
0,1,191.64
0,1,191.84
0,1,192.04
0,1,192.23
0,1,192.43
0,1,192.63
0,1,192.83
0,1,193.03
0,1,193.23
0,1,193.43
0,1,193.63
0,1,193.83
0,1,194.02
0,1,194.22
0,1,194.42
0,1,194.62
0,1,194.82
0,1,195.02
0,1,195.22
0,1,195.42
0,1,195.62
0,1,195.82
0,1,196.01
0,1,196.21
0,1,196.41
0,1,196.61
0,1,196.81
0,1,197.01
0,1,197.21
0,1,197.41
0,1,197.61
0,1,197.81
0,1,198.01
0,1,198.2
0,1,198.4
0,1,198.6
0,1,198.8
0,1,199
