"PuMA_Matrix","vtkValidPointMask","arc_length"
0,1,0
0,1,0.199
0,1,0.398
0,1,0.597
0,1,0.796
0,1,0.995
0,1,1.194
0,1,1.393
0,1,1.592
0,1,1.791
0,1,1.99
0,1,2.189
0,1,2.388
0,1,2.587
0,1,2.786
0,1,2.985
0,1,3.184
0,1,3.383
0,1,3.582
0,1,3.781
0,1,3.98
0,1,4.179
0,1,4.378
0,1,4.577
0,1,4.776
0,1,4.975
0,1,5.174
0,1,5.373
0,1,5.572
0,1,5.771
0,1,5.97
0,1,6.169
0,1,6.368
0,1,6.567
0,1,6.766
0,1,6.965
0,1,7.164
0,1,7.363
0,1,7.562
0,1,7.761
0,1,7.96
0,1,8.159
0,1,8.358
0,1,8.557
0,1,8.756
0,1,8.955
0,1,9.154
0,1,9.353
0,1,9.552
0,1,9.751
0,1,9.95
0,1,10.149
0,1,10.348
0,1,10.547
0,1,10.746
0,1,10.945
0,1,11.144
0,1,11.343
0,1,11.542
0,1,11.741
0,1,11.94
0,1,12.139
0,1,12.338
0,1,12.537
0,1,12.736
0,1,12.935
0,1,13.134
0,1,13.333
0,1,13.532
0,1,13.731
0,1,13.93
0,1,14.129
0,1,14.328
0,1,14.527
0,1,14.726
0,1,14.925
0,1,15.124
0,1,15.323
0,1,15.522
0,1,15.721
0,1,15.92
0,1,16.119
0,1,16.318
0,1,16.517
0,1,16.716
0,1,16.915
0,1,17.114
0,1,17.313
0,1,17.512
0,1,17.711
0,1,17.91
0,1,18.109
0,1,18.308
0,1,18.507
0,1,18.706
0,1,18.905
0,1,19.104
0,1,19.303
0,1,19.502
0,1,19.701
0,1,19.9
276.66,1,20.099
276.66,1,20.298
276.66,1,20.497
276.66,1,20.696
276.66,1,20.895
289,1,21.094
289,1,21.293
289,1,21.492
289,1,21.691
289,1,21.89
301.14,1,22.089
301.14,1,22.288
301.14,1,22.487
301.14,1,22.686
301.14,1,22.885
312.97,1,23.084
312.97,1,23.283
312.97,1,23.482
312.97,1,23.681
312.97,1,23.88
324.46,1,24.079
324.46,1,24.278
324.46,1,24.477
324.46,1,24.676
324.46,1,24.875
335.6,1,25.074
335.6,1,25.273
335.6,1,25.472
335.6,1,25.671
335.6,1,25.87
346.35,1,26.069
346.35,1,26.268
346.35,1,26.467
346.35,1,26.666
346.35,1,26.865
356.71,1,27.064
356.71,1,27.263
356.71,1,27.462
356.71,1,27.661
356.71,1,27.86
366.67,1,28.059
366.67,1,28.258
366.67,1,28.457
366.67,1,28.656
366.67,1,28.855
376.21,1,29.054
376.21,1,29.253
376.21,1,29.452
376.21,1,29.651
376.21,1,29.85
385.32,1,30.049
385.32,1,30.248
385.32,1,30.447
385.32,1,30.646
385.32,1,30.845
394,1,31.044
394,1,31.243
394,1,31.442
394,1,31.641
394,1,31.84
402.24,1,32.039
402.24,1,32.238
402.24,1,32.437
402.24,1,32.636
402.24,1,32.835
410.05,1,33.034
410.05,1,33.233
410.05,1,33.432
410.05,1,33.631
410.05,1,33.83
417.43,1,34.029
417.43,1,34.228
417.43,1,34.427
417.43,1,34.626
417.43,1,34.825
424.38,1,35.024
424.38,1,35.223
424.38,1,35.422
424.38,1,35.621
424.38,1,35.82
430.91,1,36.019
430.91,1,36.218
430.91,1,36.417
430.91,1,36.616
430.91,1,36.815
437.02,1,37.014
437.02,1,37.213
437.02,1,37.412
437.02,1,37.611
437.02,1,37.81
442.73,1,38.009
442.73,1,38.208
442.73,1,38.407
442.73,1,38.606
442.73,1,38.805
448.04,1,39.004
448.04,1,39.203
448.04,1,39.402
448.04,1,39.601
448.04,1,39.8
448.04,1,39.999
452.98,1,40.198
452.98,1,40.397
452.98,1,40.596
452.98,1,40.795
452.98,1,40.994
457.55,1,41.193
457.55,1,41.392
457.55,1,41.591
457.55,1,41.79
457.55,1,41.989
461.76,1,42.188
461.76,1,42.387
461.76,1,42.586
461.76,1,42.785
461.76,1,42.984
465.64,1,43.183
465.64,1,43.382
465.64,1,43.581
465.64,1,43.78
465.64,1,43.979
469.21,1,44.178
469.21,1,44.377
469.21,1,44.576
469.21,1,44.775
469.21,1,44.974
472.47,1,45.173
472.47,1,45.372
472.47,1,45.571
472.47,1,45.77
472.47,1,45.969
475.44,1,46.168
475.44,1,46.367
475.44,1,46.566
475.44,1,46.765
475.44,1,46.964
478.15,1,47.163
478.15,1,47.362
478.15,1,47.561
478.15,1,47.76
478.15,1,47.959
480.61,1,48.158
480.61,1,48.357
480.61,1,48.556
480.61,1,48.755
480.61,1,48.954
482.83,1,49.153
482.83,1,49.352
482.83,1,49.551
482.83,1,49.75
482.83,1,49.949
484.83,1,50.148
484.83,1,50.347
484.83,1,50.546
484.83,1,50.745
484.83,1,50.944
486.64,1,51.143
486.64,1,51.342
486.64,1,51.541
486.64,1,51.74
486.64,1,51.939
488.25,1,52.138
488.25,1,52.337
488.25,1,52.536
488.25,1,52.735
488.25,1,52.934
489.7,1,53.133
489.7,1,53.332
489.7,1,53.531
489.7,1,53.73
489.7,1,53.929
490.99,1,54.128
490.99,1,54.327
490.99,1,54.526
490.99,1,54.725
490.99,1,54.924
492.14,1,55.123
492.14,1,55.322
492.14,1,55.521
492.14,1,55.72
492.14,1,55.919
493.16,1,56.118
493.16,1,56.317
493.16,1,56.516
493.16,1,56.715
493.16,1,56.914
494.06,1,57.113
494.06,1,57.312
494.06,1,57.511
494.06,1,57.71
494.06,1,57.909
494.85,1,58.108
494.85,1,58.307
494.85,1,58.506
494.85,1,58.705
494.85,1,58.904
495.55,1,59.103
495.55,1,59.302
495.55,1,59.501
495.55,1,59.7
495.55,1,59.899
496.16,1,60.098
496.16,1,60.297
496.16,1,60.496
496.16,1,60.695
496.16,1,60.894
496.7,1,61.093
496.7,1,61.292
496.7,1,61.491
496.7,1,61.69
496.7,1,61.889
497.17,1,62.088
497.17,1,62.287
497.17,1,62.486
497.17,1,62.685
497.17,1,62.884
497.57,1,63.083
497.57,1,63.282
497.57,1,63.481
497.57,1,63.68
497.57,1,63.879
497.93,1,64.078
497.93,1,64.277
497.93,1,64.476
497.93,1,64.675
497.93,1,64.874
498.23,1,65.073
498.23,1,65.272
498.23,1,65.471
498.23,1,65.67
498.23,1,65.869
498.5,1,66.068
498.5,1,66.267
498.5,1,66.466
498.5,1,66.665
498.5,1,66.864
498.72,1,67.063
498.72,1,67.262
498.72,1,67.461
498.72,1,67.66
498.72,1,67.859
498.92,1,68.058
498.92,1,68.257
498.92,1,68.456
498.92,1,68.655
498.92,1,68.854
499.08,1,69.053
499.08,1,69.252
499.08,1,69.451
499.08,1,69.65
499.08,1,69.849
499.23,1,70.048
499.23,1,70.247
499.23,1,70.446
499.23,1,70.645
499.23,1,70.844
499.35,1,71.043
499.35,1,71.242
499.35,1,71.441
499.35,1,71.64
499.35,1,71.839
499.45,1,72.038
499.45,1,72.237
499.45,1,72.436
499.45,1,72.635
499.45,1,72.834
499.54,1,73.033
499.54,1,73.232
499.54,1,73.431
499.54,1,73.63
499.54,1,73.829
499.62,1,74.028
499.62,1,74.227
499.62,1,74.426
499.62,1,74.625
499.62,1,74.824
499.68,1,75.023
499.68,1,75.222
499.68,1,75.421
499.68,1,75.62
499.68,1,75.819
499.73,1,76.018
499.73,1,76.217
499.73,1,76.416
499.73,1,76.615
499.73,1,76.814
499.78,1,77.013
499.78,1,77.212
499.78,1,77.411
499.78,1,77.61
499.78,1,77.809
499.81,1,78.008
499.81,1,78.207
499.81,1,78.406
499.81,1,78.605
499.81,1,78.804
499.84,1,79.003
499.84,1,79.202
499.84,1,79.401
499.84,1,79.6
499.84,1,79.799
499.84,1,79.998
499.87,1,80.197
499.87,1,80.396
499.87,1,80.595
499.87,1,80.794
499.87,1,80.993
499.89,1,81.192
499.89,1,81.391
499.89,1,81.59
499.89,1,81.789
499.89,1,81.988
499.91,1,82.187
499.91,1,82.386
499.91,1,82.585
499.91,1,82.784
499.91,1,82.983
499.93,1,83.182
499.93,1,83.381
499.93,1,83.58
499.93,1,83.779
499.93,1,83.978
499.94,1,84.177
499.94,1,84.376
499.94,1,84.575
499.94,1,84.774
499.94,1,84.973
499.95,1,85.172
499.95,1,85.371
499.95,1,85.57
499.95,1,85.769
499.95,1,85.968
499.96,1,86.167
499.96,1,86.366
499.96,1,86.565
499.96,1,86.764
499.96,1,86.963
499.96,1,87.162
499.96,1,87.361
499.96,1,87.56
499.96,1,87.759
499.96,1,87.958
499.97,1,88.157
499.97,1,88.356
499.97,1,88.555
499.97,1,88.754
499.97,1,88.953
499.97,1,89.152
499.97,1,89.351
499.97,1,89.55
499.97,1,89.749
499.97,1,89.948
499.98,1,90.147
499.98,1,90.346
499.98,1,90.545
499.98,1,90.744
499.98,1,90.943
499.98,1,91.142
499.98,1,91.341
499.98,1,91.54
499.98,1,91.739
499.98,1,91.938
499.98,1,92.137
499.98,1,92.336
499.98,1,92.535
499.98,1,92.734
499.98,1,92.933
499.99,1,93.132
499.99,1,93.331
499.99,1,93.53
499.99,1,93.729
499.99,1,93.928
499.99,1,94.127
499.99,1,94.326
499.99,1,94.525
499.99,1,94.724
499.99,1,94.923
499.99,1,95.122
499.99,1,95.321
499.99,1,95.52
499.99,1,95.719
499.99,1,95.918
499.99,1,96.117
499.99,1,96.316
499.99,1,96.515
499.99,1,96.714
499.99,1,96.913
499.99,1,97.112
499.99,1,97.311
499.99,1,97.51
499.99,1,97.709
499.99,1,97.908
499.99,1,98.107
499.99,1,98.306
499.99,1,98.505
499.99,1,98.704
499.99,1,98.903
499.99,1,99.102
499.99,1,99.301
499.99,1,99.5
499.99,1,99.699
499.99,1,99.898
499.99,1,100.1
499.99,1,100.3
499.99,1,100.5
499.99,1,100.69
499.99,1,100.89
499.99,1,101.09
499.99,1,101.29
499.99,1,101.49
499.99,1,101.69
499.99,1,101.89
499.99,1,102.09
499.99,1,102.29
499.99,1,102.49
499.99,1,102.68
499.99,1,102.88
499.99,1,103.08
499.99,1,103.28
499.99,1,103.48
499.99,1,103.68
499.99,1,103.88
499.99,1,104.08
499.99,1,104.28
499.99,1,104.47
499.99,1,104.67
499.99,1,104.87
499.99,1,105.07
499.99,1,105.27
499.99,1,105.47
499.99,1,105.67
499.99,1,105.87
499.99,1,106.07
499.99,1,106.27
499.99,1,106.46
499.99,1,106.66
499.99,1,106.86
499.98,1,107.06
499.98,1,107.26
499.98,1,107.46
499.98,1,107.66
499.98,1,107.86
499.98,1,108.06
499.98,1,108.26
499.98,1,108.46
499.98,1,108.65
499.98,1,108.85
499.98,1,109.05
499.98,1,109.25
499.98,1,109.45
499.98,1,109.65
499.98,1,109.85
499.97,1,110.05
499.97,1,110.25
499.97,1,110.44
499.97,1,110.64
499.97,1,110.84
499.97,1,111.04
499.97,1,111.24
499.97,1,111.44
499.97,1,111.64
499.97,1,111.84
499.96,1,112.04
499.96,1,112.24
499.96,1,112.43
499.96,1,112.63
499.96,1,112.83
499.96,1,113.03
499.96,1,113.23
499.96,1,113.43
499.96,1,113.63
499.96,1,113.83
499.95,1,114.03
499.95,1,114.23
499.95,1,114.43
499.95,1,114.62
499.95,1,114.82
499.94,1,115.02
499.94,1,115.22
499.94,1,115.42
499.94,1,115.62
499.94,1,115.82
499.93,1,116.02
499.93,1,116.22
499.93,1,116.42
499.93,1,116.61
499.93,1,116.81
499.91,1,117.01
499.91,1,117.21
499.91,1,117.41
499.91,1,117.61
499.91,1,117.81
499.89,1,118.01
499.89,1,118.21
499.89,1,118.4
499.89,1,118.6
499.89,1,118.8
499.87,1,119
499.87,1,119.2
499.87,1,119.4
499.87,1,119.6
499.87,1,119.8
499.87,1,120
499.84,1,120.2
499.84,1,120.39
499.84,1,120.59
499.84,1,120.79
499.84,1,120.99
499.81,1,121.19
499.81,1,121.39
499.81,1,121.59
499.81,1,121.79
499.81,1,121.99
499.78,1,122.19
499.78,1,122.39
499.78,1,122.58
499.78,1,122.78
499.78,1,122.98
499.73,1,123.18
499.73,1,123.38
499.73,1,123.58
499.73,1,123.78
499.73,1,123.98
499.68,1,124.18
499.68,1,124.38
499.68,1,124.57
499.68,1,124.77
499.68,1,124.97
499.62,1,125.17
499.62,1,125.37
499.62,1,125.57
499.62,1,125.77
499.62,1,125.97
499.54,1,126.17
499.54,1,126.36
499.54,1,126.56
499.54,1,126.76
499.54,1,126.96
499.45,1,127.16
499.45,1,127.36
499.45,1,127.56
499.45,1,127.76
499.45,1,127.96
499.35,1,128.16
499.35,1,128.35
499.35,1,128.55
499.35,1,128.75
499.35,1,128.95
499.23,1,129.15
499.23,1,129.35
499.23,1,129.55
499.23,1,129.75
499.23,1,129.95
499.08,1,130.15
499.08,1,130.35
499.08,1,130.54
499.08,1,130.74
499.08,1,130.94
498.92,1,131.14
498.92,1,131.34
498.92,1,131.54
498.92,1,131.74
498.92,1,131.94
498.72,1,132.14
498.72,1,132.34
498.72,1,132.53
498.72,1,132.73
498.72,1,132.93
498.5,1,133.13
498.5,1,133.33
498.5,1,133.53
498.5,1,133.73
498.5,1,133.93
498.23,1,134.13
498.23,1,134.32
498.23,1,134.52
498.23,1,134.72
498.23,1,134.92
497.93,1,135.12
497.93,1,135.32
497.93,1,135.52
497.93,1,135.72
497.93,1,135.92
497.57,1,136.12
497.57,1,136.32
497.57,1,136.51
497.57,1,136.71
497.57,1,136.91
497.17,1,137.11
497.17,1,137.31
497.17,1,137.51
497.17,1,137.71
497.17,1,137.91
496.7,1,138.11
496.7,1,138.3
496.7,1,138.5
496.7,1,138.7
496.7,1,138.9
496.16,1,139.1
496.16,1,139.3
496.16,1,139.5
496.16,1,139.7
496.16,1,139.9
495.55,1,140.1
495.55,1,140.29
495.55,1,140.49
495.55,1,140.69
495.55,1,140.89
494.85,1,141.09
494.85,1,141.29
494.85,1,141.49
494.85,1,141.69
494.85,1,141.89
494.06,1,142.09
494.06,1,142.29
494.06,1,142.48
494.06,1,142.68
494.06,1,142.88
493.16,1,143.08
493.16,1,143.28
493.16,1,143.48
493.16,1,143.68
493.16,1,143.88
492.14,1,144.08
492.14,1,144.27
492.14,1,144.47
492.14,1,144.67
492.14,1,144.87
490.99,1,145.07
490.99,1,145.27
490.99,1,145.47
490.99,1,145.67
490.99,1,145.87
489.7,1,146.07
489.7,1,146.26
489.7,1,146.46
489.7,1,146.66
489.7,1,146.86
488.25,1,147.06
488.25,1,147.26
488.25,1,147.46
488.25,1,147.66
488.25,1,147.86
486.64,1,148.06
486.64,1,148.26
486.64,1,148.45
486.64,1,148.65
486.64,1,148.85
484.83,1,149.05
484.83,1,149.25
484.83,1,149.45
484.83,1,149.65
484.83,1,149.85
482.83,1,150.05
482.83,1,150.24
482.83,1,150.44
482.83,1,150.64
482.83,1,150.84
480.61,1,151.04
480.61,1,151.24
480.61,1,151.44
480.61,1,151.64
480.61,1,151.84
478.15,1,152.04
478.15,1,152.24
478.15,1,152.43
478.15,1,152.63
478.15,1,152.83
475.44,1,153.03
475.44,1,153.23
475.44,1,153.43
475.44,1,153.63
475.44,1,153.83
472.47,1,154.03
472.47,1,154.23
472.47,1,154.42
472.47,1,154.62
472.47,1,154.82
469.21,1,155.02
469.21,1,155.22
469.21,1,155.42
469.21,1,155.62
469.21,1,155.82
465.64,1,156.02
465.64,1,156.21
465.64,1,156.41
465.64,1,156.61
465.64,1,156.81
461.76,1,157.01
461.76,1,157.21
461.76,1,157.41
461.76,1,157.61
461.76,1,157.81
457.55,1,158.01
457.55,1,158.21
457.55,1,158.4
457.55,1,158.6
457.55,1,158.8
452.98,1,159
452.98,1,159.2
452.98,1,159.4
452.98,1,159.6
452.98,1,159.8
452.98,1,160
448.04,1,160.2
448.04,1,160.39
448.04,1,160.59
448.04,1,160.79
448.04,1,160.99
442.73,1,161.19
442.73,1,161.39
442.73,1,161.59
442.73,1,161.79
442.73,1,161.99
437.02,1,162.18
437.02,1,162.38
437.02,1,162.58
437.02,1,162.78
437.02,1,162.98
430.91,1,163.18
430.91,1,163.38
430.91,1,163.58
430.91,1,163.78
430.91,1,163.98
424.38,1,164.18
424.38,1,164.37
424.38,1,164.57
424.38,1,164.77
424.38,1,164.97
417.43,1,165.17
417.43,1,165.37
417.43,1,165.57
417.43,1,165.77
417.43,1,165.97
410.05,1,166.16
410.05,1,166.36
410.05,1,166.56
410.05,1,166.76
410.05,1,166.96
402.24,1,167.16
402.24,1,167.36
402.24,1,167.56
402.24,1,167.76
402.24,1,167.96
394,1,168.15
394,1,168.35
394,1,168.55
394,1,168.75
394,1,168.95
385.32,1,169.15
385.32,1,169.35
385.32,1,169.55
385.32,1,169.75
385.32,1,169.95
376.21,1,170.15
376.21,1,170.34
376.21,1,170.54
376.21,1,170.74
376.21,1,170.94
366.67,1,171.14
366.67,1,171.34
366.67,1,171.54
366.67,1,171.74
366.67,1,171.94
356.71,1,172.13
356.71,1,172.33
356.71,1,172.53
356.71,1,172.73
356.71,1,172.93
346.35,1,173.13
346.35,1,173.33
346.35,1,173.53
346.35,1,173.73
346.35,1,173.93
335.6,1,174.12
335.6,1,174.32
335.6,1,174.52
335.6,1,174.72
335.6,1,174.92
324.46,1,175.12
324.46,1,175.32
324.46,1,175.52
324.46,1,175.72
324.46,1,175.92
312.97,1,176.12
312.97,1,176.31
312.97,1,176.51
312.97,1,176.71
312.97,1,176.91
301.14,1,177.11
301.14,1,177.31
301.14,1,177.51
301.14,1,177.71
301.14,1,177.91
289,1,178.1
289,1,178.3
289,1,178.5
289,1,178.7
289,1,178.9
276.66,1,179.1
276.66,1,179.3
276.66,1,179.5
276.66,1,179.7
276.66,1,179.9
0,1,180.1
0,1,180.29
0,1,180.49
0,1,180.69
0,1,180.89
0,1,181.09
0,1,181.29
0,1,181.49
0,1,181.69
0,1,181.89
0,1,182.09
0,1,182.28
0,1,182.48
0,1,182.68
0,1,182.88
0,1,183.08
0,1,183.28
0,1,183.48
0,1,183.68
0,1,183.88
0,1,184.07
0,1,184.27
0,1,184.47
0,1,184.67
0,1,184.87
0,1,185.07
0,1,185.27
0,1,185.47
0,1,185.67
0,1,185.87
0,1,186.07
0,1,186.26
0,1,186.46
0,1,186.66
0,1,186.86
0,1,187.06
0,1,187.26
0,1,187.46
0,1,187.66
0,1,187.86
0,1,188.05
0,1,188.25
0,1,188.45
0,1,188.65
0,1,188.85
0,1,189.05
0,1,189.25
0,1,189.45
0,1,189.65
0,1,189.85
0,1,190.04
0,1,190.24
0,1,190.44
0,1,190.64
0,1,190.84
0,1,191.04
0,1,191.24
0,1,191.44
0,1,191.64
0,1,191.84
0,1,192.04
0,1,192.23
0,1,192.43
0,1,192.63
0,1,192.83
0,1,193.03
0,1,193.23
0,1,193.43
0,1,193.63
0,1,193.83
0,1,194.02
0,1,194.22
0,1,194.42
0,1,194.62
0,1,194.82
0,1,195.02
0,1,195.22
0,1,195.42
0,1,195.62
0,1,195.82
0,1,196.01
0,1,196.21
0,1,196.41
0,1,196.61
0,1,196.81
0,1,197.01
0,1,197.21
0,1,197.41
0,1,197.61
0,1,197.81
0,1,198.01
0,1,198.2
0,1,198.4
0,1,198.6
0,1,198.8
0,1,199
