"PuMA_Matrix","vtkValidPointMask","arc_length"
0,1,0
0,1,0.199
0,1,0.398
0,1,0.597
0,1,0.796
0,1,0.995
0,1,1.194
0,1,1.393
0,1,1.592
0,1,1.791
0,1,1.99
0,1,2.189
0,1,2.388
0,1,2.587
0,1,2.786
0,1,2.985
0,1,3.184
0,1,3.383
0,1,3.582
0,1,3.781
0,1,3.98
0,1,4.179
0,1,4.378
0,1,4.577
0,1,4.776
0,1,4.975
0,1,5.174
0,1,5.373
0,1,5.572
0,1,5.771
0,1,5.97
0,1,6.169
0,1,6.368
0,1,6.567
0,1,6.766
0,1,6.965
0,1,7.164
0,1,7.363
0,1,7.562
0,1,7.761
0,1,7.96
0,1,8.159
0,1,8.358
0,1,8.557
0,1,8.756
0,1,8.955
0,1,9.154
0,1,9.353
0,1,9.552
0,1,9.751
0,1,9.95
0,1,10.149
0,1,10.348
0,1,10.547
0,1,10.746
0,1,10.945
0,1,11.144
0,1,11.343
0,1,11.542
0,1,11.741
0,1,11.94
0,1,12.139
0,1,12.338
0,1,12.537
0,1,12.736
0,1,12.935
0,1,13.134
0,1,13.333
0,1,13.532
0,1,13.731
0,1,13.93
0,1,14.129
0,1,14.328
0,1,14.527
0,1,14.726
0,1,14.925
0,1,15.124
0,1,15.323
0,1,15.522
0,1,15.721
0,1,15.92
0,1,16.119
0,1,16.318
0,1,16.517
0,1,16.716
0,1,16.915
0,1,17.114
0,1,17.313
0,1,17.512
0,1,17.711
0,1,17.91
0,1,18.109
0,1,18.308
0,1,18.507
0,1,18.706
0,1,18.905
0,1,19.104
0,1,19.303
0,1,19.502
0,1,19.701
0,1,19.9
264.67,1,20.099
264.67,1,20.298
264.67,1,20.497
264.67,1,20.696
264.67,1,20.895
276.47,1,21.094
276.47,1,21.293
276.47,1,21.492
276.47,1,21.691
276.47,1,21.89
288.13,1,22.089
288.13,1,22.288
288.13,1,22.487
288.13,1,22.686
288.13,1,22.885
299.53,1,23.084
299.53,1,23.283
299.53,1,23.482
299.53,1,23.681
299.53,1,23.88
310.65,1,24.079
310.65,1,24.278
310.65,1,24.477
310.65,1,24.676
310.65,1,24.875
321.48,1,25.074
321.48,1,25.273
321.48,1,25.472
321.48,1,25.671
321.48,1,25.87
331.99,1,26.069
331.99,1,26.268
331.99,1,26.467
331.99,1,26.666
331.99,1,26.865
342.18,1,27.064
342.18,1,27.263
342.18,1,27.462
342.18,1,27.661
342.18,1,27.86
352.02,1,28.059
352.02,1,28.258
352.02,1,28.457
352.02,1,28.656
352.02,1,28.855
361.51,1,29.054
361.51,1,29.253
361.51,1,29.452
361.51,1,29.651
361.51,1,29.85
370.63,1,30.049
370.63,1,30.248
370.63,1,30.447
370.63,1,30.646
370.63,1,30.845
379.38,1,31.044
379.38,1,31.243
379.38,1,31.442
379.38,1,31.641
379.38,1,31.84
387.76,1,32.039
387.76,1,32.238
387.76,1,32.437
387.76,1,32.636
387.76,1,32.835
395.76,1,33.034
395.76,1,33.233
395.76,1,33.432
395.76,1,33.631
395.76,1,33.83
403.38,1,34.029
403.38,1,34.228
403.38,1,34.427
403.38,1,34.626
403.38,1,34.825
410.62,1,35.024
410.62,1,35.223
410.62,1,35.422
410.62,1,35.621
410.62,1,35.82
417.47,1,36.019
417.47,1,36.218
417.47,1,36.417
417.47,1,36.616
417.47,1,36.815
423.96,1,37.014
423.96,1,37.213
423.96,1,37.412
423.96,1,37.611
423.96,1,37.81
430.07,1,38.009
430.07,1,38.208
430.07,1,38.407
430.07,1,38.606
430.07,1,38.805
435.82,1,39.004
435.82,1,39.203
435.82,1,39.402
435.82,1,39.601
435.82,1,39.8
435.82,1,39.999
441.22,1,40.198
441.22,1,40.397
441.22,1,40.596
441.22,1,40.795
441.22,1,40.994
446.28,1,41.193
446.28,1,41.392
446.28,1,41.591
446.28,1,41.79
446.28,1,41.989
450.99,1,42.188
450.99,1,42.387
450.99,1,42.586
450.99,1,42.785
450.99,1,42.984
455.39,1,43.183
455.39,1,43.382
455.39,1,43.581
455.39,1,43.78
455.39,1,43.979
459.47,1,44.178
459.47,1,44.377
459.47,1,44.576
459.47,1,44.775
459.47,1,44.974
463.26,1,45.173
463.26,1,45.372
463.26,1,45.571
463.26,1,45.77
463.26,1,45.969
466.76,1,46.168
466.76,1,46.367
466.76,1,46.566
466.76,1,46.765
466.76,1,46.964
469.98,1,47.163
469.98,1,47.362
469.98,1,47.561
469.98,1,47.76
469.98,1,47.959
472.95,1,48.158
472.95,1,48.357
472.95,1,48.556
472.95,1,48.755
472.95,1,48.954
475.68,1,49.153
475.68,1,49.352
475.68,1,49.551
475.68,1,49.75
475.68,1,49.949
478.18,1,50.148
478.18,1,50.347
478.18,1,50.546
478.18,1,50.745
478.18,1,50.944
480.46,1,51.143
480.46,1,51.342
480.46,1,51.541
480.46,1,51.74
480.46,1,51.939
482.53,1,52.138
482.53,1,52.337
482.53,1,52.536
482.53,1,52.735
482.53,1,52.934
484.42,1,53.133
484.42,1,53.332
484.42,1,53.531
484.42,1,53.73
484.42,1,53.929
486.13,1,54.128
486.13,1,54.327
486.13,1,54.526
486.13,1,54.725
486.13,1,54.924
487.68,1,55.123
487.68,1,55.322
487.68,1,55.521
487.68,1,55.72
487.68,1,55.919
489.08,1,56.118
489.08,1,56.317
489.08,1,56.516
489.08,1,56.715
489.08,1,56.914
490.34,1,57.113
490.34,1,57.312
490.34,1,57.511
490.34,1,57.71
490.34,1,57.909
491.47,1,58.108
491.47,1,58.307
491.47,1,58.506
491.47,1,58.705
491.47,1,58.904
492.48,1,59.103
492.48,1,59.302
492.48,1,59.501
492.48,1,59.7
492.48,1,59.899
493.38,1,60.098
493.38,1,60.297
493.38,1,60.496
493.38,1,60.695
493.38,1,60.894
494.19,1,61.093
494.19,1,61.292
494.19,1,61.491
494.19,1,61.69
494.19,1,61.889
494.91,1,62.088
494.91,1,62.287
494.91,1,62.486
494.91,1,62.685
494.91,1,62.884
495.55,1,63.083
495.55,1,63.282
495.55,1,63.481
495.55,1,63.68
495.55,1,63.879
496.11,1,64.078
496.11,1,64.277
496.11,1,64.476
496.11,1,64.675
496.11,1,64.874
496.61,1,65.073
496.61,1,65.272
496.61,1,65.471
496.61,1,65.67
496.61,1,65.869
497.05,1,66.068
497.05,1,66.267
497.05,1,66.466
497.05,1,66.665
497.05,1,66.864
497.44,1,67.063
497.44,1,67.262
497.44,1,67.461
497.44,1,67.66
497.44,1,67.859
497.78,1,68.058
497.78,1,68.257
497.78,1,68.456
497.78,1,68.655
497.78,1,68.854
498.08,1,69.053
498.08,1,69.252
498.08,1,69.451
498.08,1,69.65
498.08,1,69.849
498.34,1,70.048
498.34,1,70.247
498.34,1,70.446
498.34,1,70.645
498.34,1,70.844
498.56,1,71.043
498.56,1,71.242
498.56,1,71.441
498.56,1,71.64
498.56,1,71.839
498.76,1,72.038
498.76,1,72.237
498.76,1,72.436
498.76,1,72.635
498.76,1,72.834
498.93,1,73.033
498.93,1,73.232
498.93,1,73.431
498.93,1,73.63
498.93,1,73.829
499.08,1,74.028
499.08,1,74.227
499.08,1,74.426
499.08,1,74.625
499.08,1,74.824
499.21,1,75.023
499.21,1,75.222
499.21,1,75.421
499.21,1,75.62
499.21,1,75.819
499.32,1,76.018
499.32,1,76.217
499.32,1,76.416
499.32,1,76.615
499.32,1,76.814
499.42,1,77.013
499.42,1,77.212
499.42,1,77.411
499.42,1,77.61
499.42,1,77.809
499.5,1,78.008
499.5,1,78.207
499.5,1,78.406
499.5,1,78.605
499.5,1,78.804
499.57,1,79.003
499.57,1,79.202
499.57,1,79.401
499.57,1,79.6
499.57,1,79.799
499.57,1,79.998
499.64,1,80.197
499.64,1,80.396
499.64,1,80.595
499.64,1,80.794
499.64,1,80.993
499.69,1,81.192
499.69,1,81.391
499.69,1,81.59
499.69,1,81.789
499.69,1,81.988
499.73,1,82.187
499.73,1,82.386
499.73,1,82.585
499.73,1,82.784
499.73,1,82.983
499.77,1,83.182
499.77,1,83.381
499.77,1,83.58
499.77,1,83.779
499.77,1,83.978
499.8,1,84.177
499.8,1,84.376
499.8,1,84.575
499.8,1,84.774
499.8,1,84.973
499.83,1,85.172
499.83,1,85.371
499.83,1,85.57
499.83,1,85.769
499.83,1,85.968
499.85,1,86.167
499.85,1,86.366
499.85,1,86.565
499.85,1,86.764
499.85,1,86.963
499.87,1,87.162
499.87,1,87.361
499.87,1,87.56
499.87,1,87.759
499.87,1,87.958
499.89,1,88.157
499.89,1,88.356
499.89,1,88.555
499.89,1,88.754
499.89,1,88.953
499.91,1,89.152
499.91,1,89.351
499.91,1,89.55
499.91,1,89.749
499.91,1,89.948
499.92,1,90.147
499.92,1,90.346
499.92,1,90.545
499.92,1,90.744
499.92,1,90.943
499.93,1,91.142
499.93,1,91.341
499.93,1,91.54
499.93,1,91.739
499.93,1,91.938
499.94,1,92.137
499.94,1,92.336
499.94,1,92.535
499.94,1,92.734
499.94,1,92.933
499.94,1,93.132
499.94,1,93.331
499.94,1,93.53
499.94,1,93.729
499.94,1,93.928
499.95,1,94.127
499.95,1,94.326
499.95,1,94.525
499.95,1,94.724
499.95,1,94.923
499.95,1,95.122
499.95,1,95.321
499.95,1,95.52
499.95,1,95.719
499.95,1,95.918
499.96,1,96.117
499.96,1,96.316
499.96,1,96.515
499.96,1,96.714
499.96,1,96.913
499.96,1,97.112
499.96,1,97.311
499.96,1,97.51
499.96,1,97.709
499.96,1,97.908
499.96,1,98.107
499.96,1,98.306
499.96,1,98.505
499.96,1,98.704
499.96,1,98.903
499.96,1,99.102
499.96,1,99.301
499.96,1,99.5
499.96,1,99.699
499.96,1,99.898
499.96,1,100.1
499.96,1,100.3
499.96,1,100.5
499.96,1,100.69
499.96,1,100.89
499.96,1,101.09
499.96,1,101.29
499.96,1,101.49
499.96,1,101.69
499.96,1,101.89
499.96,1,102.09
499.96,1,102.29
499.96,1,102.49
499.96,1,102.68
499.96,1,102.88
499.96,1,103.08
499.96,1,103.28
499.96,1,103.48
499.96,1,103.68
499.96,1,103.88
499.95,1,104.08
499.95,1,104.28
499.95,1,104.47
499.95,1,104.67
499.95,1,104.87
499.95,1,105.07
499.95,1,105.27
499.95,1,105.47
499.95,1,105.67
499.95,1,105.87
499.94,1,106.07
499.94,1,106.27
499.94,1,106.46
499.94,1,106.66
499.94,1,106.86
499.94,1,107.06
499.94,1,107.26
499.94,1,107.46
499.94,1,107.66
499.94,1,107.86
499.93,1,108.06
499.93,1,108.26
499.93,1,108.46
499.93,1,108.65
499.93,1,108.85
499.92,1,109.05
499.92,1,109.25
499.92,1,109.45
499.92,1,109.65
499.92,1,109.85
499.91,1,110.05
499.91,1,110.25
499.91,1,110.44
499.91,1,110.64
499.91,1,110.84
499.89,1,111.04
499.89,1,111.24
499.89,1,111.44
499.89,1,111.64
499.89,1,111.84
499.87,1,112.04
499.87,1,112.24
499.87,1,112.43
499.87,1,112.63
499.87,1,112.83
499.85,1,113.03
499.85,1,113.23
499.85,1,113.43
499.85,1,113.63
499.85,1,113.83
499.83,1,114.03
499.83,1,114.23
499.83,1,114.43
499.83,1,114.62
499.83,1,114.82
499.8,1,115.02
499.8,1,115.22
499.8,1,115.42
499.8,1,115.62
499.8,1,115.82
499.77,1,116.02
499.77,1,116.22
499.77,1,116.42
499.77,1,116.61
499.77,1,116.81
499.73,1,117.01
499.73,1,117.21
499.73,1,117.41
499.73,1,117.61
499.73,1,117.81
499.69,1,118.01
499.69,1,118.21
499.69,1,118.4
499.69,1,118.6
499.69,1,118.8
499.64,1,119
499.64,1,119.2
499.64,1,119.4
499.64,1,119.6
499.64,1,119.8
499.64,1,120
499.57,1,120.2
499.57,1,120.39
499.57,1,120.59
499.57,1,120.79
499.57,1,120.99
499.5,1,121.19
499.5,1,121.39
499.5,1,121.59
499.5,1,121.79
499.5,1,121.99
499.42,1,122.19
499.42,1,122.39
499.42,1,122.58
499.42,1,122.78
499.42,1,122.98
499.32,1,123.18
499.32,1,123.38
499.32,1,123.58
499.32,1,123.78
499.32,1,123.98
499.21,1,124.18
499.21,1,124.38
499.21,1,124.57
499.21,1,124.77
499.21,1,124.97
499.08,1,125.17
499.08,1,125.37
499.08,1,125.57
499.08,1,125.77
499.08,1,125.97
498.93,1,126.17
498.93,1,126.36
498.93,1,126.56
498.93,1,126.76
498.93,1,126.96
498.76,1,127.16
498.76,1,127.36
498.76,1,127.56
498.76,1,127.76
498.76,1,127.96
498.56,1,128.16
498.56,1,128.35
498.56,1,128.55
498.56,1,128.75
498.56,1,128.95
498.34,1,129.15
498.34,1,129.35
498.34,1,129.55
498.34,1,129.75
498.34,1,129.95
498.08,1,130.15
498.08,1,130.35
498.08,1,130.54
498.08,1,130.74
498.08,1,130.94
497.78,1,131.14
497.78,1,131.34
497.78,1,131.54
497.78,1,131.74
497.78,1,131.94
497.44,1,132.14
497.44,1,132.34
497.44,1,132.53
497.44,1,132.73
497.44,1,132.93
497.05,1,133.13
497.05,1,133.33
497.05,1,133.53
497.05,1,133.73
497.05,1,133.93
496.61,1,134.13
496.61,1,134.32
496.61,1,134.52
496.61,1,134.72
496.61,1,134.92
496.11,1,135.12
496.11,1,135.32
496.11,1,135.52
496.11,1,135.72
496.11,1,135.92
495.55,1,136.12
495.55,1,136.32
495.55,1,136.51
495.55,1,136.71
495.55,1,136.91
494.91,1,137.11
494.91,1,137.31
494.91,1,137.51
494.91,1,137.71
494.91,1,137.91
494.19,1,138.11
494.19,1,138.3
494.19,1,138.5
494.19,1,138.7
494.19,1,138.9
493.38,1,139.1
493.38,1,139.3
493.38,1,139.5
493.38,1,139.7
493.38,1,139.9
492.48,1,140.1
492.48,1,140.29
492.48,1,140.49
492.48,1,140.69
492.48,1,140.89
491.47,1,141.09
491.47,1,141.29
491.47,1,141.49
491.47,1,141.69
491.47,1,141.89
490.34,1,142.09
490.34,1,142.29
490.34,1,142.48
490.34,1,142.68
490.34,1,142.88
489.08,1,143.08
489.08,1,143.28
489.08,1,143.48
489.08,1,143.68
489.08,1,143.88
487.68,1,144.08
487.68,1,144.27
487.68,1,144.47
487.68,1,144.67
487.68,1,144.87
486.13,1,145.07
486.13,1,145.27
486.13,1,145.47
486.13,1,145.67
486.13,1,145.87
484.42,1,146.07
484.42,1,146.26
484.42,1,146.46
484.42,1,146.66
484.42,1,146.86
482.53,1,147.06
482.53,1,147.26
482.53,1,147.46
482.53,1,147.66
482.53,1,147.86
480.46,1,148.06
480.46,1,148.26
480.46,1,148.45
480.46,1,148.65
480.46,1,148.85
478.18,1,149.05
478.18,1,149.25
478.18,1,149.45
478.18,1,149.65
478.18,1,149.85
475.68,1,150.05
475.68,1,150.24
475.68,1,150.44
475.68,1,150.64
475.68,1,150.84
472.95,1,151.04
472.95,1,151.24
472.95,1,151.44
472.95,1,151.64
472.95,1,151.84
469.98,1,152.04
469.98,1,152.24
469.98,1,152.43
469.98,1,152.63
469.98,1,152.83
466.76,1,153.03
466.76,1,153.23
466.76,1,153.43
466.76,1,153.63
466.76,1,153.83
463.26,1,154.03
463.26,1,154.23
463.26,1,154.42
463.26,1,154.62
463.26,1,154.82
459.47,1,155.02
459.47,1,155.22
459.47,1,155.42
459.47,1,155.62
459.47,1,155.82
455.39,1,156.02
455.39,1,156.21
455.39,1,156.41
455.39,1,156.61
455.39,1,156.81
450.99,1,157.01
450.99,1,157.21
450.99,1,157.41
450.99,1,157.61
450.99,1,157.81
446.28,1,158.01
446.28,1,158.21
446.28,1,158.4
446.28,1,158.6
446.28,1,158.8
441.22,1,159
441.22,1,159.2
441.22,1,159.4
441.22,1,159.6
441.22,1,159.8
441.22,1,160
435.82,1,160.2
435.82,1,160.39
435.82,1,160.59
435.82,1,160.79
435.82,1,160.99
430.07,1,161.19
430.07,1,161.39
430.07,1,161.59
430.07,1,161.79
430.07,1,161.99
423.96,1,162.18
423.96,1,162.38
423.96,1,162.58
423.96,1,162.78
423.96,1,162.98
417.47,1,163.18
417.47,1,163.38
417.47,1,163.58
417.47,1,163.78
417.47,1,163.98
410.62,1,164.18
410.62,1,164.37
410.62,1,164.57
410.62,1,164.77
410.62,1,164.97
403.38,1,165.17
403.38,1,165.37
403.38,1,165.57
403.38,1,165.77
403.38,1,165.97
395.76,1,166.16
395.76,1,166.36
395.76,1,166.56
395.76,1,166.76
395.76,1,166.96
387.76,1,167.16
387.76,1,167.36
387.76,1,167.56
387.76,1,167.76
387.76,1,167.96
379.38,1,168.15
379.38,1,168.35
379.38,1,168.55
379.38,1,168.75
379.38,1,168.95
370.63,1,169.15
370.63,1,169.35
370.63,1,169.55
370.63,1,169.75
370.63,1,169.95
361.51,1,170.15
361.51,1,170.34
361.51,1,170.54
361.51,1,170.74
361.51,1,170.94
352.02,1,171.14
352.02,1,171.34
352.02,1,171.54
352.02,1,171.74
352.02,1,171.94
342.18,1,172.13
342.18,1,172.33
342.18,1,172.53
342.18,1,172.73
342.18,1,172.93
331.99,1,173.13
331.99,1,173.33
331.99,1,173.53
331.99,1,173.73
331.99,1,173.93
321.48,1,174.12
321.48,1,174.32
321.48,1,174.52
321.48,1,174.72
321.48,1,174.92
310.65,1,175.12
310.65,1,175.32
310.65,1,175.52
310.65,1,175.72
310.65,1,175.92
299.53,1,176.12
299.53,1,176.31
299.53,1,176.51
299.53,1,176.71
299.53,1,176.91
288.13,1,177.11
288.13,1,177.31
288.13,1,177.51
288.13,1,177.71
288.13,1,177.91
276.47,1,178.1
276.47,1,178.3
276.47,1,178.5
276.47,1,178.7
276.47,1,178.9
264.67,1,179.1
264.67,1,179.3
264.67,1,179.5
264.67,1,179.7
264.67,1,179.9
0,1,180.1
0,1,180.29
0,1,180.49
0,1,180.69
0,1,180.89
0,1,181.09
0,1,181.29
0,1,181.49
0,1,181.69
0,1,181.89
0,1,182.09
0,1,182.28
0,1,182.48
0,1,182.68
0,1,182.88
0,1,183.08
0,1,183.28
0,1,183.48
0,1,183.68
0,1,183.88
0,1,184.07
0,1,184.27
0,1,184.47
0,1,184.67
0,1,184.87
0,1,185.07
0,1,185.27
0,1,185.47
0,1,185.67
0,1,185.87
0,1,186.07
0,1,186.26
0,1,186.46
0,1,186.66
0,1,186.86
0,1,187.06
0,1,187.26
0,1,187.46
0,1,187.66
0,1,187.86
0,1,188.05
0,1,188.25
0,1,188.45
0,1,188.65
0,1,188.85
0,1,189.05
0,1,189.25
0,1,189.45
0,1,189.65
0,1,189.85
0,1,190.04
0,1,190.24
0,1,190.44
0,1,190.64
0,1,190.84
0,1,191.04
0,1,191.24
0,1,191.44
0,1,191.64
0,1,191.84
0,1,192.04
0,1,192.23
0,1,192.43
0,1,192.63
0,1,192.83
0,1,193.03
0,1,193.23
0,1,193.43
0,1,193.63
0,1,193.83
0,1,194.02
0,1,194.22
0,1,194.42
0,1,194.62
0,1,194.82
0,1,195.02
0,1,195.22
0,1,195.42
0,1,195.62
0,1,195.82
0,1,196.01
0,1,196.21
0,1,196.41
0,1,196.61
0,1,196.81
0,1,197.01
0,1,197.21
0,1,197.41
0,1,197.61
0,1,197.81
0,1,198.01
0,1,198.2
0,1,198.4
0,1,198.6
0,1,198.8
0,1,199
