"PuMA_Matrix","vtkValidPointMask","arc_length"
0,1,0
0,1,0.199
0,1,0.398
0,1,0.597
0,1,0.796
0,1,0.995
0,1,1.194
0,1,1.393
0,1,1.592
0,1,1.791
0,1,1.99
0,1,2.189
0,1,2.388
0,1,2.587
0,1,2.786
0,1,2.985
0,1,3.184
0,1,3.383
0,1,3.582
0,1,3.781
0,1,3.98
0,1,4.179
0,1,4.378
0,1,4.577
0,1,4.776
0,1,4.975
0,1,5.174
0,1,5.373
0,1,5.572
0,1,5.771
0,1,5.97
0,1,6.169
0,1,6.368
0,1,6.567
0,1,6.766
0,1,6.965
0,1,7.164
0,1,7.363
0,1,7.562
0,1,7.761
0,1,7.96
0,1,8.159
0,1,8.358
0,1,8.557
0,1,8.756
0,1,8.955
0,1,9.154
0,1,9.353
0,1,9.552
0,1,9.751
0,1,9.95
0,1,10.149
0,1,10.348
0,1,10.547
0,1,10.746
0,1,10.945
0,1,11.144
0,1,11.343
0,1,11.542
0,1,11.741
0,1,11.94
0,1,12.139
0,1,12.338
0,1,12.537
0,1,12.736
0,1,12.935
0,1,13.134
0,1,13.333
0,1,13.532
0,1,13.731
0,1,13.93
0,1,14.129
0,1,14.328
0,1,14.527
0,1,14.726
0,1,14.925
0,1,15.124
0,1,15.323
0,1,15.522
0,1,15.721
0,1,15.92
0,1,16.119
0,1,16.318
0,1,16.517
0,1,16.716
0,1,16.915
0,1,17.114
0,1,17.313
0,1,17.512
0,1,17.711
0,1,17.91
0,1,18.109
0,1,18.308
0,1,18.507
0,1,18.706
0,1,18.905
0,1,19.104
0,1,19.303
0,1,19.502
0,1,19.701
0,1,19.9
278,1,20.099
278,1,20.298
278,1,20.497
278,1,20.696
278,1,20.895
290.4,1,21.094
290.4,1,21.293
290.4,1,21.492
290.4,1,21.691
290.4,1,21.89
302.59,1,22.089
302.59,1,22.288
302.59,1,22.487
302.59,1,22.686
302.59,1,22.885
314.47,1,23.084
314.47,1,23.283
314.47,1,23.482
314.47,1,23.681
314.47,1,23.88
326,1,24.079
326,1,24.278
326,1,24.477
326,1,24.676
326,1,24.875
337.16,1,25.074
337.16,1,25.273
337.16,1,25.472
337.16,1,25.671
337.16,1,25.87
347.94,1,26.069
347.94,1,26.268
347.94,1,26.467
347.94,1,26.666
347.94,1,26.865
358.32,1,27.064
358.32,1,27.263
358.32,1,27.462
358.32,1,27.661
358.32,1,27.86
368.28,1,28.059
368.28,1,28.258
368.28,1,28.457
368.28,1,28.656
368.28,1,28.855
377.82,1,29.054
377.82,1,29.253
377.82,1,29.452
377.82,1,29.651
377.82,1,29.85
386.93,1,30.049
386.93,1,30.248
386.93,1,30.447
386.93,1,30.646
386.93,1,30.845
395.59,1,31.044
395.59,1,31.243
395.59,1,31.442
395.59,1,31.641
395.59,1,31.84
403.82,1,32.039
403.82,1,32.238
403.82,1,32.437
403.82,1,32.636
403.82,1,32.835
411.6,1,33.034
411.6,1,33.233
411.6,1,33.432
411.6,1,33.631
411.6,1,33.83
418.95,1,34.029
418.95,1,34.228
418.95,1,34.427
418.95,1,34.626
418.95,1,34.825
425.86,1,35.024
425.86,1,35.223
425.86,1,35.422
425.86,1,35.621
425.86,1,35.82
432.34,1,36.019
432.34,1,36.218
432.34,1,36.417
432.34,1,36.616
432.34,1,36.815
438.41,1,37.014
438.41,1,37.213
438.41,1,37.412
438.41,1,37.611
438.41,1,37.81
444.07,1,38.009
444.07,1,38.208
444.07,1,38.407
444.07,1,38.606
444.07,1,38.805
449.33,1,39.004
449.33,1,39.203
449.33,1,39.402
449.33,1,39.601
449.33,1,39.8
449.33,1,39.999
454.21,1,40.198
454.21,1,40.397
454.21,1,40.596
454.21,1,40.795
454.21,1,40.994
458.72,1,41.193
458.72,1,41.392
458.72,1,41.591
458.72,1,41.79
458.72,1,41.989
462.88,1,42.188
462.88,1,42.387
462.88,1,42.586
462.88,1,42.785
462.88,1,42.984
466.7,1,43.183
466.7,1,43.382
466.7,1,43.581
466.7,1,43.78
466.7,1,43.979
470.2,1,44.178
470.2,1,44.377
470.2,1,44.576
470.2,1,44.775
470.2,1,44.974
473.4,1,45.173
473.4,1,45.372
473.4,1,45.571
473.4,1,45.77
473.4,1,45.969
476.31,1,46.168
476.31,1,46.367
476.31,1,46.566
476.31,1,46.765
476.31,1,46.964
478.96,1,47.163
478.96,1,47.362
478.96,1,47.561
478.96,1,47.76
478.96,1,47.959
481.36,1,48.158
481.36,1,48.357
481.36,1,48.556
481.36,1,48.755
481.36,1,48.954
483.53,1,49.153
483.53,1,49.352
483.53,1,49.551
483.53,1,49.75
483.53,1,49.949
485.48,1,50.148
485.48,1,50.347
485.48,1,50.546
485.48,1,50.745
485.48,1,50.944
487.23,1,51.143
487.23,1,51.342
487.23,1,51.541
487.23,1,51.74
487.23,1,51.939
488.8,1,52.138
488.8,1,52.337
488.8,1,52.536
488.8,1,52.735
488.8,1,52.934
490.2,1,53.133
490.2,1,53.332
490.2,1,53.531
490.2,1,53.73
490.2,1,53.929
491.45,1,54.128
491.45,1,54.327
491.45,1,54.526
491.45,1,54.725
491.45,1,54.924
492.55,1,55.123
492.55,1,55.322
492.55,1,55.521
492.55,1,55.72
492.55,1,55.919
493.53,1,56.118
493.53,1,56.317
493.53,1,56.516
493.53,1,56.715
493.53,1,56.914
494.39,1,57.113
494.39,1,57.312
494.39,1,57.511
494.39,1,57.71
494.39,1,57.909
495.15,1,58.108
495.15,1,58.307
495.15,1,58.506
495.15,1,58.705
495.15,1,58.904
495.82,1,59.103
495.82,1,59.302
495.82,1,59.501
495.82,1,59.7
495.82,1,59.899
496.41,1,60.098
496.41,1,60.297
496.41,1,60.496
496.41,1,60.695
496.41,1,60.894
496.92,1,61.093
496.92,1,61.292
496.92,1,61.491
496.92,1,61.69
496.92,1,61.889
497.36,1,62.088
497.36,1,62.287
497.36,1,62.486
497.36,1,62.685
497.36,1,62.884
497.74,1,63.083
497.74,1,63.282
497.74,1,63.481
497.74,1,63.68
497.74,1,63.879
498.08,1,64.078
498.08,1,64.277
498.08,1,64.476
498.08,1,64.675
498.08,1,64.874
498.36,1,65.073
498.36,1,65.272
498.36,1,65.471
498.36,1,65.67
498.36,1,65.869
498.61,1,66.068
498.61,1,66.267
498.61,1,66.466
498.61,1,66.665
498.61,1,66.864
498.83,1,67.063
498.83,1,67.262
498.83,1,67.461
498.83,1,67.66
498.83,1,67.859
499.01,1,68.058
499.01,1,68.257
499.01,1,68.456
499.01,1,68.655
499.01,1,68.854
499.16,1,69.053
499.16,1,69.252
499.16,1,69.451
499.16,1,69.65
499.16,1,69.849
499.3,1,70.048
499.3,1,70.247
499.3,1,70.446
499.3,1,70.645
499.3,1,70.844
499.41,1,71.043
499.41,1,71.242
499.41,1,71.441
499.41,1,71.64
499.41,1,71.839
499.5,1,72.038
499.5,1,72.237
499.5,1,72.436
499.5,1,72.635
499.5,1,72.834
499.59,1,73.033
499.59,1,73.232
499.59,1,73.431
499.59,1,73.63
499.59,1,73.829
499.65,1,74.028
499.65,1,74.227
499.65,1,74.426
499.65,1,74.625
499.65,1,74.824
499.71,1,75.023
499.71,1,75.222
499.71,1,75.421
499.71,1,75.62
499.71,1,75.819
499.76,1,76.018
499.76,1,76.217
499.76,1,76.416
499.76,1,76.615
499.76,1,76.814
499.8,1,77.013
499.8,1,77.212
499.8,1,77.411
499.8,1,77.61
499.8,1,77.809
499.83,1,78.008
499.83,1,78.207
499.83,1,78.406
499.83,1,78.605
499.83,1,78.804
499.86,1,79.003
499.86,1,79.202
499.86,1,79.401
499.86,1,79.6
499.86,1,79.799
499.86,1,79.998
499.89,1,80.197
499.89,1,80.396
499.89,1,80.595
499.89,1,80.794
499.89,1,80.993
499.9,1,81.192
499.9,1,81.391
499.9,1,81.59
499.9,1,81.789
499.9,1,81.988
499.92,1,82.187
499.92,1,82.386
499.92,1,82.585
499.92,1,82.784
499.92,1,82.983
499.93,1,83.182
499.93,1,83.381
499.93,1,83.58
499.93,1,83.779
499.93,1,83.978
499.95,1,84.177
499.95,1,84.376
499.95,1,84.575
499.95,1,84.774
499.95,1,84.973
499.95,1,85.172
499.95,1,85.371
499.95,1,85.57
499.95,1,85.769
499.95,1,85.968
499.96,1,86.167
499.96,1,86.366
499.96,1,86.565
499.96,1,86.764
499.96,1,86.963
499.97,1,87.162
499.97,1,87.361
499.97,1,87.56
499.97,1,87.759
499.97,1,87.958
499.97,1,88.157
499.97,1,88.356
499.97,1,88.555
499.97,1,88.754
499.97,1,88.953
499.98,1,89.152
499.98,1,89.351
499.98,1,89.55
499.98,1,89.749
499.98,1,89.948
499.98,1,90.147
499.98,1,90.346
499.98,1,90.545
499.98,1,90.744
499.98,1,90.943
499.98,1,91.142
499.98,1,91.341
499.98,1,91.54
499.98,1,91.739
499.98,1,91.938
499.99,1,92.137
499.99,1,92.336
499.99,1,92.535
499.99,1,92.734
499.99,1,92.933
499.99,1,93.132
499.99,1,93.331
499.99,1,93.53
499.99,1,93.729
499.99,1,93.928
499.99,1,94.127
499.99,1,94.326
499.99,1,94.525
499.99,1,94.724
499.99,1,94.923
499.99,1,95.122
499.99,1,95.321
499.99,1,95.52
499.99,1,95.719
499.99,1,95.918
499.99,1,96.117
499.99,1,96.316
499.99,1,96.515
499.99,1,96.714
499.99,1,96.913
499.99,1,97.112
499.99,1,97.311
499.99,1,97.51
499.99,1,97.709
499.99,1,97.908
499.99,1,98.107
499.99,1,98.306
499.99,1,98.505
499.99,1,98.704
499.99,1,98.903
499.99,1,99.102
499.99,1,99.301
499.99,1,99.5
499.99,1,99.699
499.99,1,99.898
499.99,1,100.1
499.99,1,100.3
499.99,1,100.5
499.99,1,100.69
499.99,1,100.89
499.99,1,101.09
499.99,1,101.29
499.99,1,101.49
499.99,1,101.69
499.99,1,101.89
499.99,1,102.09
499.99,1,102.29
499.99,1,102.49
499.99,1,102.68
499.99,1,102.88
499.99,1,103.08
499.99,1,103.28
499.99,1,103.48
499.99,1,103.68
499.99,1,103.88
499.99,1,104.08
499.99,1,104.28
499.99,1,104.47
499.99,1,104.67
499.99,1,104.87
499.99,1,105.07
499.99,1,105.27
499.99,1,105.47
499.99,1,105.67
499.99,1,105.87
499.99,1,106.07
499.99,1,106.27
499.99,1,106.46
499.99,1,106.66
499.99,1,106.86
499.99,1,107.06
499.99,1,107.26
499.99,1,107.46
499.99,1,107.66
499.99,1,107.86
499.98,1,108.06
499.98,1,108.26
499.98,1,108.46
499.98,1,108.65
499.98,1,108.85
499.98,1,109.05
499.98,1,109.25
499.98,1,109.45
499.98,1,109.65
499.98,1,109.85
499.98,1,110.05
499.98,1,110.25
499.98,1,110.44
499.98,1,110.64
499.98,1,110.84
499.97,1,111.04
499.97,1,111.24
499.97,1,111.44
499.97,1,111.64
499.97,1,111.84
499.97,1,112.04
499.97,1,112.24
499.97,1,112.43
499.97,1,112.63
499.97,1,112.83
499.96,1,113.03
499.96,1,113.23
499.96,1,113.43
499.96,1,113.63
499.96,1,113.83
499.95,1,114.03
499.95,1,114.23
499.95,1,114.43
499.95,1,114.62
499.95,1,114.82
499.95,1,115.02
499.95,1,115.22
499.95,1,115.42
499.95,1,115.62
499.95,1,115.82
499.93,1,116.02
499.93,1,116.22
499.93,1,116.42
499.93,1,116.61
499.93,1,116.81
499.92,1,117.01
499.92,1,117.21
499.92,1,117.41
499.92,1,117.61
499.92,1,117.81
499.9,1,118.01
499.9,1,118.21
499.9,1,118.4
499.9,1,118.6
499.9,1,118.8
499.89,1,119
499.89,1,119.2
499.89,1,119.4
499.89,1,119.6
499.89,1,119.8
499.89,1,120
499.86,1,120.2
499.86,1,120.39
499.86,1,120.59
499.86,1,120.79
499.86,1,120.99
499.83,1,121.19
499.83,1,121.39
499.83,1,121.59
499.83,1,121.79
499.83,1,121.99
499.8,1,122.19
499.8,1,122.39
499.8,1,122.58
499.8,1,122.78
499.8,1,122.98
499.76,1,123.18
499.76,1,123.38
499.76,1,123.58
499.76,1,123.78
499.76,1,123.98
499.71,1,124.18
499.71,1,124.38
499.71,1,124.57
499.71,1,124.77
499.71,1,124.97
499.65,1,125.17
499.65,1,125.37
499.65,1,125.57
499.65,1,125.77
499.65,1,125.97
499.59,1,126.17
499.59,1,126.36
499.59,1,126.56
499.59,1,126.76
499.59,1,126.96
499.5,1,127.16
499.5,1,127.36
499.5,1,127.56
499.5,1,127.76
499.5,1,127.96
499.41,1,128.16
499.41,1,128.35
499.41,1,128.55
499.41,1,128.75
499.41,1,128.95
499.3,1,129.15
499.3,1,129.35
499.3,1,129.55
499.3,1,129.75
499.3,1,129.95
499.16,1,130.15
499.16,1,130.35
499.16,1,130.54
499.16,1,130.74
499.16,1,130.94
499.01,1,131.14
499.01,1,131.34
499.01,1,131.54
499.01,1,131.74
499.01,1,131.94
498.83,1,132.14
498.83,1,132.34
498.83,1,132.53
498.83,1,132.73
498.83,1,132.93
498.61,1,133.13
498.61,1,133.33
498.61,1,133.53
498.61,1,133.73
498.61,1,133.93
498.36,1,134.13
498.36,1,134.32
498.36,1,134.52
498.36,1,134.72
498.36,1,134.92
498.08,1,135.12
498.08,1,135.32
498.08,1,135.52
498.08,1,135.72
498.08,1,135.92
497.74,1,136.12
497.74,1,136.32
497.74,1,136.51
497.74,1,136.71
497.74,1,136.91
497.36,1,137.11
497.36,1,137.31
497.36,1,137.51
497.36,1,137.71
497.36,1,137.91
496.92,1,138.11
496.92,1,138.3
496.92,1,138.5
496.92,1,138.7
496.92,1,138.9
496.41,1,139.1
496.41,1,139.3
496.41,1,139.5
496.41,1,139.7
496.41,1,139.9
495.82,1,140.1
495.82,1,140.29
495.82,1,140.49
495.82,1,140.69
495.82,1,140.89
495.15,1,141.09
495.15,1,141.29
495.15,1,141.49
495.15,1,141.69
495.15,1,141.89
494.39,1,142.09
494.39,1,142.29
494.39,1,142.48
494.39,1,142.68
494.39,1,142.88
493.53,1,143.08
493.53,1,143.28
493.53,1,143.48
493.53,1,143.68
493.53,1,143.88
492.55,1,144.08
492.55,1,144.27
492.55,1,144.47
492.55,1,144.67
492.55,1,144.87
491.45,1,145.07
491.45,1,145.27
491.45,1,145.47
491.45,1,145.67
491.45,1,145.87
490.2,1,146.07
490.2,1,146.26
490.2,1,146.46
490.2,1,146.66
490.2,1,146.86
488.8,1,147.06
488.8,1,147.26
488.8,1,147.46
488.8,1,147.66
488.8,1,147.86
487.23,1,148.06
487.23,1,148.26
487.23,1,148.45
487.23,1,148.65
487.23,1,148.85
485.48,1,149.05
485.48,1,149.25
485.48,1,149.45
485.48,1,149.65
485.48,1,149.85
483.53,1,150.05
483.53,1,150.24
483.53,1,150.44
483.53,1,150.64
483.53,1,150.84
481.36,1,151.04
481.36,1,151.24
481.36,1,151.44
481.36,1,151.64
481.36,1,151.84
478.96,1,152.04
478.96,1,152.24
478.96,1,152.43
478.96,1,152.63
478.96,1,152.83
476.31,1,153.03
476.31,1,153.23
476.31,1,153.43
476.31,1,153.63
476.31,1,153.83
473.4,1,154.03
473.4,1,154.23
473.4,1,154.42
473.4,1,154.62
473.4,1,154.82
470.2,1,155.02
470.2,1,155.22
470.2,1,155.42
470.2,1,155.62
470.2,1,155.82
466.7,1,156.02
466.7,1,156.21
466.7,1,156.41
466.7,1,156.61
466.7,1,156.81
462.88,1,157.01
462.88,1,157.21
462.88,1,157.41
462.88,1,157.61
462.88,1,157.81
458.72,1,158.01
458.72,1,158.21
458.72,1,158.4
458.72,1,158.6
458.72,1,158.8
454.21,1,159
454.21,1,159.2
454.21,1,159.4
454.21,1,159.6
454.21,1,159.8
454.21,1,160
449.33,1,160.2
449.33,1,160.39
449.33,1,160.59
449.33,1,160.79
449.33,1,160.99
444.07,1,161.19
444.07,1,161.39
444.07,1,161.59
444.07,1,161.79
444.07,1,161.99
438.41,1,162.18
438.41,1,162.38
438.41,1,162.58
438.41,1,162.78
438.41,1,162.98
432.34,1,163.18
432.34,1,163.38
432.34,1,163.58
432.34,1,163.78
432.34,1,163.98
425.86,1,164.18
425.86,1,164.37
425.86,1,164.57
425.86,1,164.77
425.86,1,164.97
418.95,1,165.17
418.95,1,165.37
418.95,1,165.57
418.95,1,165.77
418.95,1,165.97
411.6,1,166.16
411.6,1,166.36
411.6,1,166.56
411.6,1,166.76
411.6,1,166.96
403.82,1,167.16
403.82,1,167.36
403.82,1,167.56
403.82,1,167.76
403.82,1,167.96
395.59,1,168.15
395.59,1,168.35
395.59,1,168.55
395.59,1,168.75
395.59,1,168.95
386.93,1,169.15
386.93,1,169.35
386.93,1,169.55
386.93,1,169.75
386.93,1,169.95
377.82,1,170.15
377.82,1,170.34
377.82,1,170.54
377.82,1,170.74
377.82,1,170.94
368.28,1,171.14
368.28,1,171.34
368.28,1,171.54
368.28,1,171.74
368.28,1,171.94
358.32,1,172.13
358.32,1,172.33
358.32,1,172.53
358.32,1,172.73
358.32,1,172.93
347.94,1,173.13
347.94,1,173.33
347.94,1,173.53
347.94,1,173.73
347.94,1,173.93
337.16,1,174.12
337.16,1,174.32
337.16,1,174.52
337.16,1,174.72
337.16,1,174.92
326,1,175.12
326,1,175.32
326,1,175.52
326,1,175.72
326,1,175.92
314.47,1,176.12
314.47,1,176.31
314.47,1,176.51
314.47,1,176.71
314.47,1,176.91
302.59,1,177.11
302.59,1,177.31
302.59,1,177.51
302.59,1,177.71
302.59,1,177.91
290.4,1,178.1
290.4,1,178.3
290.4,1,178.5
290.4,1,178.7
290.4,1,178.9
278,1,179.1
278,1,179.3
278,1,179.5
278,1,179.7
278,1,179.9
0,1,180.1
0,1,180.29
0,1,180.49
0,1,180.69
0,1,180.89
0,1,181.09
0,1,181.29
0,1,181.49
0,1,181.69
0,1,181.89
0,1,182.09
0,1,182.28
0,1,182.48
0,1,182.68
0,1,182.88
0,1,183.08
0,1,183.28
0,1,183.48
0,1,183.68
0,1,183.88
0,1,184.07
0,1,184.27
0,1,184.47
0,1,184.67
0,1,184.87
0,1,185.07
0,1,185.27
0,1,185.47
0,1,185.67
0,1,185.87
0,1,186.07
0,1,186.26
0,1,186.46
0,1,186.66
0,1,186.86
0,1,187.06
0,1,187.26
0,1,187.46
0,1,187.66
0,1,187.86
0,1,188.05
0,1,188.25
0,1,188.45
0,1,188.65
0,1,188.85
0,1,189.05
0,1,189.25
0,1,189.45
0,1,189.65
0,1,189.85
0,1,190.04
0,1,190.24
0,1,190.44
0,1,190.64
0,1,190.84
0,1,191.04
0,1,191.24
0,1,191.44
0,1,191.64
0,1,191.84
0,1,192.04
0,1,192.23
0,1,192.43
0,1,192.63
0,1,192.83
0,1,193.03
0,1,193.23
0,1,193.43
0,1,193.63
0,1,193.83
0,1,194.02
0,1,194.22
0,1,194.42
0,1,194.62
0,1,194.82
0,1,195.02
0,1,195.22
0,1,195.42
0,1,195.62
0,1,195.82
0,1,196.01
0,1,196.21
0,1,196.41
0,1,196.61
0,1,196.81
0,1,197.01
0,1,197.21
0,1,197.41
0,1,197.61
0,1,197.81
0,1,198.01
0,1,198.2
0,1,198.4
0,1,198.6
0,1,198.8
0,1,199
