"PuMA_Matrix","vtkValidPointMask","arc_length"
0,1,0
0,1,0.199
0,1,0.398
0,1,0.597
0,1,0.796
0,1,0.995
0,1,1.194
0,1,1.393
0,1,1.592
0,1,1.791
0,1,1.99
0,1,2.189
0,1,2.388
0,1,2.587
0,1,2.786
0,1,2.985
0,1,3.184
0,1,3.383
0,1,3.582
0,1,3.781
0,1,3.98
0,1,4.179
0,1,4.378
0,1,4.577
0,1,4.776
0,1,4.975
0,1,5.174
0,1,5.373
0,1,5.572
0,1,5.771
0,1,5.97
0,1,6.169
0,1,6.368
0,1,6.567
0,1,6.766
0,1,6.965
0,1,7.164
0,1,7.363
0,1,7.562
0,1,7.761
0,1,7.96
0,1,8.159
0,1,8.358
0,1,8.557
0,1,8.756
0,1,8.955
0,1,9.154
0,1,9.353
0,1,9.552
0,1,9.751
0,1,9.95
0,1,10.149
0,1,10.348
0,1,10.547
0,1,10.746
0,1,10.945
0,1,11.144
0,1,11.343
0,1,11.542
0,1,11.741
0,1,11.94
0,1,12.139
0,1,12.338
0,1,12.537
0,1,12.736
0,1,12.935
0,1,13.134
0,1,13.333
0,1,13.532
0,1,13.731
0,1,13.93
0,1,14.129
0,1,14.328
0,1,14.527
0,1,14.726
0,1,14.925
0,1,15.124
0,1,15.323
0,1,15.522
0,1,15.721
0,1,15.92
0,1,16.119
0,1,16.318
0,1,16.517
0,1,16.716
0,1,16.915
0,1,17.114
0,1,17.313
0,1,17.512
0,1,17.711
0,1,17.91
0,1,18.109
0,1,18.308
0,1,18.507
0,1,18.706
0,1,18.905
0,1,19.104
0,1,19.303
0,1,19.502
0,1,19.701
0,1,19.9
296.62,1,20.099
296.62,1,20.298
296.62,1,20.497
296.62,1,20.696
296.62,1,20.895
309.84,1,21.094
309.84,1,21.293
309.84,1,21.492
309.84,1,21.691
309.84,1,21.89
322.75,1,22.089
322.75,1,22.288
322.75,1,22.487
322.75,1,22.686
322.75,1,22.885
335.23,1,23.084
335.23,1,23.283
335.23,1,23.482
335.23,1,23.681
335.23,1,23.88
347.25,1,24.079
347.25,1,24.278
347.25,1,24.477
347.25,1,24.676
347.25,1,24.875
358.79,1,25.074
358.79,1,25.273
358.79,1,25.472
358.79,1,25.671
358.79,1,25.87
369.82,1,26.069
369.82,1,26.268
369.82,1,26.467
369.82,1,26.666
369.82,1,26.865
380.34,1,27.064
380.34,1,27.263
380.34,1,27.462
380.34,1,27.661
380.34,1,27.86
390.32,1,28.059
390.32,1,28.258
390.32,1,28.457
390.32,1,28.656
390.32,1,28.855
399.76,1,29.054
399.76,1,29.253
399.76,1,29.452
399.76,1,29.651
399.76,1,29.85
408.66,1,30.049
408.66,1,30.248
408.66,1,30.447
408.66,1,30.646
408.66,1,30.845
417.02,1,31.044
417.02,1,31.243
417.02,1,31.442
417.02,1,31.641
417.02,1,31.84
424.84,1,32.039
424.84,1,32.238
424.84,1,32.437
424.84,1,32.636
424.84,1,32.835
432.13,1,33.034
432.13,1,33.233
432.13,1,33.432
432.13,1,33.631
432.13,1,33.83
438.9,1,34.029
438.9,1,34.228
438.9,1,34.427
438.9,1,34.626
438.9,1,34.825
445.17,1,35.024
445.17,1,35.223
445.17,1,35.422
445.17,1,35.621
445.17,1,35.82
450.95,1,36.019
450.95,1,36.218
450.95,1,36.417
450.95,1,36.616
450.95,1,36.815
456.25,1,37.014
456.25,1,37.213
456.25,1,37.412
456.25,1,37.611
456.25,1,37.81
461.11,1,38.009
461.11,1,38.208
461.11,1,38.407
461.11,1,38.606
461.11,1,38.805
465.54,1,39.004
465.54,1,39.203
465.54,1,39.402
465.54,1,39.601
465.54,1,39.8
465.54,1,39.999
469.56,1,40.198
469.56,1,40.397
469.56,1,40.596
469.56,1,40.795
469.56,1,40.994
473.2,1,41.193
473.2,1,41.392
473.2,1,41.591
473.2,1,41.79
473.2,1,41.989
476.48,1,42.188
476.48,1,42.387
476.48,1,42.586
476.48,1,42.785
476.48,1,42.984
479.42,1,43.183
479.42,1,43.382
479.42,1,43.581
479.42,1,43.78
479.42,1,43.979
482.06,1,44.178
482.06,1,44.377
482.06,1,44.576
482.06,1,44.775
482.06,1,44.974
484.4,1,45.173
484.4,1,45.372
484.4,1,45.571
484.4,1,45.77
484.4,1,45.969
486.49,1,46.168
486.49,1,46.367
486.49,1,46.566
486.49,1,46.765
486.49,1,46.964
488.34,1,47.163
488.34,1,47.362
488.34,1,47.561
488.34,1,47.76
488.34,1,47.959
489.96,1,48.158
489.96,1,48.357
489.96,1,48.556
489.96,1,48.755
489.96,1,48.954
491.39,1,49.153
491.39,1,49.352
491.39,1,49.551
491.39,1,49.75
491.39,1,49.949
492.64,1,50.148
492.64,1,50.347
492.64,1,50.546
492.64,1,50.745
492.64,1,50.944
493.73,1,51.143
493.73,1,51.342
493.73,1,51.541
493.73,1,51.74
493.73,1,51.939
494.67,1,52.138
494.67,1,52.337
494.67,1,52.536
494.67,1,52.735
494.67,1,52.934
495.49,1,53.133
495.49,1,53.332
495.49,1,53.531
495.49,1,53.73
495.49,1,53.929
496.19,1,54.128
496.19,1,54.327
496.19,1,54.526
496.19,1,54.725
496.19,1,54.924
496.8,1,55.123
496.8,1,55.322
496.8,1,55.521
496.8,1,55.72
496.8,1,55.919
497.32,1,56.118
497.32,1,56.317
497.32,1,56.516
497.32,1,56.715
497.32,1,56.914
497.76,1,57.113
497.76,1,57.312
497.76,1,57.511
497.76,1,57.71
497.76,1,57.909
498.13,1,58.108
498.13,1,58.307
498.13,1,58.506
498.13,1,58.705
498.13,1,58.904
498.45,1,59.103
498.45,1,59.302
498.45,1,59.501
498.45,1,59.7
498.45,1,59.899
498.72,1,60.098
498.72,1,60.297
498.72,1,60.496
498.72,1,60.695
498.72,1,60.894
498.94,1,61.093
498.94,1,61.292
498.94,1,61.491
498.94,1,61.69
498.94,1,61.889
499.13,1,62.088
499.13,1,62.287
499.13,1,62.486
499.13,1,62.685
499.13,1,62.884
499.29,1,63.083
499.29,1,63.282
499.29,1,63.481
499.29,1,63.68
499.29,1,63.879
499.42,1,64.078
499.42,1,64.277
499.42,1,64.476
499.42,1,64.675
499.42,1,64.874
499.52,1,65.073
499.52,1,65.272
499.52,1,65.471
499.52,1,65.67
499.52,1,65.869
499.61,1,66.068
499.61,1,66.267
499.61,1,66.466
499.61,1,66.665
499.61,1,66.864
499.69,1,67.063
499.69,1,67.262
499.69,1,67.461
499.69,1,67.66
499.69,1,67.859
499.75,1,68.058
499.75,1,68.257
499.75,1,68.456
499.75,1,68.655
499.75,1,68.854
499.8,1,69.053
499.8,1,69.252
499.8,1,69.451
499.8,1,69.65
499.8,1,69.849
499.84,1,70.048
499.84,1,70.247
499.84,1,70.446
499.84,1,70.645
499.84,1,70.844
499.87,1,71.043
499.87,1,71.242
499.87,1,71.441
499.87,1,71.64
499.87,1,71.839
499.9,1,72.038
499.9,1,72.237
499.9,1,72.436
499.9,1,72.635
499.9,1,72.834
499.92,1,73.033
499.92,1,73.232
499.92,1,73.431
499.92,1,73.63
499.92,1,73.829
499.93,1,74.028
499.93,1,74.227
499.93,1,74.426
499.93,1,74.625
499.93,1,74.824
499.95,1,75.023
499.95,1,75.222
499.95,1,75.421
499.95,1,75.62
499.95,1,75.819
499.96,1,76.018
499.96,1,76.217
499.96,1,76.416
499.96,1,76.615
499.96,1,76.814
499.97,1,77.013
499.97,1,77.212
499.97,1,77.411
499.97,1,77.61
499.97,1,77.809
499.97,1,78.008
499.97,1,78.207
499.97,1,78.406
499.97,1,78.605
499.97,1,78.804
499.98,1,79.003
499.98,1,79.202
499.98,1,79.401
499.98,1,79.6
499.98,1,79.799
499.98,1,79.998
499.98,1,80.197
499.98,1,80.396
499.98,1,80.595
499.98,1,80.794
499.98,1,80.993
499.99,1,81.192
499.99,1,81.391
499.99,1,81.59
499.99,1,81.789
499.99,1,81.988
499.99,1,82.187
499.99,1,82.386
499.99,1,82.585
499.99,1,82.784
499.99,1,82.983
499.99,1,83.182
499.99,1,83.381
499.99,1,83.58
499.99,1,83.779
499.99,1,83.978
499.99,1,84.177
499.99,1,84.376
499.99,1,84.575
499.99,1,84.774
499.99,1,84.973
500,1,85.172
500,1,85.371
500,1,85.57
500,1,85.769
500,1,85.968
500,1,86.167
500,1,86.366
500,1,86.565
500,1,86.764
500,1,86.963
500,1,87.162
500,1,87.361
500,1,87.56
500,1,87.759
500,1,87.958
500,1,88.157
500,1,88.356
500,1,88.555
500,1,88.754
500,1,88.953
500,1,89.152
500,1,89.351
500,1,89.55
500,1,89.749
500,1,89.948
500,1,90.147
500,1,90.346
500,1,90.545
500,1,90.744
500,1,90.943
500,1,91.142
500,1,91.341
500,1,91.54
500,1,91.739
500,1,91.938
500,1,92.137
500,1,92.336
500,1,92.535
500,1,92.734
500,1,92.933
500,1,93.132
500,1,93.331
500,1,93.53
500,1,93.729
500,1,93.928
500,1,94.127
500,1,94.326
500,1,94.525
500,1,94.724
500,1,94.923
500,1,95.122
500,1,95.321
500,1,95.52
500,1,95.719
500,1,95.918
500,1,96.117
500,1,96.316
500,1,96.515
500,1,96.714
500,1,96.913
500,1,97.112
500,1,97.311
500,1,97.51
500,1,97.709
500,1,97.908
500,1,98.107
500,1,98.306
500,1,98.505
500,1,98.704
500,1,98.903
500,1,99.102
500,1,99.301
500,1,99.5
500,1,99.699
500,1,99.898
500,1,100.1
500,1,100.3
500,1,100.5
500,1,100.69
500,1,100.89
500,1,101.09
500,1,101.29
500,1,101.49
500,1,101.69
500,1,101.89
500,1,102.09
500,1,102.29
500,1,102.49
500,1,102.68
500,1,102.88
500,1,103.08
500,1,103.28
500,1,103.48
500,1,103.68
500,1,103.88
500,1,104.08
500,1,104.28
500,1,104.47
500,1,104.67
500,1,104.87
500,1,105.07
500,1,105.27
500,1,105.47
500,1,105.67
500,1,105.87
500,1,106.07
500,1,106.27
500,1,106.46
500,1,106.66
500,1,106.86
500,1,107.06
500,1,107.26
500,1,107.46
500,1,107.66
500,1,107.86
500,1,108.06
500,1,108.26
500,1,108.46
500,1,108.65
500,1,108.85
500,1,109.05
500,1,109.25
500,1,109.45
500,1,109.65
500,1,109.85
500,1,110.05
500,1,110.25
500,1,110.44
500,1,110.64
500,1,110.84
500,1,111.04
500,1,111.24
500,1,111.44
500,1,111.64
500,1,111.84
500,1,112.04
500,1,112.24
500,1,112.43
500,1,112.63
500,1,112.83
500,1,113.03
500,1,113.23
500,1,113.43
500,1,113.63
500,1,113.83
500,1,114.03
500,1,114.23
500,1,114.43
500,1,114.62
500,1,114.82
499.99,1,115.02
499.99,1,115.22
499.99,1,115.42
499.99,1,115.62
499.99,1,115.82
499.99,1,116.02
499.99,1,116.22
499.99,1,116.42
499.99,1,116.61
499.99,1,116.81
499.99,1,117.01
499.99,1,117.21
499.99,1,117.41
499.99,1,117.61
499.99,1,117.81
499.99,1,118.01
499.99,1,118.21
499.99,1,118.4
499.99,1,118.6
499.99,1,118.8
499.98,1,119
499.98,1,119.2
499.98,1,119.4
499.98,1,119.6
499.98,1,119.8
499.98,1,120
499.98,1,120.2
499.98,1,120.39
499.98,1,120.59
499.98,1,120.79
499.98,1,120.99
499.97,1,121.19
499.97,1,121.39
499.97,1,121.59
499.97,1,121.79
499.97,1,121.99
499.97,1,122.19
499.97,1,122.39
499.97,1,122.58
499.97,1,122.78
499.97,1,122.98
499.96,1,123.18
499.96,1,123.38
499.96,1,123.58
499.96,1,123.78
499.96,1,123.98
499.95,1,124.18
499.95,1,124.38
499.95,1,124.57
499.95,1,124.77
499.95,1,124.97
499.93,1,125.17
499.93,1,125.37
499.93,1,125.57
499.93,1,125.77
499.93,1,125.97
499.92,1,126.17
499.92,1,126.36
499.92,1,126.56
499.92,1,126.76
499.92,1,126.96
499.9,1,127.16
499.9,1,127.36
499.9,1,127.56
499.9,1,127.76
499.9,1,127.96
499.87,1,128.16
499.87,1,128.35
499.87,1,128.55
499.87,1,128.75
499.87,1,128.95
499.84,1,129.15
499.84,1,129.35
499.84,1,129.55
499.84,1,129.75
499.84,1,129.95
499.8,1,130.15
499.8,1,130.35
499.8,1,130.54
499.8,1,130.74
499.8,1,130.94
499.75,1,131.14
499.75,1,131.34
499.75,1,131.54
499.75,1,131.74
499.75,1,131.94
499.69,1,132.14
499.69,1,132.34
499.69,1,132.53
499.69,1,132.73
499.69,1,132.93
499.61,1,133.13
499.61,1,133.33
499.61,1,133.53
499.61,1,133.73
499.61,1,133.93
499.52,1,134.13
499.52,1,134.32
499.52,1,134.52
499.52,1,134.72
499.52,1,134.92
499.42,1,135.12
499.42,1,135.32
499.42,1,135.52
499.42,1,135.72
499.42,1,135.92
499.29,1,136.12
499.29,1,136.32
499.29,1,136.51
499.29,1,136.71
499.29,1,136.91
499.13,1,137.11
499.13,1,137.31
499.13,1,137.51
499.13,1,137.71
499.13,1,137.91
498.94,1,138.11
498.94,1,138.3
498.94,1,138.5
498.94,1,138.7
498.94,1,138.9
498.72,1,139.1
498.72,1,139.3
498.72,1,139.5
498.72,1,139.7
498.72,1,139.9
498.45,1,140.1
498.45,1,140.29
498.45,1,140.49
498.45,1,140.69
498.45,1,140.89
498.13,1,141.09
498.13,1,141.29
498.13,1,141.49
498.13,1,141.69
498.13,1,141.89
497.76,1,142.09
497.76,1,142.29
497.76,1,142.48
497.76,1,142.68
497.76,1,142.88
497.32,1,143.08
497.32,1,143.28
497.32,1,143.48
497.32,1,143.68
497.32,1,143.88
496.8,1,144.08
496.8,1,144.27
496.8,1,144.47
496.8,1,144.67
496.8,1,144.87
496.19,1,145.07
496.19,1,145.27
496.19,1,145.47
496.19,1,145.67
496.19,1,145.87
495.49,1,146.07
495.49,1,146.26
495.49,1,146.46
495.49,1,146.66
495.49,1,146.86
494.67,1,147.06
494.67,1,147.26
494.67,1,147.46
494.67,1,147.66
494.67,1,147.86
493.73,1,148.06
493.73,1,148.26
493.73,1,148.45
493.73,1,148.65
493.73,1,148.85
492.64,1,149.05
492.64,1,149.25
492.64,1,149.45
492.64,1,149.65
492.64,1,149.85
491.39,1,150.05
491.39,1,150.24
491.39,1,150.44
491.39,1,150.64
491.39,1,150.84
489.96,1,151.04
489.96,1,151.24
489.96,1,151.44
489.96,1,151.64
489.96,1,151.84
488.34,1,152.04
488.34,1,152.24
488.34,1,152.43
488.34,1,152.63
488.34,1,152.83
486.49,1,153.03
486.49,1,153.23
486.49,1,153.43
486.49,1,153.63
486.49,1,153.83
484.4,1,154.03
484.4,1,154.23
484.4,1,154.42
484.4,1,154.62
484.4,1,154.82
482.06,1,155.02
482.06,1,155.22
482.06,1,155.42
482.06,1,155.62
482.06,1,155.82
479.42,1,156.02
479.42,1,156.21
479.42,1,156.41
479.42,1,156.61
479.42,1,156.81
476.48,1,157.01
476.48,1,157.21
476.48,1,157.41
476.48,1,157.61
476.48,1,157.81
473.2,1,158.01
473.2,1,158.21
473.2,1,158.4
473.2,1,158.6
473.2,1,158.8
469.56,1,159
469.56,1,159.2
469.56,1,159.4
469.56,1,159.6
469.56,1,159.8
469.56,1,160
465.54,1,160.2
465.54,1,160.39
465.54,1,160.59
465.54,1,160.79
465.54,1,160.99
461.11,1,161.19
461.11,1,161.39
461.11,1,161.59
461.11,1,161.79
461.11,1,161.99
456.25,1,162.18
456.25,1,162.38
456.25,1,162.58
456.25,1,162.78
456.25,1,162.98
450.95,1,163.18
450.95,1,163.38
450.95,1,163.58
450.95,1,163.78
450.95,1,163.98
445.17,1,164.18
445.17,1,164.37
445.17,1,164.57
445.17,1,164.77
445.17,1,164.97
438.9,1,165.17
438.9,1,165.37
438.9,1,165.57
438.9,1,165.77
438.9,1,165.97
432.13,1,166.16
432.13,1,166.36
432.13,1,166.56
432.13,1,166.76
432.13,1,166.96
424.84,1,167.16
424.84,1,167.36
424.84,1,167.56
424.84,1,167.76
424.84,1,167.96
417.02,1,168.15
417.02,1,168.35
417.02,1,168.55
417.02,1,168.75
417.02,1,168.95
408.66,1,169.15
408.66,1,169.35
408.66,1,169.55
408.66,1,169.75
408.66,1,169.95
399.76,1,170.15
399.76,1,170.34
399.76,1,170.54
399.76,1,170.74
399.76,1,170.94
390.32,1,171.14
390.32,1,171.34
390.32,1,171.54
390.32,1,171.74
390.32,1,171.94
380.34,1,172.13
380.34,1,172.33
380.34,1,172.53
380.34,1,172.73
380.34,1,172.93
369.82,1,173.13
369.82,1,173.33
369.82,1,173.53
369.82,1,173.73
369.82,1,173.93
358.79,1,174.12
358.79,1,174.32
358.79,1,174.52
358.79,1,174.72
358.79,1,174.92
347.25,1,175.12
347.25,1,175.32
347.25,1,175.52
347.25,1,175.72
347.25,1,175.92
335.23,1,176.12
335.23,1,176.31
335.23,1,176.51
335.23,1,176.71
335.23,1,176.91
322.75,1,177.11
322.75,1,177.31
322.75,1,177.51
322.75,1,177.71
322.75,1,177.91
309.84,1,178.1
309.84,1,178.3
309.84,1,178.5
309.84,1,178.7
309.84,1,178.9
296.62,1,179.1
296.62,1,179.3
296.62,1,179.5
296.62,1,179.7
296.62,1,179.9
0,1,180.1
0,1,180.29
0,1,180.49
0,1,180.69
0,1,180.89
0,1,181.09
0,1,181.29
0,1,181.49
0,1,181.69
0,1,181.89
0,1,182.09
0,1,182.28
0,1,182.48
0,1,182.68
0,1,182.88
0,1,183.08
0,1,183.28
0,1,183.48
0,1,183.68
0,1,183.88
0,1,184.07
0,1,184.27
0,1,184.47
0,1,184.67
0,1,184.87
0,1,185.07
0,1,185.27
0,1,185.47
0,1,185.67
0,1,185.87
0,1,186.07
0,1,186.26
0,1,186.46
0,1,186.66
0,1,186.86
0,1,187.06
0,1,187.26
0,1,187.46
0,1,187.66
0,1,187.86
0,1,188.05
0,1,188.25
0,1,188.45
0,1,188.65
0,1,188.85
0,1,189.05
0,1,189.25
0,1,189.45
0,1,189.65
0,1,189.85
0,1,190.04
0,1,190.24
0,1,190.44
0,1,190.64
0,1,190.84
0,1,191.04
0,1,191.24
0,1,191.44
0,1,191.64
0,1,191.84
0,1,192.04
0,1,192.23
0,1,192.43
0,1,192.63
0,1,192.83
0,1,193.03
0,1,193.23
0,1,193.43
0,1,193.63
0,1,193.83
0,1,194.02
0,1,194.22
0,1,194.42
0,1,194.62
0,1,194.82
0,1,195.02
0,1,195.22
0,1,195.42
0,1,195.62
0,1,195.82
0,1,196.01
0,1,196.21
0,1,196.41
0,1,196.61
0,1,196.81
0,1,197.01
0,1,197.21
0,1,197.41
0,1,197.61
0,1,197.81
0,1,198.01
0,1,198.2
0,1,198.4
0,1,198.6
0,1,198.8
0,1,199
