"PuMA_Matrix","vtkValidPointMask","arc_length"
0,1,0
0,1,0.199
0,1,0.398
0,1,0.597
0,1,0.796
0,1,0.995
0,1,1.194
0,1,1.393
0,1,1.592
0,1,1.791
0,1,1.99
0,1,2.189
0,1,2.388
0,1,2.587
0,1,2.786
0,1,2.985
0,1,3.184
0,1,3.383
0,1,3.582
0,1,3.781
0,1,3.98
0,1,4.179
0,1,4.378
0,1,4.577
0,1,4.776
0,1,4.975
0,1,5.174
0,1,5.373
0,1,5.572
0,1,5.771
0,1,5.97
0,1,6.169
0,1,6.368
0,1,6.567
0,1,6.766
0,1,6.965
0,1,7.164
0,1,7.363
0,1,7.562
0,1,7.761
0,1,7.96
0,1,8.159
0,1,8.358
0,1,8.557
0,1,8.756
0,1,8.955
0,1,9.154
0,1,9.353
0,1,9.552
0,1,9.751
0,1,9.95
0,1,10.149
0,1,10.348
0,1,10.547
0,1,10.746
0,1,10.945
0,1,11.144
0,1,11.343
0,1,11.542
0,1,11.741
0,1,11.94
0,1,12.139
0,1,12.338
0,1,12.537
0,1,12.736
0,1,12.935
0,1,13.134
0,1,13.333
0,1,13.532
0,1,13.731
0,1,13.93
0,1,14.129
0,1,14.328
0,1,14.527
0,1,14.726
0,1,14.925
0,1,15.124
0,1,15.323
0,1,15.522
0,1,15.721
0,1,15.92
0,1,16.119
0,1,16.318
0,1,16.517
0,1,16.716
0,1,16.915
0,1,17.114
0,1,17.313
0,1,17.512
0,1,17.711
0,1,17.91
0,1,18.109
0,1,18.308
0,1,18.507
0,1,18.706
0,1,18.905
0,1,19.104
0,1,19.303
0,1,19.502
0,1,19.701
0,1,19.9
274.04,1,20.099
274.04,1,20.298
274.04,1,20.497
274.04,1,20.696
274.04,1,20.895
286.26,1,21.094
286.26,1,21.293
286.26,1,21.492
286.26,1,21.691
286.26,1,21.89
298.3,1,22.089
298.3,1,22.288
298.3,1,22.487
298.3,1,22.686
298.3,1,22.885
310.03,1,23.084
310.03,1,23.283
310.03,1,23.482
310.03,1,23.681
310.03,1,23.88
321.45,1,24.079
321.45,1,24.278
321.45,1,24.477
321.45,1,24.676
321.45,1,24.875
332.52,1,25.074
332.52,1,25.273
332.52,1,25.472
332.52,1,25.671
332.52,1,25.87
343.23,1,26.069
343.23,1,26.268
343.23,1,26.467
343.23,1,26.666
343.23,1,26.865
353.56,1,27.064
353.56,1,27.263
353.56,1,27.462
353.56,1,27.661
353.56,1,27.86
363.49,1,28.059
363.49,1,28.258
363.49,1,28.457
363.49,1,28.656
363.49,1,28.855
373.03,1,29.054
373.03,1,29.253
373.03,1,29.452
373.03,1,29.651
373.03,1,29.85
382.15,1,30.049
382.15,1,30.248
382.15,1,30.447
382.15,1,30.646
382.15,1,30.845
390.85,1,31.044
390.85,1,31.243
390.85,1,31.442
390.85,1,31.641
390.85,1,31.84
399.13,1,32.039
399.13,1,32.238
399.13,1,32.437
399.13,1,32.636
399.13,1,32.835
406.99,1,33.034
406.99,1,33.233
406.99,1,33.432
406.99,1,33.631
406.99,1,33.83
414.43,1,34.029
414.43,1,34.228
414.43,1,34.427
414.43,1,34.626
414.43,1,34.825
421.45,1,35.024
421.45,1,35.223
421.45,1,35.422
421.45,1,35.621
421.45,1,35.82
428.06,1,36.019
428.06,1,36.218
428.06,1,36.417
428.06,1,36.616
428.06,1,36.815
434.26,1,37.014
434.26,1,37.213
434.26,1,37.412
434.26,1,37.611
434.26,1,37.81
440.06,1,38.009
440.06,1,38.208
440.06,1,38.407
440.06,1,38.606
440.06,1,38.805
445.48,1,39.004
445.48,1,39.203
445.48,1,39.402
445.48,1,39.601
445.48,1,39.8
445.48,1,39.999
450.52,1,40.198
450.52,1,40.397
450.52,1,40.596
450.52,1,40.795
450.52,1,40.994
455.2,1,41.193
455.2,1,41.392
455.2,1,41.591
455.2,1,41.79
455.2,1,41.989
459.53,1,42.188
459.53,1,42.387
459.53,1,42.586
459.53,1,42.785
459.53,1,42.984
463.53,1,43.183
463.53,1,43.382
463.53,1,43.581
463.53,1,43.78
463.53,1,43.979
467.21,1,44.178
467.21,1,44.377
467.21,1,44.576
467.21,1,44.775
467.21,1,44.974
470.59,1,45.173
470.59,1,45.372
470.59,1,45.571
470.59,1,45.77
470.59,1,45.969
473.68,1,46.168
473.68,1,46.367
473.68,1,46.566
473.68,1,46.765
473.68,1,46.964
476.5,1,47.163
476.5,1,47.362
476.5,1,47.561
476.5,1,47.76
476.5,1,47.959
479.07,1,48.158
479.07,1,48.357
479.07,1,48.556
479.07,1,48.755
479.07,1,48.954
481.4,1,49.153
481.4,1,49.352
481.4,1,49.551
481.4,1,49.75
481.4,1,49.949
483.51,1,50.148
483.51,1,50.347
483.51,1,50.546
483.51,1,50.745
483.51,1,50.944
485.42,1,51.143
485.42,1,51.342
485.42,1,51.541
485.42,1,51.74
485.42,1,51.939
487.13,1,52.138
487.13,1,52.337
487.13,1,52.536
487.13,1,52.735
487.13,1,52.934
488.67,1,53.133
488.67,1,53.332
488.67,1,53.531
488.67,1,53.73
488.67,1,53.929
490.05,1,54.128
490.05,1,54.327
490.05,1,54.526
490.05,1,54.725
490.05,1,54.924
491.28,1,55.123
491.28,1,55.322
491.28,1,55.521
491.28,1,55.72
491.28,1,55.919
492.38,1,56.118
492.38,1,56.317
492.38,1,56.516
492.38,1,56.715
492.38,1,56.914
493.35,1,57.113
493.35,1,57.312
493.35,1,57.511
493.35,1,57.71
493.35,1,57.909
494.22,1,58.108
494.22,1,58.307
494.22,1,58.506
494.22,1,58.705
494.22,1,58.904
494.98,1,59.103
494.98,1,59.302
494.98,1,59.501
494.98,1,59.7
494.98,1,59.899
495.65,1,60.098
495.65,1,60.297
495.65,1,60.496
495.65,1,60.695
495.65,1,60.894
496.24,1,61.093
496.24,1,61.292
496.24,1,61.491
496.24,1,61.69
496.24,1,61.889
496.76,1,62.088
496.76,1,62.287
496.76,1,62.486
496.76,1,62.685
496.76,1,62.884
497.21,1,63.083
497.21,1,63.282
497.21,1,63.481
497.21,1,63.68
497.21,1,63.879
497.6,1,64.078
497.6,1,64.277
497.6,1,64.476
497.6,1,64.675
497.6,1,64.874
497.95,1,65.073
497.95,1,65.272
497.95,1,65.471
497.95,1,65.67
497.95,1,65.869
498.24,1,66.068
498.24,1,66.267
498.24,1,66.466
498.24,1,66.665
498.24,1,66.864
498.5,1,67.063
498.5,1,67.262
498.5,1,67.461
498.5,1,67.66
498.5,1,67.859
498.72,1,68.058
498.72,1,68.257
498.72,1,68.456
498.72,1,68.655
498.72,1,68.854
498.91,1,69.053
498.91,1,69.252
498.91,1,69.451
498.91,1,69.65
498.91,1,69.849
499.08,1,70.048
499.08,1,70.247
499.08,1,70.446
499.08,1,70.645
499.08,1,70.844
499.22,1,71.043
499.22,1,71.242
499.22,1,71.441
499.22,1,71.64
499.22,1,71.839
499.34,1,72.038
499.34,1,72.237
499.34,1,72.436
499.34,1,72.635
499.34,1,72.834
499.44,1,73.033
499.44,1,73.232
499.44,1,73.431
499.44,1,73.63
499.44,1,73.829
499.53,1,74.028
499.53,1,74.227
499.53,1,74.426
499.53,1,74.625
499.53,1,74.824
499.6,1,75.023
499.6,1,75.222
499.6,1,75.421
499.6,1,75.62
499.6,1,75.819
499.67,1,76.018
499.67,1,76.217
499.67,1,76.416
499.67,1,76.615
499.67,1,76.814
499.72,1,77.013
499.72,1,77.212
499.72,1,77.411
499.72,1,77.61
499.72,1,77.809
499.77,1,78.008
499.77,1,78.207
499.77,1,78.406
499.77,1,78.605
499.77,1,78.804
499.8,1,79.003
499.8,1,79.202
499.8,1,79.401
499.8,1,79.6
499.8,1,79.799
499.8,1,79.998
499.84,1,80.197
499.84,1,80.396
499.84,1,80.595
499.84,1,80.794
499.84,1,80.993
499.86,1,81.192
499.86,1,81.391
499.86,1,81.59
499.86,1,81.789
499.86,1,81.988
499.88,1,82.187
499.88,1,82.386
499.88,1,82.585
499.88,1,82.784
499.88,1,82.983
499.9,1,83.182
499.9,1,83.381
499.9,1,83.58
499.9,1,83.779
499.9,1,83.978
499.92,1,84.177
499.92,1,84.376
499.92,1,84.575
499.92,1,84.774
499.92,1,84.973
499.93,1,85.172
499.93,1,85.371
499.93,1,85.57
499.93,1,85.769
499.93,1,85.968
499.94,1,86.167
499.94,1,86.366
499.94,1,86.565
499.94,1,86.764
499.94,1,86.963
499.95,1,87.162
499.95,1,87.361
499.95,1,87.56
499.95,1,87.759
499.95,1,87.958
499.96,1,88.157
499.96,1,88.356
499.96,1,88.555
499.96,1,88.754
499.96,1,88.953
499.97,1,89.152
499.97,1,89.351
499.97,1,89.55
499.97,1,89.749
499.97,1,89.948
499.97,1,90.147
499.97,1,90.346
499.97,1,90.545
499.97,1,90.744
499.97,1,90.943
499.97,1,91.142
499.97,1,91.341
499.97,1,91.54
499.97,1,91.739
499.97,1,91.938
499.98,1,92.137
499.98,1,92.336
499.98,1,92.535
499.98,1,92.734
499.98,1,92.933
499.98,1,93.132
499.98,1,93.331
499.98,1,93.53
499.98,1,93.729
499.98,1,93.928
499.98,1,94.127
499.98,1,94.326
499.98,1,94.525
499.98,1,94.724
499.98,1,94.923
499.98,1,95.122
499.98,1,95.321
499.98,1,95.52
499.98,1,95.719
499.98,1,95.918
499.99,1,96.117
499.99,1,96.316
499.99,1,96.515
499.99,1,96.714
499.99,1,96.913
499.99,1,97.112
499.99,1,97.311
499.99,1,97.51
499.99,1,97.709
499.99,1,97.908
499.99,1,98.107
499.99,1,98.306
499.99,1,98.505
499.99,1,98.704
499.99,1,98.903
499.99,1,99.102
499.99,1,99.301
499.99,1,99.5
499.99,1,99.699
499.99,1,99.898
499.99,1,100.1
499.99,1,100.3
499.99,1,100.5
499.99,1,100.69
499.99,1,100.89
499.99,1,101.09
499.99,1,101.29
499.99,1,101.49
499.99,1,101.69
499.99,1,101.89
499.99,1,102.09
499.99,1,102.29
499.99,1,102.49
499.99,1,102.68
499.99,1,102.88
499.99,1,103.08
499.99,1,103.28
499.99,1,103.48
499.99,1,103.68
499.99,1,103.88
499.98,1,104.08
499.98,1,104.28
499.98,1,104.47
499.98,1,104.67
499.98,1,104.87
499.98,1,105.07
499.98,1,105.27
499.98,1,105.47
499.98,1,105.67
499.98,1,105.87
499.98,1,106.07
499.98,1,106.27
499.98,1,106.46
499.98,1,106.66
499.98,1,106.86
499.98,1,107.06
499.98,1,107.26
499.98,1,107.46
499.98,1,107.66
499.98,1,107.86
499.97,1,108.06
499.97,1,108.26
499.97,1,108.46
499.97,1,108.65
499.97,1,108.85
499.97,1,109.05
499.97,1,109.25
499.97,1,109.45
499.97,1,109.65
499.97,1,109.85
499.97,1,110.05
499.97,1,110.25
499.97,1,110.44
499.97,1,110.64
499.97,1,110.84
499.96,1,111.04
499.96,1,111.24
499.96,1,111.44
499.96,1,111.64
499.96,1,111.84
499.95,1,112.04
499.95,1,112.24
499.95,1,112.43
499.95,1,112.63
499.95,1,112.83
499.94,1,113.03
499.94,1,113.23
499.94,1,113.43
499.94,1,113.63
499.94,1,113.83
499.93,1,114.03
499.93,1,114.23
499.93,1,114.43
499.93,1,114.62
499.93,1,114.82
499.92,1,115.02
499.92,1,115.22
499.92,1,115.42
499.92,1,115.62
499.92,1,115.82
499.9,1,116.02
499.9,1,116.22
499.9,1,116.42
499.9,1,116.61
499.9,1,116.81
499.88,1,117.01
499.88,1,117.21
499.88,1,117.41
499.88,1,117.61
499.88,1,117.81
499.86,1,118.01
499.86,1,118.21
499.86,1,118.4
499.86,1,118.6
499.86,1,118.8
499.84,1,119
499.84,1,119.2
499.84,1,119.4
499.84,1,119.6
499.84,1,119.8
499.84,1,120
499.8,1,120.2
499.8,1,120.39
499.8,1,120.59
499.8,1,120.79
499.8,1,120.99
499.77,1,121.19
499.77,1,121.39
499.77,1,121.59
499.77,1,121.79
499.77,1,121.99
499.72,1,122.19
499.72,1,122.39
499.72,1,122.58
499.72,1,122.78
499.72,1,122.98
499.67,1,123.18
499.67,1,123.38
499.67,1,123.58
499.67,1,123.78
499.67,1,123.98
499.6,1,124.18
499.6,1,124.38
499.6,1,124.57
499.6,1,124.77
499.6,1,124.97
499.53,1,125.17
499.53,1,125.37
499.53,1,125.57
499.53,1,125.77
499.53,1,125.97
499.44,1,126.17
499.44,1,126.36
499.44,1,126.56
499.44,1,126.76
499.44,1,126.96
499.34,1,127.16
499.34,1,127.36
499.34,1,127.56
499.34,1,127.76
499.34,1,127.96
499.22,1,128.16
499.22,1,128.35
499.22,1,128.55
499.22,1,128.75
499.22,1,128.95
499.08,1,129.15
499.08,1,129.35
499.08,1,129.55
499.08,1,129.75
499.08,1,129.95
498.91,1,130.15
498.91,1,130.35
498.91,1,130.54
498.91,1,130.74
498.91,1,130.94
498.72,1,131.14
498.72,1,131.34
498.72,1,131.54
498.72,1,131.74
498.72,1,131.94
498.5,1,132.14
498.5,1,132.34
498.5,1,132.53
498.5,1,132.73
498.5,1,132.93
498.24,1,133.13
498.24,1,133.33
498.24,1,133.53
498.24,1,133.73
498.24,1,133.93
497.95,1,134.13
497.95,1,134.32
497.95,1,134.52
497.95,1,134.72
497.95,1,134.92
497.6,1,135.12
497.6,1,135.32
497.6,1,135.52
497.6,1,135.72
497.6,1,135.92
497.21,1,136.12
497.21,1,136.32
497.21,1,136.51
497.21,1,136.71
497.21,1,136.91
496.76,1,137.11
496.76,1,137.31
496.76,1,137.51
496.76,1,137.71
496.76,1,137.91
496.24,1,138.11
496.24,1,138.3
496.24,1,138.5
496.24,1,138.7
496.24,1,138.9
495.65,1,139.1
495.65,1,139.3
495.65,1,139.5
495.65,1,139.7
495.65,1,139.9
494.98,1,140.1
494.98,1,140.29
494.98,1,140.49
494.98,1,140.69
494.98,1,140.89
494.22,1,141.09
494.22,1,141.29
494.22,1,141.49
494.22,1,141.69
494.22,1,141.89
493.35,1,142.09
493.35,1,142.29
493.35,1,142.48
493.35,1,142.68
493.35,1,142.88
492.38,1,143.08
492.38,1,143.28
492.38,1,143.48
492.38,1,143.68
492.38,1,143.88
491.28,1,144.08
491.28,1,144.27
491.28,1,144.47
491.28,1,144.67
491.28,1,144.87
490.05,1,145.07
490.05,1,145.27
490.05,1,145.47
490.05,1,145.67
490.05,1,145.87
488.67,1,146.07
488.67,1,146.26
488.67,1,146.46
488.67,1,146.66
488.67,1,146.86
487.13,1,147.06
487.13,1,147.26
487.13,1,147.46
487.13,1,147.66
487.13,1,147.86
485.42,1,148.06
485.42,1,148.26
485.42,1,148.45
485.42,1,148.65
485.42,1,148.85
483.51,1,149.05
483.51,1,149.25
483.51,1,149.45
483.51,1,149.65
483.51,1,149.85
481.4,1,150.05
481.4,1,150.24
481.4,1,150.44
481.4,1,150.64
481.4,1,150.84
479.07,1,151.04
479.07,1,151.24
479.07,1,151.44
479.07,1,151.64
479.07,1,151.84
476.5,1,152.04
476.5,1,152.24
476.5,1,152.43
476.5,1,152.63
476.5,1,152.83
473.68,1,153.03
473.68,1,153.23
473.68,1,153.43
473.68,1,153.63
473.68,1,153.83
470.59,1,154.03
470.59,1,154.23
470.59,1,154.42
470.59,1,154.62
470.59,1,154.82
467.21,1,155.02
467.21,1,155.22
467.21,1,155.42
467.21,1,155.62
467.21,1,155.82
463.53,1,156.02
463.53,1,156.21
463.53,1,156.41
463.53,1,156.61
463.53,1,156.81
459.53,1,157.01
459.53,1,157.21
459.53,1,157.41
459.53,1,157.61
459.53,1,157.81
455.2,1,158.01
455.2,1,158.21
455.2,1,158.4
455.2,1,158.6
455.2,1,158.8
450.52,1,159
450.52,1,159.2
450.52,1,159.4
450.52,1,159.6
450.52,1,159.8
450.52,1,160
445.48,1,160.2
445.48,1,160.39
445.48,1,160.59
445.48,1,160.79
445.48,1,160.99
440.06,1,161.19
440.06,1,161.39
440.06,1,161.59
440.06,1,161.79
440.06,1,161.99
434.26,1,162.18
434.26,1,162.38
434.26,1,162.58
434.26,1,162.78
434.26,1,162.98
428.06,1,163.18
428.06,1,163.38
428.06,1,163.58
428.06,1,163.78
428.06,1,163.98
421.45,1,164.18
421.45,1,164.37
421.45,1,164.57
421.45,1,164.77
421.45,1,164.97
414.43,1,165.17
414.43,1,165.37
414.43,1,165.57
414.43,1,165.77
414.43,1,165.97
406.99,1,166.16
406.99,1,166.36
406.99,1,166.56
406.99,1,166.76
406.99,1,166.96
399.13,1,167.16
399.13,1,167.36
399.13,1,167.56
399.13,1,167.76
399.13,1,167.96
390.85,1,168.15
390.85,1,168.35
390.85,1,168.55
390.85,1,168.75
390.85,1,168.95
382.15,1,169.15
382.15,1,169.35
382.15,1,169.55
382.15,1,169.75
382.15,1,169.95
373.03,1,170.15
373.03,1,170.34
373.03,1,170.54
373.03,1,170.74
373.03,1,170.94
363.49,1,171.14
363.49,1,171.34
363.49,1,171.54
363.49,1,171.74
363.49,1,171.94
353.56,1,172.13
353.56,1,172.33
353.56,1,172.53
353.56,1,172.73
353.56,1,172.93
343.23,1,173.13
343.23,1,173.33
343.23,1,173.53
343.23,1,173.73
343.23,1,173.93
332.52,1,174.12
332.52,1,174.32
332.52,1,174.52
332.52,1,174.72
332.52,1,174.92
321.45,1,175.12
321.45,1,175.32
321.45,1,175.52
321.45,1,175.72
321.45,1,175.92
310.03,1,176.12
310.03,1,176.31
310.03,1,176.51
310.03,1,176.71
310.03,1,176.91
298.3,1,177.11
298.3,1,177.31
298.3,1,177.51
298.3,1,177.71
298.3,1,177.91
286.26,1,178.1
286.26,1,178.3
286.26,1,178.5
286.26,1,178.7
286.26,1,178.9
274.04,1,179.1
274.04,1,179.3
274.04,1,179.5
274.04,1,179.7
274.04,1,179.9
0,1,180.1
0,1,180.29
0,1,180.49
0,1,180.69
0,1,180.89
0,1,181.09
0,1,181.29
0,1,181.49
0,1,181.69
0,1,181.89
0,1,182.09
0,1,182.28
0,1,182.48
0,1,182.68
0,1,182.88
0,1,183.08
0,1,183.28
0,1,183.48
0,1,183.68
0,1,183.88
0,1,184.07
0,1,184.27
0,1,184.47
0,1,184.67
0,1,184.87
0,1,185.07
0,1,185.27
0,1,185.47
0,1,185.67
0,1,185.87
0,1,186.07
0,1,186.26
0,1,186.46
0,1,186.66
0,1,186.86
0,1,187.06
0,1,187.26
0,1,187.46
0,1,187.66
0,1,187.86
0,1,188.05
0,1,188.25
0,1,188.45
0,1,188.65
0,1,188.85
0,1,189.05
0,1,189.25
0,1,189.45
0,1,189.65
0,1,189.85
0,1,190.04
0,1,190.24
0,1,190.44
0,1,190.64
0,1,190.84
0,1,191.04
0,1,191.24
0,1,191.44
0,1,191.64
0,1,191.84
0,1,192.04
0,1,192.23
0,1,192.43
0,1,192.63
0,1,192.83
0,1,193.03
0,1,193.23
0,1,193.43
0,1,193.63
0,1,193.83
0,1,194.02
0,1,194.22
0,1,194.42
0,1,194.62
0,1,194.82
0,1,195.02
0,1,195.22
0,1,195.42
0,1,195.62
0,1,195.82
0,1,196.01
0,1,196.21
0,1,196.41
0,1,196.61
0,1,196.81
0,1,197.01
0,1,197.21
0,1,197.41
0,1,197.61
0,1,197.81
0,1,198.01
0,1,198.2
0,1,198.4
0,1,198.6
0,1,198.8
0,1,199
