"PuMA_Matrix","vtkValidPointMask","arc_length"
0,1,0
0,1,0.199
0,1,0.398
0,1,0.597
0,1,0.796
0,1,0.995
0,1,1.194
0,1,1.393
0,1,1.592
0,1,1.791
0,1,1.99
0,1,2.189
0,1,2.388
0,1,2.587
0,1,2.786
0,1,2.985
0,1,3.184
0,1,3.383
0,1,3.582
0,1,3.781
0,1,3.98
0,1,4.179
0,1,4.378
0,1,4.577
0,1,4.776
0,1,4.975
0,1,5.174
0,1,5.373
0,1,5.572
0,1,5.771
0,1,5.97
0,1,6.169
0,1,6.368
0,1,6.567
0,1,6.766
0,1,6.965
0,1,7.164
0,1,7.363
0,1,7.562
0,1,7.761
0,1,7.96
0,1,8.159
0,1,8.358
0,1,8.557
0,1,8.756
0,1,8.955
0,1,9.154
0,1,9.353
0,1,9.552
0,1,9.751
0,1,9.95
0,1,10.149
0,1,10.348
0,1,10.547
0,1,10.746
0,1,10.945
0,1,11.144
0,1,11.343
0,1,11.542
0,1,11.741
0,1,11.94
0,1,12.139
0,1,12.338
0,1,12.537
0,1,12.736
0,1,12.935
0,1,13.134
0,1,13.333
0,1,13.532
0,1,13.731
0,1,13.93
0,1,14.129
0,1,14.328
0,1,14.527
0,1,14.726
0,1,14.925
0,1,15.124
0,1,15.323
0,1,15.522
0,1,15.721
0,1,15.92
0,1,16.119
0,1,16.318
0,1,16.517
0,1,16.716
0,1,16.915
0,1,17.114
0,1,17.313
0,1,17.512
0,1,17.711
0,1,17.91
0,1,18.109
0,1,18.308
0,1,18.507
0,1,18.706
0,1,18.905
0,1,19.104
0,1,19.303
0,1,19.502
0,1,19.701
0,1,19.9
287.9,1,20.099
287.9,1,20.298
287.9,1,20.497
287.9,1,20.696
287.9,1,20.895
300.74,1,21.094
300.74,1,21.293
300.74,1,21.492
300.74,1,21.691
300.74,1,21.89
313.32,1,22.089
313.32,1,22.288
313.32,1,22.487
313.32,1,22.686
313.32,1,22.885
325.53,1,23.084
325.53,1,23.283
325.53,1,23.482
325.53,1,23.681
325.53,1,23.88
337.34,1,24.079
337.34,1,24.278
337.34,1,24.477
337.34,1,24.676
337.34,1,24.875
348.71,1,25.074
348.71,1,25.273
348.71,1,25.472
348.71,1,25.671
348.71,1,25.87
359.65,1,26.069
359.65,1,26.268
359.65,1,26.467
359.65,1,26.666
359.65,1,26.865
370.12,1,27.064
370.12,1,27.263
370.12,1,27.462
370.12,1,27.661
370.12,1,27.86
380.12,1,28.059
380.12,1,28.258
380.12,1,28.457
380.12,1,28.656
380.12,1,28.855
389.63,1,29.054
389.63,1,29.253
389.63,1,29.452
389.63,1,29.651
389.63,1,29.85
398.65,1,30.049
398.65,1,30.248
398.65,1,30.447
398.65,1,30.646
398.65,1,30.845
407.18,1,31.044
407.18,1,31.243
407.18,1,31.442
407.18,1,31.641
407.18,1,31.84
415.22,1,32.039
415.22,1,32.238
415.22,1,32.437
415.22,1,32.636
415.22,1,32.835
422.77,1,33.034
422.77,1,33.233
422.77,1,33.432
422.77,1,33.631
422.77,1,33.83
429.84,1,34.029
429.84,1,34.228
429.84,1,34.427
429.84,1,34.626
429.84,1,34.825
436.44,1,35.024
436.44,1,35.223
436.44,1,35.422
436.44,1,35.621
436.44,1,35.82
442.57,1,36.019
442.57,1,36.218
442.57,1,36.417
442.57,1,36.616
442.57,1,36.815
448.26,1,37.014
448.26,1,37.213
448.26,1,37.412
448.26,1,37.611
448.26,1,37.81
453.51,1,38.009
453.51,1,38.208
453.51,1,38.407
453.51,1,38.606
453.51,1,38.805
458.35,1,39.004
458.35,1,39.203
458.35,1,39.402
458.35,1,39.601
458.35,1,39.8
458.35,1,39.999
462.79,1,40.198
462.79,1,40.397
462.79,1,40.596
462.79,1,40.795
462.79,1,40.994
466.85,1,41.193
466.85,1,41.392
466.85,1,41.591
466.85,1,41.79
466.85,1,41.989
470.55,1,42.188
470.55,1,42.387
470.55,1,42.586
470.55,1,42.785
470.55,1,42.984
473.91,1,43.183
473.91,1,43.382
473.91,1,43.581
473.91,1,43.78
473.91,1,43.979
476.96,1,44.178
476.96,1,44.377
476.96,1,44.576
476.96,1,44.775
476.96,1,44.974
479.7,1,45.173
479.7,1,45.372
479.7,1,45.571
479.7,1,45.77
479.7,1,45.969
482.18,1,46.168
482.18,1,46.367
482.18,1,46.566
482.18,1,46.765
482.18,1,46.964
484.39,1,47.163
484.39,1,47.362
484.39,1,47.561
484.39,1,47.76
484.39,1,47.959
486.37,1,48.158
486.37,1,48.357
486.37,1,48.556
486.37,1,48.755
486.37,1,48.954
488.13,1,49.153
488.13,1,49.352
488.13,1,49.551
488.13,1,49.75
488.13,1,49.949
489.7,1,50.148
489.7,1,50.347
489.7,1,50.546
489.7,1,50.745
489.7,1,50.944
491.08,1,51.143
491.08,1,51.342
491.08,1,51.541
491.08,1,51.74
491.08,1,51.939
492.3,1,52.138
492.3,1,52.337
492.3,1,52.536
492.3,1,52.735
492.3,1,52.934
493.38,1,53.133
493.38,1,53.332
493.38,1,53.531
493.38,1,53.73
493.38,1,53.929
494.32,1,54.128
494.32,1,54.327
494.32,1,54.526
494.32,1,54.725
494.32,1,54.924
495.14,1,55.123
495.14,1,55.322
495.14,1,55.521
495.14,1,55.72
495.14,1,55.919
495.85,1,56.118
495.85,1,56.317
495.85,1,56.516
495.85,1,56.715
495.85,1,56.914
496.47,1,57.113
496.47,1,57.312
496.47,1,57.511
496.47,1,57.71
496.47,1,57.909
497,1,58.108
497,1,58.307
497,1,58.506
497,1,58.705
497,1,58.904
497.46,1,59.103
497.46,1,59.302
497.46,1,59.501
497.46,1,59.7
497.46,1,59.899
497.86,1,60.098
497.86,1,60.297
497.86,1,60.496
497.86,1,60.695
497.86,1,60.894
498.2,1,61.093
498.2,1,61.292
498.2,1,61.491
498.2,1,61.69
498.2,1,61.889
498.49,1,62.088
498.49,1,62.287
498.49,1,62.486
498.49,1,62.685
498.49,1,62.884
498.74,1,63.083
498.74,1,63.282
498.74,1,63.481
498.74,1,63.68
498.74,1,63.879
498.95,1,64.078
498.95,1,64.277
498.95,1,64.476
498.95,1,64.675
498.95,1,64.874
499.12,1,65.073
499.12,1,65.272
499.12,1,65.471
499.12,1,65.67
499.12,1,65.869
499.27,1,66.068
499.27,1,66.267
499.27,1,66.466
499.27,1,66.665
499.27,1,66.864
499.4,1,67.063
499.4,1,67.262
499.4,1,67.461
499.4,1,67.66
499.4,1,67.859
499.5,1,68.058
499.5,1,68.257
499.5,1,68.456
499.5,1,68.655
499.5,1,68.854
499.59,1,69.053
499.59,1,69.252
499.59,1,69.451
499.59,1,69.65
499.59,1,69.849
499.66,1,70.048
499.66,1,70.247
499.66,1,70.446
499.66,1,70.645
499.66,1,70.844
499.72,1,71.043
499.72,1,71.242
499.72,1,71.441
499.72,1,71.64
499.72,1,71.839
499.77,1,72.038
499.77,1,72.237
499.77,1,72.436
499.77,1,72.635
499.77,1,72.834
499.81,1,73.033
499.81,1,73.232
499.81,1,73.431
499.81,1,73.63
499.81,1,73.829
499.85,1,74.028
499.85,1,74.227
499.85,1,74.426
499.85,1,74.625
499.85,1,74.824
499.88,1,75.023
499.88,1,75.222
499.88,1,75.421
499.88,1,75.62
499.88,1,75.819
499.9,1,76.018
499.9,1,76.217
499.9,1,76.416
499.9,1,76.615
499.9,1,76.814
499.92,1,77.013
499.92,1,77.212
499.92,1,77.411
499.92,1,77.61
499.92,1,77.809
499.93,1,78.008
499.93,1,78.207
499.93,1,78.406
499.93,1,78.605
499.93,1,78.804
499.95,1,79.003
499.95,1,79.202
499.95,1,79.401
499.95,1,79.6
499.95,1,79.799
499.95,1,79.998
499.96,1,80.197
499.96,1,80.396
499.96,1,80.595
499.96,1,80.794
499.96,1,80.993
499.97,1,81.192
499.97,1,81.391
499.97,1,81.59
499.97,1,81.789
499.97,1,81.988
499.97,1,82.187
499.97,1,82.386
499.97,1,82.585
499.97,1,82.784
499.97,1,82.983
499.98,1,83.182
499.98,1,83.381
499.98,1,83.58
499.98,1,83.779
499.98,1,83.978
499.98,1,84.177
499.98,1,84.376
499.98,1,84.575
499.98,1,84.774
499.98,1,84.973
499.99,1,85.172
499.99,1,85.371
499.99,1,85.57
499.99,1,85.769
499.99,1,85.968
499.99,1,86.167
499.99,1,86.366
499.99,1,86.565
499.99,1,86.764
499.99,1,86.963
499.99,1,87.162
499.99,1,87.361
499.99,1,87.56
499.99,1,87.759
499.99,1,87.958
499.99,1,88.157
499.99,1,88.356
499.99,1,88.555
499.99,1,88.754
499.99,1,88.953
499.99,1,89.152
499.99,1,89.351
499.99,1,89.55
499.99,1,89.749
499.99,1,89.948
499.99,1,90.147
499.99,1,90.346
499.99,1,90.545
499.99,1,90.744
499.99,1,90.943
500,1,91.142
500,1,91.341
500,1,91.54
500,1,91.739
500,1,91.938
500,1,92.137
500,1,92.336
500,1,92.535
500,1,92.734
500,1,92.933
500,1,93.132
500,1,93.331
500,1,93.53
500,1,93.729
500,1,93.928
500,1,94.127
500,1,94.326
500,1,94.525
500,1,94.724
500,1,94.923
500,1,95.122
500,1,95.321
500,1,95.52
500,1,95.719
500,1,95.918
500,1,96.117
500,1,96.316
500,1,96.515
500,1,96.714
500,1,96.913
500,1,97.112
500,1,97.311
500,1,97.51
500,1,97.709
500,1,97.908
500,1,98.107
500,1,98.306
500,1,98.505
500,1,98.704
500,1,98.903
500,1,99.102
500,1,99.301
500,1,99.5
500,1,99.699
500,1,99.898
500,1,100.1
500,1,100.3
500,1,100.5
500,1,100.69
500,1,100.89
500,1,101.09
500,1,101.29
500,1,101.49
500,1,101.69
500,1,101.89
500,1,102.09
500,1,102.29
500,1,102.49
500,1,102.68
500,1,102.88
500,1,103.08
500,1,103.28
500,1,103.48
500,1,103.68
500,1,103.88
500,1,104.08
500,1,104.28
500,1,104.47
500,1,104.67
500,1,104.87
500,1,105.07
500,1,105.27
500,1,105.47
500,1,105.67
500,1,105.87
500,1,106.07
500,1,106.27
500,1,106.46
500,1,106.66
500,1,106.86
500,1,107.06
500,1,107.26
500,1,107.46
500,1,107.66
500,1,107.86
500,1,108.06
500,1,108.26
500,1,108.46
500,1,108.65
500,1,108.85
499.99,1,109.05
499.99,1,109.25
499.99,1,109.45
499.99,1,109.65
499.99,1,109.85
499.99,1,110.05
499.99,1,110.25
499.99,1,110.44
499.99,1,110.64
499.99,1,110.84
499.99,1,111.04
499.99,1,111.24
499.99,1,111.44
499.99,1,111.64
499.99,1,111.84
499.99,1,112.04
499.99,1,112.24
499.99,1,112.43
499.99,1,112.63
499.99,1,112.83
499.99,1,113.03
499.99,1,113.23
499.99,1,113.43
499.99,1,113.63
499.99,1,113.83
499.99,1,114.03
499.99,1,114.23
499.99,1,114.43
499.99,1,114.62
499.99,1,114.82
499.98,1,115.02
499.98,1,115.22
499.98,1,115.42
499.98,1,115.62
499.98,1,115.82
499.98,1,116.02
499.98,1,116.22
499.98,1,116.42
499.98,1,116.61
499.98,1,116.81
499.97,1,117.01
499.97,1,117.21
499.97,1,117.41
499.97,1,117.61
499.97,1,117.81
499.97,1,118.01
499.97,1,118.21
499.97,1,118.4
499.97,1,118.6
499.97,1,118.8
499.96,1,119
499.96,1,119.2
499.96,1,119.4
499.96,1,119.6
499.96,1,119.8
499.96,1,120
499.95,1,120.2
499.95,1,120.39
499.95,1,120.59
499.95,1,120.79
499.95,1,120.99
499.93,1,121.19
499.93,1,121.39
499.93,1,121.59
499.93,1,121.79
499.93,1,121.99
499.92,1,122.19
499.92,1,122.39
499.92,1,122.58
499.92,1,122.78
499.92,1,122.98
499.9,1,123.18
499.9,1,123.38
499.9,1,123.58
499.9,1,123.78
499.9,1,123.98
499.88,1,124.18
499.88,1,124.38
499.88,1,124.57
499.88,1,124.77
499.88,1,124.97
499.85,1,125.17
499.85,1,125.37
499.85,1,125.57
499.85,1,125.77
499.85,1,125.97
499.81,1,126.17
499.81,1,126.36
499.81,1,126.56
499.81,1,126.76
499.81,1,126.96
499.77,1,127.16
499.77,1,127.36
499.77,1,127.56
499.77,1,127.76
499.77,1,127.96
499.72,1,128.16
499.72,1,128.35
499.72,1,128.55
499.72,1,128.75
499.72,1,128.95
499.66,1,129.15
499.66,1,129.35
499.66,1,129.55
499.66,1,129.75
499.66,1,129.95
499.59,1,130.15
499.59,1,130.35
499.59,1,130.54
499.59,1,130.74
499.59,1,130.94
499.5,1,131.14
499.5,1,131.34
499.5,1,131.54
499.5,1,131.74
499.5,1,131.94
499.4,1,132.14
499.4,1,132.34
499.4,1,132.53
499.4,1,132.73
499.4,1,132.93
499.27,1,133.13
499.27,1,133.33
499.27,1,133.53
499.27,1,133.73
499.27,1,133.93
499.12,1,134.13
499.12,1,134.32
499.12,1,134.52
499.12,1,134.72
499.12,1,134.92
498.95,1,135.12
498.95,1,135.32
498.95,1,135.52
498.95,1,135.72
498.95,1,135.92
498.74,1,136.12
498.74,1,136.32
498.74,1,136.51
498.74,1,136.71
498.74,1,136.91
498.49,1,137.11
498.49,1,137.31
498.49,1,137.51
498.49,1,137.71
498.49,1,137.91
498.2,1,138.11
498.2,1,138.3
498.2,1,138.5
498.2,1,138.7
498.2,1,138.9
497.86,1,139.1
497.86,1,139.3
497.86,1,139.5
497.86,1,139.7
497.86,1,139.9
497.46,1,140.1
497.46,1,140.29
497.46,1,140.49
497.46,1,140.69
497.46,1,140.89
497,1,141.09
497,1,141.29
497,1,141.49
497,1,141.69
497,1,141.89
496.47,1,142.09
496.47,1,142.29
496.47,1,142.48
496.47,1,142.68
496.47,1,142.88
495.85,1,143.08
495.85,1,143.28
495.85,1,143.48
495.85,1,143.68
495.85,1,143.88
495.14,1,144.08
495.14,1,144.27
495.14,1,144.47
495.14,1,144.67
495.14,1,144.87
494.32,1,145.07
494.32,1,145.27
494.32,1,145.47
494.32,1,145.67
494.32,1,145.87
493.38,1,146.07
493.38,1,146.26
493.38,1,146.46
493.38,1,146.66
493.38,1,146.86
492.3,1,147.06
492.3,1,147.26
492.3,1,147.46
492.3,1,147.66
492.3,1,147.86
491.08,1,148.06
491.08,1,148.26
491.08,1,148.45
491.08,1,148.65
491.08,1,148.85
489.7,1,149.05
489.7,1,149.25
489.7,1,149.45
489.7,1,149.65
489.7,1,149.85
488.13,1,150.05
488.13,1,150.24
488.13,1,150.44
488.13,1,150.64
488.13,1,150.84
486.37,1,151.04
486.37,1,151.24
486.37,1,151.44
486.37,1,151.64
486.37,1,151.84
484.39,1,152.04
484.39,1,152.24
484.39,1,152.43
484.39,1,152.63
484.39,1,152.83
482.18,1,153.03
482.18,1,153.23
482.18,1,153.43
482.18,1,153.63
482.18,1,153.83
479.7,1,154.03
479.7,1,154.23
479.7,1,154.42
479.7,1,154.62
479.7,1,154.82
476.96,1,155.02
476.96,1,155.22
476.96,1,155.42
476.96,1,155.62
476.96,1,155.82
473.91,1,156.02
473.91,1,156.21
473.91,1,156.41
473.91,1,156.61
473.91,1,156.81
470.55,1,157.01
470.55,1,157.21
470.55,1,157.41
470.55,1,157.61
470.55,1,157.81
466.85,1,158.01
466.85,1,158.21
466.85,1,158.4
466.85,1,158.6
466.85,1,158.8
462.79,1,159
462.79,1,159.2
462.79,1,159.4
462.79,1,159.6
462.79,1,159.8
462.79,1,160
458.35,1,160.2
458.35,1,160.39
458.35,1,160.59
458.35,1,160.79
458.35,1,160.99
453.51,1,161.19
453.51,1,161.39
453.51,1,161.59
453.51,1,161.79
453.51,1,161.99
448.26,1,162.18
448.26,1,162.38
448.26,1,162.58
448.26,1,162.78
448.26,1,162.98
442.57,1,163.18
442.57,1,163.38
442.57,1,163.58
442.57,1,163.78
442.57,1,163.98
436.44,1,164.18
436.44,1,164.37
436.44,1,164.57
436.44,1,164.77
436.44,1,164.97
429.84,1,165.17
429.84,1,165.37
429.84,1,165.57
429.84,1,165.77
429.84,1,165.97
422.77,1,166.16
422.77,1,166.36
422.77,1,166.56
422.77,1,166.76
422.77,1,166.96
415.22,1,167.16
415.22,1,167.36
415.22,1,167.56
415.22,1,167.76
415.22,1,167.96
407.18,1,168.15
407.18,1,168.35
407.18,1,168.55
407.18,1,168.75
407.18,1,168.95
398.65,1,169.15
398.65,1,169.35
398.65,1,169.55
398.65,1,169.75
398.65,1,169.95
389.63,1,170.15
389.63,1,170.34
389.63,1,170.54
389.63,1,170.74
389.63,1,170.94
380.12,1,171.14
380.12,1,171.34
380.12,1,171.54
380.12,1,171.74
380.12,1,171.94
370.12,1,172.13
370.12,1,172.33
370.12,1,172.53
370.12,1,172.73
370.12,1,172.93
359.65,1,173.13
359.65,1,173.33
359.65,1,173.53
359.65,1,173.73
359.65,1,173.93
348.71,1,174.12
348.71,1,174.32
348.71,1,174.52
348.71,1,174.72
348.71,1,174.92
337.34,1,175.12
337.34,1,175.32
337.34,1,175.52
337.34,1,175.72
337.34,1,175.92
325.53,1,176.12
325.53,1,176.31
325.53,1,176.51
325.53,1,176.71
325.53,1,176.91
313.32,1,177.11
313.32,1,177.31
313.32,1,177.51
313.32,1,177.71
313.32,1,177.91
300.74,1,178.1
300.74,1,178.3
300.74,1,178.5
300.74,1,178.7
300.74,1,178.9
287.9,1,179.1
287.9,1,179.3
287.9,1,179.5
287.9,1,179.7
287.9,1,179.9
0,1,180.1
0,1,180.29
0,1,180.49
0,1,180.69
0,1,180.89
0,1,181.09
0,1,181.29
0,1,181.49
0,1,181.69
0,1,181.89
0,1,182.09
0,1,182.28
0,1,182.48
0,1,182.68
0,1,182.88
0,1,183.08
0,1,183.28
0,1,183.48
0,1,183.68
0,1,183.88
0,1,184.07
0,1,184.27
0,1,184.47
0,1,184.67
0,1,184.87
0,1,185.07
0,1,185.27
0,1,185.47
0,1,185.67
0,1,185.87
0,1,186.07
0,1,186.26
0,1,186.46
0,1,186.66
0,1,186.86
0,1,187.06
0,1,187.26
0,1,187.46
0,1,187.66
0,1,187.86
0,1,188.05
0,1,188.25
0,1,188.45
0,1,188.65
0,1,188.85
0,1,189.05
0,1,189.25
0,1,189.45
0,1,189.65
0,1,189.85
0,1,190.04
0,1,190.24
0,1,190.44
0,1,190.64
0,1,190.84
0,1,191.04
0,1,191.24
0,1,191.44
0,1,191.64
0,1,191.84
0,1,192.04
0,1,192.23
0,1,192.43
0,1,192.63
0,1,192.83
0,1,193.03
0,1,193.23
0,1,193.43
0,1,193.63
0,1,193.83
0,1,194.02
0,1,194.22
0,1,194.42
0,1,194.62
0,1,194.82
0,1,195.02
0,1,195.22
0,1,195.42
0,1,195.62
0,1,195.82
0,1,196.01
0,1,196.21
0,1,196.41
0,1,196.61
0,1,196.81
0,1,197.01
0,1,197.21
0,1,197.41
0,1,197.61
0,1,197.81
0,1,198.01
0,1,198.2
0,1,198.4
0,1,198.6
0,1,198.8
0,1,199
