"PuMA_Matrix","vtkValidPointMask","arc_length"
0,1,0
0,1,0.199
0,1,0.398
0,1,0.597
0,1,0.796
0,1,0.995
0,1,1.194
0,1,1.393
0,1,1.592
0,1,1.791
0,1,1.99
0,1,2.189
0,1,2.388
0,1,2.587
0,1,2.786
0,1,2.985
0,1,3.184
0,1,3.383
0,1,3.582
0,1,3.781
0,1,3.98
0,1,4.179
0,1,4.378
0,1,4.577
0,1,4.776
0,1,4.975
0,1,5.174
0,1,5.373
0,1,5.572
0,1,5.771
0,1,5.97
0,1,6.169
0,1,6.368
0,1,6.567
0,1,6.766
0,1,6.965
0,1,7.164
0,1,7.363
0,1,7.562
0,1,7.761
0,1,7.96
0,1,8.159
0,1,8.358
0,1,8.557
0,1,8.756
0,1,8.955
0,1,9.154
0,1,9.353
0,1,9.552
0,1,9.751
0,1,9.95
0,1,10.149
0,1,10.348
0,1,10.547
0,1,10.746
0,1,10.945
0,1,11.144
0,1,11.343
0,1,11.542
0,1,11.741
0,1,11.94
0,1,12.139
0,1,12.338
0,1,12.537
0,1,12.736
0,1,12.935
0,1,13.134
0,1,13.333
0,1,13.532
0,1,13.731
0,1,13.93
0,1,14.129
0,1,14.328
0,1,14.527
0,1,14.726
0,1,14.925
0,1,15.124
0,1,15.323
0,1,15.522
0,1,15.721
0,1,15.92
0,1,16.119
0,1,16.318
0,1,16.517
0,1,16.716
0,1,16.915
0,1,17.114
0,1,17.313
0,1,17.512
0,1,17.711
0,1,17.91
0,1,18.109
0,1,18.308
0,1,18.507
0,1,18.706
0,1,18.905
0,1,19.104
0,1,19.303
0,1,19.502
0,1,19.701
0,1,19.9
308.74,1,20.099
308.74,1,20.298
308.74,1,20.497
308.74,1,20.696
308.74,1,20.895
322.48,1,21.094
322.48,1,21.293
322.48,1,21.492
322.48,1,21.691
322.48,1,21.89
335.83,1,22.089
335.83,1,22.288
335.83,1,22.487
335.83,1,22.686
335.83,1,22.885
348.66,1,23.084
348.66,1,23.283
348.66,1,23.482
348.66,1,23.681
348.66,1,23.88
360.94,1,24.079
360.94,1,24.278
360.94,1,24.477
360.94,1,24.676
360.94,1,24.875
372.65,1,25.074
372.65,1,25.273
372.65,1,25.472
372.65,1,25.671
372.65,1,25.87
383.76,1,26.069
383.76,1,26.268
383.76,1,26.467
383.76,1,26.666
383.76,1,26.865
394.26,1,27.064
394.26,1,27.263
394.26,1,27.462
394.26,1,27.661
394.26,1,27.86
404.14,1,28.059
404.14,1,28.258
404.14,1,28.457
404.14,1,28.656
404.14,1,28.855
413.4,1,29.054
413.4,1,29.253
413.4,1,29.452
413.4,1,29.651
413.4,1,29.85
422.04,1,30.049
422.04,1,30.248
422.04,1,30.447
422.04,1,30.646
422.04,1,30.845
430.07,1,31.044
430.07,1,31.243
430.07,1,31.442
430.07,1,31.641
430.07,1,31.84
437.5,1,32.039
437.5,1,32.238
437.5,1,32.437
437.5,1,32.636
437.5,1,32.835
444.34,1,33.034
444.34,1,33.233
444.34,1,33.432
444.34,1,33.631
444.34,1,33.83
450.62,1,34.029
450.62,1,34.228
450.62,1,34.427
450.62,1,34.626
450.62,1,34.825
456.35,1,35.024
456.35,1,35.223
456.35,1,35.422
456.35,1,35.621
456.35,1,35.82
461.55,1,36.019
461.55,1,36.218
461.55,1,36.417
461.55,1,36.616
461.55,1,36.815
466.27,1,37.014
466.27,1,37.213
466.27,1,37.412
466.27,1,37.611
466.27,1,37.81
470.52,1,38.009
470.52,1,38.208
470.52,1,38.407
470.52,1,38.606
470.52,1,38.805
474.33,1,39.004
474.33,1,39.203
474.33,1,39.402
474.33,1,39.601
474.33,1,39.8
474.33,1,39.999
477.73,1,40.198
477.73,1,40.397
477.73,1,40.596
477.73,1,40.795
477.73,1,40.994
480.76,1,41.193
480.76,1,41.392
480.76,1,41.591
480.76,1,41.79
480.76,1,41.989
483.44,1,42.188
483.44,1,42.387
483.44,1,42.586
483.44,1,42.785
483.44,1,42.984
485.8,1,43.183
485.8,1,43.382
485.8,1,43.581
485.8,1,43.78
485.8,1,43.979
487.88,1,44.178
487.88,1,44.377
487.88,1,44.576
487.88,1,44.775
487.88,1,44.974
489.69,1,45.173
489.69,1,45.372
489.69,1,45.571
489.69,1,45.77
489.69,1,45.969
491.26,1,46.168
491.26,1,46.367
491.26,1,46.566
491.26,1,46.765
491.26,1,46.964
492.62,1,47.163
492.62,1,47.362
492.62,1,47.561
492.62,1,47.76
492.62,1,47.959
493.8,1,48.158
493.8,1,48.357
493.8,1,48.556
493.8,1,48.755
493.8,1,48.954
494.81,1,49.153
494.81,1,49.352
494.81,1,49.551
494.81,1,49.75
494.81,1,49.949
495.67,1,50.148
495.67,1,50.347
495.67,1,50.546
495.67,1,50.745
495.67,1,50.944
496.4,1,51.143
496.4,1,51.342
496.4,1,51.541
496.4,1,51.74
496.4,1,51.939
497.02,1,52.138
497.02,1,52.337
497.02,1,52.536
497.02,1,52.735
497.02,1,52.934
497.55,1,53.133
497.55,1,53.332
497.55,1,53.531
497.55,1,53.73
497.55,1,53.929
497.98,1,54.128
497.98,1,54.327
497.98,1,54.526
497.98,1,54.725
497.98,1,54.924
498.35,1,55.123
498.35,1,55.322
498.35,1,55.521
498.35,1,55.72
498.35,1,55.919
498.66,1,56.118
498.66,1,56.317
498.66,1,56.516
498.66,1,56.715
498.66,1,56.914
498.91,1,57.113
498.91,1,57.312
498.91,1,57.511
498.91,1,57.71
498.91,1,57.909
499.12,1,58.108
499.12,1,58.307
499.12,1,58.506
499.12,1,58.705
499.12,1,58.904
499.29,1,59.103
499.29,1,59.302
499.29,1,59.501
499.29,1,59.7
499.29,1,59.899
499.43,1,60.098
499.43,1,60.297
499.43,1,60.496
499.43,1,60.695
499.43,1,60.894
499.55,1,61.093
499.55,1,61.292
499.55,1,61.491
499.55,1,61.69
499.55,1,61.889
499.64,1,62.088
499.64,1,62.287
499.64,1,62.486
499.64,1,62.685
499.64,1,62.884
499.71,1,63.083
499.71,1,63.282
499.71,1,63.481
499.71,1,63.68
499.71,1,63.879
499.77,1,64.078
499.77,1,64.277
499.77,1,64.476
499.77,1,64.675
499.77,1,64.874
499.82,1,65.073
499.82,1,65.272
499.82,1,65.471
499.82,1,65.67
499.82,1,65.869
499.86,1,66.068
499.86,1,66.267
499.86,1,66.466
499.86,1,66.665
499.86,1,66.864
499.89,1,67.063
499.89,1,67.262
499.89,1,67.461
499.89,1,67.66
499.89,1,67.859
499.91,1,68.058
499.91,1,68.257
499.91,1,68.456
499.91,1,68.655
499.91,1,68.854
499.93,1,69.053
499.93,1,69.252
499.93,1,69.451
499.93,1,69.65
499.93,1,69.849
499.95,1,70.048
499.95,1,70.247
499.95,1,70.446
499.95,1,70.645
499.95,1,70.844
499.96,1,71.043
499.96,1,71.242
499.96,1,71.441
499.96,1,71.64
499.96,1,71.839
499.97,1,72.038
499.97,1,72.237
499.97,1,72.436
499.97,1,72.635
499.97,1,72.834
499.98,1,73.033
499.98,1,73.232
499.98,1,73.431
499.98,1,73.63
499.98,1,73.829
499.98,1,74.028
499.98,1,74.227
499.98,1,74.426
499.98,1,74.625
499.98,1,74.824
499.99,1,75.023
499.99,1,75.222
499.99,1,75.421
499.99,1,75.62
499.99,1,75.819
499.99,1,76.018
499.99,1,76.217
499.99,1,76.416
499.99,1,76.615
499.99,1,76.814
499.99,1,77.013
499.99,1,77.212
499.99,1,77.411
499.99,1,77.61
499.99,1,77.809
499.99,1,78.008
499.99,1,78.207
499.99,1,78.406
499.99,1,78.605
499.99,1,78.804
500,1,79.003
500,1,79.202
500,1,79.401
500,1,79.6
500,1,79.799
500,1,79.998
500,1,80.197
500,1,80.396
500,1,80.595
500,1,80.794
500,1,80.993
500,1,81.192
500,1,81.391
500,1,81.59
500,1,81.789
500,1,81.988
500,1,82.187
500,1,82.386
500,1,82.585
500,1,82.784
500,1,82.983
500,1,83.182
500,1,83.381
500,1,83.58
500,1,83.779
500,1,83.978
500,1,84.177
500,1,84.376
500,1,84.575
500,1,84.774
500,1,84.973
500,1,85.172
500,1,85.371
500,1,85.57
500,1,85.769
500,1,85.968
500,1,86.167
500,1,86.366
500,1,86.565
500,1,86.764
500,1,86.963
500,1,87.162
500,1,87.361
500,1,87.56
500,1,87.759
500,1,87.958
500,1,88.157
500,1,88.356
500,1,88.555
500,1,88.754
500,1,88.953
500,1,89.152
500,1,89.351
500,1,89.55
500,1,89.749
500,1,89.948
500,1,90.147
500,1,90.346
500,1,90.545
500,1,90.744
500,1,90.943
500,1,91.142
500,1,91.341
500,1,91.54
500,1,91.739
500,1,91.938
500,1,92.137
500,1,92.336
500,1,92.535
500,1,92.734
500,1,92.933
500,1,93.132
500,1,93.331
500,1,93.53
500,1,93.729
500,1,93.928
500,1,94.127
500,1,94.326
500,1,94.525
500,1,94.724
500,1,94.923
500,1,95.122
500,1,95.321
500,1,95.52
500,1,95.719
500,1,95.918
500,1,96.117
500,1,96.316
500,1,96.515
500,1,96.714
500,1,96.913
500,1,97.112
500,1,97.311
500,1,97.51
500,1,97.709
500,1,97.908
500,1,98.107
500,1,98.306
500,1,98.505
500,1,98.704
500,1,98.903
500,1,99.102
500,1,99.301
500,1,99.5
500,1,99.699
500,1,99.898
500,1,100.1
500,1,100.3
500,1,100.5
500,1,100.69
500,1,100.89
500,1,101.09
500,1,101.29
500,1,101.49
500,1,101.69
500,1,101.89
500,1,102.09
500,1,102.29
500,1,102.49
500,1,102.68
500,1,102.88
500,1,103.08
500,1,103.28
500,1,103.48
500,1,103.68
500,1,103.88
500,1,104.08
500,1,104.28
500,1,104.47
500,1,104.67
500,1,104.87
500,1,105.07
500,1,105.27
500,1,105.47
500,1,105.67
500,1,105.87
500,1,106.07
500,1,106.27
500,1,106.46
500,1,106.66
500,1,106.86
500,1,107.06
500,1,107.26
500,1,107.46
500,1,107.66
500,1,107.86
500,1,108.06
500,1,108.26
500,1,108.46
500,1,108.65
500,1,108.85
500,1,109.05
500,1,109.25
500,1,109.45
500,1,109.65
500,1,109.85
500,1,110.05
500,1,110.25
500,1,110.44
500,1,110.64
500,1,110.84
500,1,111.04
500,1,111.24
500,1,111.44
500,1,111.64
500,1,111.84
500,1,112.04
500,1,112.24
500,1,112.43
500,1,112.63
500,1,112.83
500,1,113.03
500,1,113.23
500,1,113.43
500,1,113.63
500,1,113.83
500,1,114.03
500,1,114.23
500,1,114.43
500,1,114.62
500,1,114.82
500,1,115.02
500,1,115.22
500,1,115.42
500,1,115.62
500,1,115.82
500,1,116.02
500,1,116.22
500,1,116.42
500,1,116.61
500,1,116.81
500,1,117.01
500,1,117.21
500,1,117.41
500,1,117.61
500,1,117.81
500,1,118.01
500,1,118.21
500,1,118.4
500,1,118.6
500,1,118.8
500,1,119
500,1,119.2
500,1,119.4
500,1,119.6
500,1,119.8
500,1,120
500,1,120.2
500,1,120.39
500,1,120.59
500,1,120.79
500,1,120.99
499.99,1,121.19
499.99,1,121.39
499.99,1,121.59
499.99,1,121.79
499.99,1,121.99
499.99,1,122.19
499.99,1,122.39
499.99,1,122.58
499.99,1,122.78
499.99,1,122.98
499.99,1,123.18
499.99,1,123.38
499.99,1,123.58
499.99,1,123.78
499.99,1,123.98
499.99,1,124.18
499.99,1,124.38
499.99,1,124.57
499.99,1,124.77
499.99,1,124.97
499.98,1,125.17
499.98,1,125.37
499.98,1,125.57
499.98,1,125.77
499.98,1,125.97
499.98,1,126.17
499.98,1,126.36
499.98,1,126.56
499.98,1,126.76
499.98,1,126.96
499.97,1,127.16
499.97,1,127.36
499.97,1,127.56
499.97,1,127.76
499.97,1,127.96
499.96,1,128.16
499.96,1,128.35
499.96,1,128.55
499.96,1,128.75
499.96,1,128.95
499.95,1,129.15
499.95,1,129.35
499.95,1,129.55
499.95,1,129.75
499.95,1,129.95
499.93,1,130.15
499.93,1,130.35
499.93,1,130.54
499.93,1,130.74
499.93,1,130.94
499.91,1,131.14
499.91,1,131.34
499.91,1,131.54
499.91,1,131.74
499.91,1,131.94
499.89,1,132.14
499.89,1,132.34
499.89,1,132.53
499.89,1,132.73
499.89,1,132.93
499.86,1,133.13
499.86,1,133.33
499.86,1,133.53
499.86,1,133.73
499.86,1,133.93
499.82,1,134.13
499.82,1,134.32
499.82,1,134.52
499.82,1,134.72
499.82,1,134.92
499.77,1,135.12
499.77,1,135.32
499.77,1,135.52
499.77,1,135.72
499.77,1,135.92
499.71,1,136.12
499.71,1,136.32
499.71,1,136.51
499.71,1,136.71
499.71,1,136.91
499.64,1,137.11
499.64,1,137.31
499.64,1,137.51
499.64,1,137.71
499.64,1,137.91
499.55,1,138.11
499.55,1,138.3
499.55,1,138.5
499.55,1,138.7
499.55,1,138.9
499.43,1,139.1
499.43,1,139.3
499.43,1,139.5
499.43,1,139.7
499.43,1,139.9
499.29,1,140.1
499.29,1,140.29
499.29,1,140.49
499.29,1,140.69
499.29,1,140.89
499.12,1,141.09
499.12,1,141.29
499.12,1,141.49
499.12,1,141.69
499.12,1,141.89
498.91,1,142.09
498.91,1,142.29
498.91,1,142.48
498.91,1,142.68
498.91,1,142.88
498.66,1,143.08
498.66,1,143.28
498.66,1,143.48
498.66,1,143.68
498.66,1,143.88
498.35,1,144.08
498.35,1,144.27
498.35,1,144.47
498.35,1,144.67
498.35,1,144.87
497.98,1,145.07
497.98,1,145.27
497.98,1,145.47
497.98,1,145.67
497.98,1,145.87
497.55,1,146.07
497.55,1,146.26
497.55,1,146.46
497.55,1,146.66
497.55,1,146.86
497.02,1,147.06
497.02,1,147.26
497.02,1,147.46
497.02,1,147.66
497.02,1,147.86
496.4,1,148.06
496.4,1,148.26
496.4,1,148.45
496.4,1,148.65
496.4,1,148.85
495.67,1,149.05
495.67,1,149.25
495.67,1,149.45
495.67,1,149.65
495.67,1,149.85
494.81,1,150.05
494.81,1,150.24
494.81,1,150.44
494.81,1,150.64
494.81,1,150.84
493.8,1,151.04
493.8,1,151.24
493.8,1,151.44
493.8,1,151.64
493.8,1,151.84
492.62,1,152.04
492.62,1,152.24
492.62,1,152.43
492.62,1,152.63
492.62,1,152.83
491.26,1,153.03
491.26,1,153.23
491.26,1,153.43
491.26,1,153.63
491.26,1,153.83
489.69,1,154.03
489.69,1,154.23
489.69,1,154.42
489.69,1,154.62
489.69,1,154.82
487.88,1,155.02
487.88,1,155.22
487.88,1,155.42
487.88,1,155.62
487.88,1,155.82
485.8,1,156.02
485.8,1,156.21
485.8,1,156.41
485.8,1,156.61
485.8,1,156.81
483.44,1,157.01
483.44,1,157.21
483.44,1,157.41
483.44,1,157.61
483.44,1,157.81
480.76,1,158.01
480.76,1,158.21
480.76,1,158.4
480.76,1,158.6
480.76,1,158.8
477.73,1,159
477.73,1,159.2
477.73,1,159.4
477.73,1,159.6
477.73,1,159.8
477.73,1,160
474.33,1,160.2
474.33,1,160.39
474.33,1,160.59
474.33,1,160.79
474.33,1,160.99
470.52,1,161.19
470.52,1,161.39
470.52,1,161.59
470.52,1,161.79
470.52,1,161.99
466.27,1,162.18
466.27,1,162.38
466.27,1,162.58
466.27,1,162.78
466.27,1,162.98
461.55,1,163.18
461.55,1,163.38
461.55,1,163.58
461.55,1,163.78
461.55,1,163.98
456.35,1,164.18
456.35,1,164.37
456.35,1,164.57
456.35,1,164.77
456.35,1,164.97
450.62,1,165.17
450.62,1,165.37
450.62,1,165.57
450.62,1,165.77
450.62,1,165.97
444.34,1,166.16
444.34,1,166.36
444.34,1,166.56
444.34,1,166.76
444.34,1,166.96
437.5,1,167.16
437.5,1,167.36
437.5,1,167.56
437.5,1,167.76
437.5,1,167.96
430.07,1,168.15
430.07,1,168.35
430.07,1,168.55
430.07,1,168.75
430.07,1,168.95
422.04,1,169.15
422.04,1,169.35
422.04,1,169.55
422.04,1,169.75
422.04,1,169.95
413.4,1,170.15
413.4,1,170.34
413.4,1,170.54
413.4,1,170.74
413.4,1,170.94
404.14,1,171.14
404.14,1,171.34
404.14,1,171.54
404.14,1,171.74
404.14,1,171.94
394.26,1,172.13
394.26,1,172.33
394.26,1,172.53
394.26,1,172.73
394.26,1,172.93
383.76,1,173.13
383.76,1,173.33
383.76,1,173.53
383.76,1,173.73
383.76,1,173.93
372.65,1,174.12
372.65,1,174.32
372.65,1,174.52
372.65,1,174.72
372.65,1,174.92
360.94,1,175.12
360.94,1,175.32
360.94,1,175.52
360.94,1,175.72
360.94,1,175.92
348.66,1,176.12
348.66,1,176.31
348.66,1,176.51
348.66,1,176.71
348.66,1,176.91
335.83,1,177.11
335.83,1,177.31
335.83,1,177.51
335.83,1,177.71
335.83,1,177.91
322.48,1,178.1
322.48,1,178.3
322.48,1,178.5
322.48,1,178.7
322.48,1,178.9
308.74,1,179.1
308.74,1,179.3
308.74,1,179.5
308.74,1,179.7
308.74,1,179.9
0,1,180.1
0,1,180.29
0,1,180.49
0,1,180.69
0,1,180.89
0,1,181.09
0,1,181.29
0,1,181.49
0,1,181.69
0,1,181.89
0,1,182.09
0,1,182.28
0,1,182.48
0,1,182.68
0,1,182.88
0,1,183.08
0,1,183.28
0,1,183.48
0,1,183.68
0,1,183.88
0,1,184.07
0,1,184.27
0,1,184.47
0,1,184.67
0,1,184.87
0,1,185.07
0,1,185.27
0,1,185.47
0,1,185.67
0,1,185.87
0,1,186.07
0,1,186.26
0,1,186.46
0,1,186.66
0,1,186.86
0,1,187.06
0,1,187.26
0,1,187.46
0,1,187.66
0,1,187.86
0,1,188.05
0,1,188.25
0,1,188.45
0,1,188.65
0,1,188.85
0,1,189.05
0,1,189.25
0,1,189.45
0,1,189.65
0,1,189.85
0,1,190.04
0,1,190.24
0,1,190.44
0,1,190.64
0,1,190.84
0,1,191.04
0,1,191.24
0,1,191.44
0,1,191.64
0,1,191.84
0,1,192.04
0,1,192.23
0,1,192.43
0,1,192.63
0,1,192.83
0,1,193.03
0,1,193.23
0,1,193.43
0,1,193.63
0,1,193.83
0,1,194.02
0,1,194.22
0,1,194.42
0,1,194.62
0,1,194.82
0,1,195.02
0,1,195.22
0,1,195.42
0,1,195.62
0,1,195.82
0,1,196.01
0,1,196.21
0,1,196.41
0,1,196.61
0,1,196.81
0,1,197.01
0,1,197.21
0,1,197.41
0,1,197.61
0,1,197.81
0,1,198.01
0,1,198.2
0,1,198.4
0,1,198.6
0,1,198.8
0,1,199
