"PuMA_Matrix","vtkValidPointMask","arc_length"
0,1,0
0,1,0.199
0,1,0.398
0,1,0.597
0,1,0.796
0,1,0.995
0,1,1.194
0,1,1.393
0,1,1.592
0,1,1.791
0,1,1.99
0,1,2.189
0,1,2.388
0,1,2.587
0,1,2.786
0,1,2.985
0,1,3.184
0,1,3.383
0,1,3.582
0,1,3.781
0,1,3.98
0,1,4.179
0,1,4.378
0,1,4.577
0,1,4.776
0,1,4.975
0,1,5.174
0,1,5.373
0,1,5.572
0,1,5.771
0,1,5.97
0,1,6.169
0,1,6.368
0,1,6.567
0,1,6.766
0,1,6.965
0,1,7.164
0,1,7.363
0,1,7.562
0,1,7.761
0,1,7.96
0,1,8.159
0,1,8.358
0,1,8.557
0,1,8.756
0,1,8.955
0,1,9.154
0,1,9.353
0,1,9.552
0,1,9.751
0,1,9.95
0,1,10.149
0,1,10.348
0,1,10.547
0,1,10.746
0,1,10.945
0,1,11.144
0,1,11.343
0,1,11.542
0,1,11.741
0,1,11.94
0,1,12.139
0,1,12.338
0,1,12.537
0,1,12.736
0,1,12.935
0,1,13.134
0,1,13.333
0,1,13.532
0,1,13.731
0,1,13.93
0,1,14.129
0,1,14.328
0,1,14.527
0,1,14.726
0,1,14.925
0,1,15.124
0,1,15.323
0,1,15.522
0,1,15.721
0,1,15.92
0,1,16.119
0,1,16.318
0,1,16.517
0,1,16.716
0,1,16.915
0,1,17.114
0,1,17.313
0,1,17.512
0,1,17.711
0,1,17.91
0,1,18.109
0,1,18.308
0,1,18.507
0,1,18.706
0,1,18.905
0,1,19.104
0,1,19.303
0,1,19.502
0,1,19.701
0,1,19.9
294.05,1,20.099
294.05,1,20.298
294.05,1,20.497
294.05,1,20.696
294.05,1,20.895
307.15,1,21.094
307.15,1,21.293
307.15,1,21.492
307.15,1,21.691
307.15,1,21.89
319.97,1,22.089
319.97,1,22.288
319.97,1,22.487
319.97,1,22.686
319.97,1,22.885
332.37,1,23.084
332.37,1,23.283
332.37,1,23.482
332.37,1,23.681
332.37,1,23.88
344.33,1,24.079
344.33,1,24.278
344.33,1,24.477
344.33,1,24.676
344.33,1,24.875
355.83,1,25.074
355.83,1,25.273
355.83,1,25.472
355.83,1,25.671
355.83,1,25.87
366.84,1,26.069
366.84,1,26.268
366.84,1,26.467
366.84,1,26.666
366.84,1,26.865
377.34,1,27.064
377.34,1,27.263
377.34,1,27.462
377.34,1,27.661
377.34,1,27.86
387.33,1,28.059
387.33,1,28.258
387.33,1,28.457
387.33,1,28.656
387.33,1,28.855
396.8,1,29.054
396.8,1,29.253
396.8,1,29.452
396.8,1,29.651
396.8,1,29.85
405.74,1,30.049
405.74,1,30.248
405.74,1,30.447
405.74,1,30.646
405.74,1,30.845
414.15,1,31.044
414.15,1,31.243
414.15,1,31.442
414.15,1,31.641
414.15,1,31.84
422.04,1,32.039
422.04,1,32.238
422.04,1,32.437
422.04,1,32.636
422.04,1,32.835
429.42,1,33.034
429.42,1,33.233
429.42,1,33.432
429.42,1,33.631
429.42,1,33.83
436.28,1,34.029
436.28,1,34.228
436.28,1,34.427
436.28,1,34.626
436.28,1,34.825
442.65,1,35.024
442.65,1,35.223
442.65,1,35.422
442.65,1,35.621
442.65,1,35.82
448.54,1,36.019
448.54,1,36.218
448.54,1,36.417
448.54,1,36.616
448.54,1,36.815
453.96,1,37.014
453.96,1,37.213
453.96,1,37.412
453.96,1,37.611
453.96,1,37.81
458.94,1,38.009
458.94,1,38.208
458.94,1,38.407
458.94,1,38.606
458.94,1,38.805
463.49,1,39.004
463.49,1,39.203
463.49,1,39.402
463.49,1,39.601
463.49,1,39.8
463.49,1,39.999
467.64,1,40.198
467.64,1,40.397
467.64,1,40.596
467.64,1,40.795
467.64,1,40.994
471.4,1,41.193
471.4,1,41.392
471.4,1,41.591
471.4,1,41.79
471.4,1,41.989
474.81,1,42.188
474.81,1,42.387
474.81,1,42.586
474.81,1,42.785
474.81,1,42.984
477.88,1,43.183
477.88,1,43.382
477.88,1,43.581
477.88,1,43.78
477.88,1,43.979
480.63,1,44.178
480.63,1,44.377
480.63,1,44.576
480.63,1,44.775
480.63,1,44.974
483.1,1,45.173
483.1,1,45.372
483.1,1,45.571
483.1,1,45.77
483.1,1,45.969
485.3,1,46.168
485.3,1,46.367
485.3,1,46.566
485.3,1,46.765
485.3,1,46.964
487.25,1,47.163
487.25,1,47.362
487.25,1,47.561
487.25,1,47.76
487.25,1,47.959
488.98,1,48.158
488.98,1,48.357
488.98,1,48.556
488.98,1,48.755
488.98,1,48.954
490.5,1,49.153
490.5,1,49.352
490.5,1,49.551
490.5,1,49.75
490.5,1,49.949
491.84,1,50.148
491.84,1,50.347
491.84,1,50.546
491.84,1,50.745
491.84,1,50.944
493.02,1,51.143
493.02,1,51.342
493.02,1,51.541
493.02,1,51.74
493.02,1,51.939
494.04,1,52.138
494.04,1,52.337
494.04,1,52.536
494.04,1,52.735
494.04,1,52.934
494.93,1,53.133
494.93,1,53.332
494.93,1,53.531
494.93,1,53.73
494.93,1,53.929
495.7,1,54.128
495.7,1,54.327
495.7,1,54.526
495.7,1,54.725
495.7,1,54.924
496.36,1,55.123
496.36,1,55.322
496.36,1,55.521
496.36,1,55.72
496.36,1,55.919
496.93,1,56.118
496.93,1,56.317
496.93,1,56.516
496.93,1,56.715
496.93,1,56.914
497.42,1,57.113
497.42,1,57.312
497.42,1,57.511
497.42,1,57.71
497.42,1,57.909
497.84,1,58.108
497.84,1,58.307
497.84,1,58.506
497.84,1,58.705
497.84,1,58.904
498.2,1,59.103
498.2,1,59.302
498.2,1,59.501
498.2,1,59.7
498.2,1,59.899
498.5,1,60.098
498.5,1,60.297
498.5,1,60.496
498.5,1,60.695
498.5,1,60.894
498.75,1,61.093
498.75,1,61.292
498.75,1,61.491
498.75,1,61.69
498.75,1,61.889
498.97,1,62.088
498.97,1,62.287
498.97,1,62.486
498.97,1,62.685
498.97,1,62.884
499.15,1,63.083
499.15,1,63.282
499.15,1,63.481
499.15,1,63.68
499.15,1,63.879
499.3,1,64.078
499.3,1,64.277
499.3,1,64.476
499.3,1,64.675
499.3,1,64.874
499.43,1,65.073
499.43,1,65.272
499.43,1,65.471
499.43,1,65.67
499.43,1,65.869
499.53,1,66.068
499.53,1,66.267
499.53,1,66.466
499.53,1,66.665
499.53,1,66.864
499.62,1,67.063
499.62,1,67.262
499.62,1,67.461
499.62,1,67.66
499.62,1,67.859
499.69,1,68.058
499.69,1,68.257
499.69,1,68.456
499.69,1,68.655
499.69,1,68.854
499.75,1,69.053
499.75,1,69.252
499.75,1,69.451
499.75,1,69.65
499.75,1,69.849
499.8,1,70.048
499.8,1,70.247
499.8,1,70.446
499.8,1,70.645
499.8,1,70.844
499.84,1,71.043
499.84,1,71.242
499.84,1,71.441
499.84,1,71.64
499.84,1,71.839
499.87,1,72.038
499.87,1,72.237
499.87,1,72.436
499.87,1,72.635
499.87,1,72.834
499.89,1,73.033
499.89,1,73.232
499.89,1,73.431
499.89,1,73.63
499.89,1,73.829
499.91,1,74.028
499.91,1,74.227
499.91,1,74.426
499.91,1,74.625
499.91,1,74.824
499.93,1,75.023
499.93,1,75.222
499.93,1,75.421
499.93,1,75.62
499.93,1,75.819
499.95,1,76.018
499.95,1,76.217
499.95,1,76.416
499.95,1,76.615
499.95,1,76.814
499.96,1,77.013
499.96,1,77.212
499.96,1,77.411
499.96,1,77.61
499.96,1,77.809
499.97,1,78.008
499.97,1,78.207
499.97,1,78.406
499.97,1,78.605
499.97,1,78.804
499.97,1,79.003
499.97,1,79.202
499.97,1,79.401
499.97,1,79.6
499.97,1,79.799
499.97,1,79.998
499.98,1,80.197
499.98,1,80.396
499.98,1,80.595
499.98,1,80.794
499.98,1,80.993
499.98,1,81.192
499.98,1,81.391
499.98,1,81.59
499.98,1,81.789
499.98,1,81.988
499.99,1,82.187
499.99,1,82.386
499.99,1,82.585
499.99,1,82.784
499.99,1,82.983
499.99,1,83.182
499.99,1,83.381
499.99,1,83.58
499.99,1,83.779
499.99,1,83.978
499.99,1,84.177
499.99,1,84.376
499.99,1,84.575
499.99,1,84.774
499.99,1,84.973
499.99,1,85.172
499.99,1,85.371
499.99,1,85.57
499.99,1,85.769
499.99,1,85.968
499.99,1,86.167
499.99,1,86.366
499.99,1,86.565
499.99,1,86.764
499.99,1,86.963
500,1,87.162
500,1,87.361
500,1,87.56
500,1,87.759
500,1,87.958
500,1,88.157
500,1,88.356
500,1,88.555
500,1,88.754
500,1,88.953
500,1,89.152
500,1,89.351
500,1,89.55
500,1,89.749
500,1,89.948
500,1,90.147
500,1,90.346
500,1,90.545
500,1,90.744
500,1,90.943
500,1,91.142
500,1,91.341
500,1,91.54
500,1,91.739
500,1,91.938
500,1,92.137
500,1,92.336
500,1,92.535
500,1,92.734
500,1,92.933
500,1,93.132
500,1,93.331
500,1,93.53
500,1,93.729
500,1,93.928
500,1,94.127
500,1,94.326
500,1,94.525
500,1,94.724
500,1,94.923
500,1,95.122
500,1,95.321
500,1,95.52
500,1,95.719
500,1,95.918
500,1,96.117
500,1,96.316
500,1,96.515
500,1,96.714
500,1,96.913
500,1,97.112
500,1,97.311
500,1,97.51
500,1,97.709
500,1,97.908
500,1,98.107
500,1,98.306
500,1,98.505
500,1,98.704
500,1,98.903
500,1,99.102
500,1,99.301
500,1,99.5
500,1,99.699
500,1,99.898
500,1,100.1
500,1,100.3
500,1,100.5
500,1,100.69
500,1,100.89
500,1,101.09
500,1,101.29
500,1,101.49
500,1,101.69
500,1,101.89
500,1,102.09
500,1,102.29
500,1,102.49
500,1,102.68
500,1,102.88
500,1,103.08
500,1,103.28
500,1,103.48
500,1,103.68
500,1,103.88
500,1,104.08
500,1,104.28
500,1,104.47
500,1,104.67
500,1,104.87
500,1,105.07
500,1,105.27
500,1,105.47
500,1,105.67
500,1,105.87
500,1,106.07
500,1,106.27
500,1,106.46
500,1,106.66
500,1,106.86
500,1,107.06
500,1,107.26
500,1,107.46
500,1,107.66
500,1,107.86
500,1,108.06
500,1,108.26
500,1,108.46
500,1,108.65
500,1,108.85
500,1,109.05
500,1,109.25
500,1,109.45
500,1,109.65
500,1,109.85
500,1,110.05
500,1,110.25
500,1,110.44
500,1,110.64
500,1,110.84
500,1,111.04
500,1,111.24
500,1,111.44
500,1,111.64
500,1,111.84
500,1,112.04
500,1,112.24
500,1,112.43
500,1,112.63
500,1,112.83
499.99,1,113.03
499.99,1,113.23
499.99,1,113.43
499.99,1,113.63
499.99,1,113.83
499.99,1,114.03
499.99,1,114.23
499.99,1,114.43
499.99,1,114.62
499.99,1,114.82
499.99,1,115.02
499.99,1,115.22
499.99,1,115.42
499.99,1,115.62
499.99,1,115.82
499.99,1,116.02
499.99,1,116.22
499.99,1,116.42
499.99,1,116.61
499.99,1,116.81
499.99,1,117.01
499.99,1,117.21
499.99,1,117.41
499.99,1,117.61
499.99,1,117.81
499.98,1,118.01
499.98,1,118.21
499.98,1,118.4
499.98,1,118.6
499.98,1,118.8
499.98,1,119
499.98,1,119.2
499.98,1,119.4
499.98,1,119.6
499.98,1,119.8
499.98,1,120
499.97,1,120.2
499.97,1,120.39
499.97,1,120.59
499.97,1,120.79
499.97,1,120.99
499.97,1,121.19
499.97,1,121.39
499.97,1,121.59
499.97,1,121.79
499.97,1,121.99
499.96,1,122.19
499.96,1,122.39
499.96,1,122.58
499.96,1,122.78
499.96,1,122.98
499.95,1,123.18
499.95,1,123.38
499.95,1,123.58
499.95,1,123.78
499.95,1,123.98
499.93,1,124.18
499.93,1,124.38
499.93,1,124.57
499.93,1,124.77
499.93,1,124.97
499.91,1,125.17
499.91,1,125.37
499.91,1,125.57
499.91,1,125.77
499.91,1,125.97
499.89,1,126.17
499.89,1,126.36
499.89,1,126.56
499.89,1,126.76
499.89,1,126.96
499.87,1,127.16
499.87,1,127.36
499.87,1,127.56
499.87,1,127.76
499.87,1,127.96
499.84,1,128.16
499.84,1,128.35
499.84,1,128.55
499.84,1,128.75
499.84,1,128.95
499.8,1,129.15
499.8,1,129.35
499.8,1,129.55
499.8,1,129.75
499.8,1,129.95
499.75,1,130.15
499.75,1,130.35
499.75,1,130.54
499.75,1,130.74
499.75,1,130.94
499.69,1,131.14
499.69,1,131.34
499.69,1,131.54
499.69,1,131.74
499.69,1,131.94
499.62,1,132.14
499.62,1,132.34
499.62,1,132.53
499.62,1,132.73
499.62,1,132.93
499.53,1,133.13
499.53,1,133.33
499.53,1,133.53
499.53,1,133.73
499.53,1,133.93
499.43,1,134.13
499.43,1,134.32
499.43,1,134.52
499.43,1,134.72
499.43,1,134.92
499.3,1,135.12
499.3,1,135.32
499.3,1,135.52
499.3,1,135.72
499.3,1,135.92
499.15,1,136.12
499.15,1,136.32
499.15,1,136.51
499.15,1,136.71
499.15,1,136.91
498.97,1,137.11
498.97,1,137.31
498.97,1,137.51
498.97,1,137.71
498.97,1,137.91
498.75,1,138.11
498.75,1,138.3
498.75,1,138.5
498.75,1,138.7
498.75,1,138.9
498.5,1,139.1
498.5,1,139.3
498.5,1,139.5
498.5,1,139.7
498.5,1,139.9
498.2,1,140.1
498.2,1,140.29
498.2,1,140.49
498.2,1,140.69
498.2,1,140.89
497.84,1,141.09
497.84,1,141.29
497.84,1,141.49
497.84,1,141.69
497.84,1,141.89
497.42,1,142.09
497.42,1,142.29
497.42,1,142.48
497.42,1,142.68
497.42,1,142.88
496.93,1,143.08
496.93,1,143.28
496.93,1,143.48
496.93,1,143.68
496.93,1,143.88
496.36,1,144.08
496.36,1,144.27
496.36,1,144.47
496.36,1,144.67
496.36,1,144.87
495.7,1,145.07
495.7,1,145.27
495.7,1,145.47
495.7,1,145.67
495.7,1,145.87
494.93,1,146.07
494.93,1,146.26
494.93,1,146.46
494.93,1,146.66
494.93,1,146.86
494.04,1,147.06
494.04,1,147.26
494.04,1,147.46
494.04,1,147.66
494.04,1,147.86
493.02,1,148.06
493.02,1,148.26
493.02,1,148.45
493.02,1,148.65
493.02,1,148.85
491.84,1,149.05
491.84,1,149.25
491.84,1,149.45
491.84,1,149.65
491.84,1,149.85
490.5,1,150.05
490.5,1,150.24
490.5,1,150.44
490.5,1,150.64
490.5,1,150.84
488.98,1,151.04
488.98,1,151.24
488.98,1,151.44
488.98,1,151.64
488.98,1,151.84
487.25,1,152.04
487.25,1,152.24
487.25,1,152.43
487.25,1,152.63
487.25,1,152.83
485.3,1,153.03
485.3,1,153.23
485.3,1,153.43
485.3,1,153.63
485.3,1,153.83
483.1,1,154.03
483.1,1,154.23
483.1,1,154.42
483.1,1,154.62
483.1,1,154.82
480.63,1,155.02
480.63,1,155.22
480.63,1,155.42
480.63,1,155.62
480.63,1,155.82
477.88,1,156.02
477.88,1,156.21
477.88,1,156.41
477.88,1,156.61
477.88,1,156.81
474.81,1,157.01
474.81,1,157.21
474.81,1,157.41
474.81,1,157.61
474.81,1,157.81
471.4,1,158.01
471.4,1,158.21
471.4,1,158.4
471.4,1,158.6
471.4,1,158.8
467.64,1,159
467.64,1,159.2
467.64,1,159.4
467.64,1,159.6
467.64,1,159.8
467.64,1,160
463.49,1,160.2
463.49,1,160.39
463.49,1,160.59
463.49,1,160.79
463.49,1,160.99
458.94,1,161.19
458.94,1,161.39
458.94,1,161.59
458.94,1,161.79
458.94,1,161.99
453.96,1,162.18
453.96,1,162.38
453.96,1,162.58
453.96,1,162.78
453.96,1,162.98
448.54,1,163.18
448.54,1,163.38
448.54,1,163.58
448.54,1,163.78
448.54,1,163.98
442.65,1,164.18
442.65,1,164.37
442.65,1,164.57
442.65,1,164.77
442.65,1,164.97
436.28,1,165.17
436.28,1,165.37
436.28,1,165.57
436.28,1,165.77
436.28,1,165.97
429.42,1,166.16
429.42,1,166.36
429.42,1,166.56
429.42,1,166.76
429.42,1,166.96
422.04,1,167.16
422.04,1,167.36
422.04,1,167.56
422.04,1,167.76
422.04,1,167.96
414.15,1,168.15
414.15,1,168.35
414.15,1,168.55
414.15,1,168.75
414.15,1,168.95
405.74,1,169.15
405.74,1,169.35
405.74,1,169.55
405.74,1,169.75
405.74,1,169.95
396.8,1,170.15
396.8,1,170.34
396.8,1,170.54
396.8,1,170.74
396.8,1,170.94
387.33,1,171.14
387.33,1,171.34
387.33,1,171.54
387.33,1,171.74
387.33,1,171.94
377.34,1,172.13
377.34,1,172.33
377.34,1,172.53
377.34,1,172.73
377.34,1,172.93
366.84,1,173.13
366.84,1,173.33
366.84,1,173.53
366.84,1,173.73
366.84,1,173.93
355.83,1,174.12
355.83,1,174.32
355.83,1,174.52
355.83,1,174.72
355.83,1,174.92
344.33,1,175.12
344.33,1,175.32
344.33,1,175.52
344.33,1,175.72
344.33,1,175.92
332.37,1,176.12
332.37,1,176.31
332.37,1,176.51
332.37,1,176.71
332.37,1,176.91
319.97,1,177.11
319.97,1,177.31
319.97,1,177.51
319.97,1,177.71
319.97,1,177.91
307.15,1,178.1
307.15,1,178.3
307.15,1,178.5
307.15,1,178.7
307.15,1,178.9
294.05,1,179.1
294.05,1,179.3
294.05,1,179.5
294.05,1,179.7
294.05,1,179.9
0,1,180.1
0,1,180.29
0,1,180.49
0,1,180.69
0,1,180.89
0,1,181.09
0,1,181.29
0,1,181.49
0,1,181.69
0,1,181.89
0,1,182.09
0,1,182.28
0,1,182.48
0,1,182.68
0,1,182.88
0,1,183.08
0,1,183.28
0,1,183.48
0,1,183.68
0,1,183.88
0,1,184.07
0,1,184.27
0,1,184.47
0,1,184.67
0,1,184.87
0,1,185.07
0,1,185.27
0,1,185.47
0,1,185.67
0,1,185.87
0,1,186.07
0,1,186.26
0,1,186.46
0,1,186.66
0,1,186.86
0,1,187.06
0,1,187.26
0,1,187.46
0,1,187.66
0,1,187.86
0,1,188.05
0,1,188.25
0,1,188.45
0,1,188.65
0,1,188.85
0,1,189.05
0,1,189.25
0,1,189.45
0,1,189.65
0,1,189.85
0,1,190.04
0,1,190.24
0,1,190.44
0,1,190.64
0,1,190.84
0,1,191.04
0,1,191.24
0,1,191.44
0,1,191.64
0,1,191.84
0,1,192.04
0,1,192.23
0,1,192.43
0,1,192.63
0,1,192.83
0,1,193.03
0,1,193.23
0,1,193.43
0,1,193.63
0,1,193.83
0,1,194.02
0,1,194.22
0,1,194.42
0,1,194.62
0,1,194.82
0,1,195.02
0,1,195.22
0,1,195.42
0,1,195.62
0,1,195.82
0,1,196.01
0,1,196.21
0,1,196.41
0,1,196.61
0,1,196.81
0,1,197.01
0,1,197.21
0,1,197.41
0,1,197.61
0,1,197.81
0,1,198.01
0,1,198.2
0,1,198.4
0,1,198.6
0,1,198.8
0,1,199
