"PuMA_Matrix","vtkValidPointMask","arc_length"
0,1,0
0,1,0.199
0,1,0.398
0,1,0.597
0,1,0.796
0,1,0.995
0,1,1.194
0,1,1.393
0,1,1.592
0,1,1.791
0,1,1.99
0,1,2.189
0,1,2.388
0,1,2.587
0,1,2.786
0,1,2.985
0,1,3.184
0,1,3.383
0,1,3.582
0,1,3.781
0,1,3.98
0,1,4.179
0,1,4.378
0,1,4.577
0,1,4.776
0,1,4.975
0,1,5.174
0,1,5.373
0,1,5.572
0,1,5.771
0,1,5.97
0,1,6.169
0,1,6.368
0,1,6.567
0,1,6.766
0,1,6.965
0,1,7.164
0,1,7.363
0,1,7.562
0,1,7.761
0,1,7.96
0,1,8.159
0,1,8.358
0,1,8.557
0,1,8.756
0,1,8.955
0,1,9.154
0,1,9.353
0,1,9.552
0,1,9.751
0,1,9.95
0,1,10.149
0,1,10.348
0,1,10.547
0,1,10.746
0,1,10.945
0,1,11.144
0,1,11.343
0,1,11.542
0,1,11.741
0,1,11.94
0,1,12.139
0,1,12.338
0,1,12.537
0,1,12.736
0,1,12.935
0,1,13.134
0,1,13.333
0,1,13.532
0,1,13.731
0,1,13.93
0,1,14.129
0,1,14.328
0,1,14.527
0,1,14.726
0,1,14.925
0,1,15.124
0,1,15.323
0,1,15.522
0,1,15.721
0,1,15.92
0,1,16.119
0,1,16.318
0,1,16.517
0,1,16.716
0,1,16.915
0,1,17.114
0,1,17.313
0,1,17.512
0,1,17.711
0,1,17.91
0,1,18.109
0,1,18.308
0,1,18.507
0,1,18.706
0,1,18.905
0,1,19.104
0,1,19.303
0,1,19.502
0,1,19.701
0,1,19.9
289.4,1,20.099
289.4,1,20.298
289.4,1,20.497
289.4,1,20.696
289.4,1,20.895
302.31,1,21.094
302.31,1,21.293
302.31,1,21.492
302.31,1,21.691
302.31,1,21.89
314.95,1,22.089
314.95,1,22.288
314.95,1,22.487
314.95,1,22.686
314.95,1,22.885
327.2,1,23.084
327.2,1,23.283
327.2,1,23.482
327.2,1,23.681
327.2,1,23.88
339.05,1,24.079
339.05,1,24.278
339.05,1,24.477
339.05,1,24.676
339.05,1,24.875
350.46,1,25.074
350.46,1,25.273
350.46,1,25.472
350.46,1,25.671
350.46,1,25.87
361.41,1,26.069
361.41,1,26.268
361.41,1,26.467
361.41,1,26.666
361.41,1,26.865
371.89,1,27.064
371.89,1,27.263
371.89,1,27.462
371.89,1,27.661
371.89,1,27.86
381.89,1,28.059
381.89,1,28.258
381.89,1,28.457
381.89,1,28.656
381.89,1,28.855
391.39,1,29.054
391.39,1,29.253
391.39,1,29.452
391.39,1,29.651
391.39,1,29.85
400.4,1,30.049
400.4,1,30.248
400.4,1,30.447
400.4,1,30.646
400.4,1,30.845
408.9,1,31.044
408.9,1,31.243
408.9,1,31.442
408.9,1,31.641
408.9,1,31.84
416.91,1,32.039
416.91,1,32.238
416.91,1,32.437
416.91,1,32.636
416.91,1,32.835
424.42,1,33.034
424.42,1,33.233
424.42,1,33.432
424.42,1,33.631
424.42,1,33.83
431.44,1,34.029
431.44,1,34.228
431.44,1,34.427
431.44,1,34.626
431.44,1,34.825
437.98,1,35.024
437.98,1,35.223
437.98,1,35.422
437.98,1,35.621
437.98,1,35.82
444.06,1,36.019
444.06,1,36.218
444.06,1,36.417
444.06,1,36.616
444.06,1,36.815
449.68,1,37.014
449.68,1,37.213
449.68,1,37.412
449.68,1,37.611
449.68,1,37.81
454.87,1,38.009
454.87,1,38.208
454.87,1,38.407
454.87,1,38.606
454.87,1,38.805
459.64,1,39.004
459.64,1,39.203
459.64,1,39.402
459.64,1,39.601
459.64,1,39.8
459.64,1,39.999
464.01,1,40.198
464.01,1,40.397
464.01,1,40.596
464.01,1,40.795
464.01,1,40.994
467.99,1,41.193
467.99,1,41.392
467.99,1,41.591
467.99,1,41.79
467.99,1,41.989
471.62,1,42.188
471.62,1,42.387
471.62,1,42.586
471.62,1,42.785
471.62,1,42.984
474.92,1,43.183
474.92,1,43.382
474.92,1,43.581
474.92,1,43.78
474.92,1,43.979
477.89,1,44.178
477.89,1,44.377
477.89,1,44.576
477.89,1,44.775
477.89,1,44.974
480.57,1,45.173
480.57,1,45.372
480.57,1,45.571
480.57,1,45.77
480.57,1,45.969
482.97,1,46.168
482.97,1,46.367
482.97,1,46.566
482.97,1,46.765
482.97,1,46.964
485.12,1,47.163
485.12,1,47.362
485.12,1,47.561
485.12,1,47.76
485.12,1,47.959
487.04,1,48.158
487.04,1,48.357
487.04,1,48.556
487.04,1,48.755
487.04,1,48.954
488.75,1,49.153
488.75,1,49.352
488.75,1,49.551
488.75,1,49.75
488.75,1,49.949
490.25,1,50.148
490.25,1,50.347
490.25,1,50.546
490.25,1,50.745
490.25,1,50.944
491.59,1,51.143
491.59,1,51.342
491.59,1,51.541
491.59,1,51.74
491.59,1,51.939
492.76,1,52.138
492.76,1,52.337
492.76,1,52.536
492.76,1,52.735
492.76,1,52.934
493.78,1,53.133
493.78,1,53.332
493.78,1,53.531
493.78,1,53.73
493.78,1,53.929
494.68,1,54.128
494.68,1,54.327
494.68,1,54.526
494.68,1,54.725
494.68,1,54.924
495.46,1,55.123
495.46,1,55.322
495.46,1,55.521
495.46,1,55.72
495.46,1,55.919
496.14,1,56.118
496.14,1,56.317
496.14,1,56.516
496.14,1,56.715
496.14,1,56.914
496.72,1,57.113
496.72,1,57.312
496.72,1,57.511
496.72,1,57.71
496.72,1,57.909
497.23,1,58.108
497.23,1,58.307
497.23,1,58.506
497.23,1,58.705
497.23,1,58.904
497.66,1,59.103
497.66,1,59.302
497.66,1,59.501
497.66,1,59.7
497.66,1,59.899
498.03,1,60.098
498.03,1,60.297
498.03,1,60.496
498.03,1,60.695
498.03,1,60.894
498.35,1,61.093
498.35,1,61.292
498.35,1,61.491
498.35,1,61.69
498.35,1,61.889
498.62,1,62.088
498.62,1,62.287
498.62,1,62.486
498.62,1,62.685
498.62,1,62.884
498.85,1,63.083
498.85,1,63.282
498.85,1,63.481
498.85,1,63.68
498.85,1,63.879
499.04,1,64.078
499.04,1,64.277
499.04,1,64.476
499.04,1,64.675
499.04,1,64.874
499.21,1,65.073
499.21,1,65.272
499.21,1,65.471
499.21,1,65.67
499.21,1,65.869
499.34,1,66.068
499.34,1,66.267
499.34,1,66.466
499.34,1,66.665
499.34,1,66.864
499.46,1,67.063
499.46,1,67.262
499.46,1,67.461
499.46,1,67.66
499.46,1,67.859
499.55,1,68.058
499.55,1,68.257
499.55,1,68.456
499.55,1,68.655
499.55,1,68.854
499.63,1,69.053
499.63,1,69.252
499.63,1,69.451
499.63,1,69.65
499.63,1,69.849
499.7,1,70.048
499.7,1,70.247
499.7,1,70.446
499.7,1,70.645
499.7,1,70.844
499.76,1,71.043
499.76,1,71.242
499.76,1,71.441
499.76,1,71.64
499.76,1,71.839
499.8,1,72.038
499.8,1,72.237
499.8,1,72.436
499.8,1,72.635
499.8,1,72.834
499.84,1,73.033
499.84,1,73.232
499.84,1,73.431
499.84,1,73.63
499.84,1,73.829
499.87,1,74.028
499.87,1,74.227
499.87,1,74.426
499.87,1,74.625
499.87,1,74.824
499.89,1,75.023
499.89,1,75.222
499.89,1,75.421
499.89,1,75.62
499.89,1,75.819
499.91,1,76.018
499.91,1,76.217
499.91,1,76.416
499.91,1,76.615
499.91,1,76.814
499.93,1,77.013
499.93,1,77.212
499.93,1,77.411
499.93,1,77.61
499.93,1,77.809
499.94,1,78.008
499.94,1,78.207
499.94,1,78.406
499.94,1,78.605
499.94,1,78.804
499.95,1,79.003
499.95,1,79.202
499.95,1,79.401
499.95,1,79.6
499.95,1,79.799
499.95,1,79.998
499.96,1,80.197
499.96,1,80.396
499.96,1,80.595
499.96,1,80.794
499.96,1,80.993
499.97,1,81.192
499.97,1,81.391
499.97,1,81.59
499.97,1,81.789
499.97,1,81.988
499.98,1,82.187
499.98,1,82.386
499.98,1,82.585
499.98,1,82.784
499.98,1,82.983
499.98,1,83.182
499.98,1,83.381
499.98,1,83.58
499.98,1,83.779
499.98,1,83.978
499.98,1,84.177
499.98,1,84.376
499.98,1,84.575
499.98,1,84.774
499.98,1,84.973
499.99,1,85.172
499.99,1,85.371
499.99,1,85.57
499.99,1,85.769
499.99,1,85.968
499.99,1,86.167
499.99,1,86.366
499.99,1,86.565
499.99,1,86.764
499.99,1,86.963
499.99,1,87.162
499.99,1,87.361
499.99,1,87.56
499.99,1,87.759
499.99,1,87.958
499.99,1,88.157
499.99,1,88.356
499.99,1,88.555
499.99,1,88.754
499.99,1,88.953
499.99,1,89.152
499.99,1,89.351
499.99,1,89.55
499.99,1,89.749
499.99,1,89.948
500,1,90.147
500,1,90.346
500,1,90.545
500,1,90.744
500,1,90.943
500,1,91.142
500,1,91.341
500,1,91.54
500,1,91.739
500,1,91.938
500,1,92.137
500,1,92.336
500,1,92.535
500,1,92.734
500,1,92.933
500,1,93.132
500,1,93.331
500,1,93.53
500,1,93.729
500,1,93.928
500,1,94.127
500,1,94.326
500,1,94.525
500,1,94.724
500,1,94.923
500,1,95.122
500,1,95.321
500,1,95.52
500,1,95.719
500,1,95.918
500,1,96.117
500,1,96.316
500,1,96.515
500,1,96.714
500,1,96.913
500,1,97.112
500,1,97.311
500,1,97.51
500,1,97.709
500,1,97.908
500,1,98.107
500,1,98.306
500,1,98.505
500,1,98.704
500,1,98.903
500,1,99.102
500,1,99.301
500,1,99.5
500,1,99.699
500,1,99.898
500,1,100.1
500,1,100.3
500,1,100.5
500,1,100.69
500,1,100.89
500,1,101.09
500,1,101.29
500,1,101.49
500,1,101.69
500,1,101.89
500,1,102.09
500,1,102.29
500,1,102.49
500,1,102.68
500,1,102.88
500,1,103.08
500,1,103.28
500,1,103.48
500,1,103.68
500,1,103.88
500,1,104.08
500,1,104.28
500,1,104.47
500,1,104.67
500,1,104.87
500,1,105.07
500,1,105.27
500,1,105.47
500,1,105.67
500,1,105.87
500,1,106.07
500,1,106.27
500,1,106.46
500,1,106.66
500,1,106.86
500,1,107.06
500,1,107.26
500,1,107.46
500,1,107.66
500,1,107.86
500,1,108.06
500,1,108.26
500,1,108.46
500,1,108.65
500,1,108.85
500,1,109.05
500,1,109.25
500,1,109.45
500,1,109.65
500,1,109.85
499.99,1,110.05
499.99,1,110.25
499.99,1,110.44
499.99,1,110.64
499.99,1,110.84
499.99,1,111.04
499.99,1,111.24
499.99,1,111.44
499.99,1,111.64
499.99,1,111.84
499.99,1,112.04
499.99,1,112.24
499.99,1,112.43
499.99,1,112.63
499.99,1,112.83
499.99,1,113.03
499.99,1,113.23
499.99,1,113.43
499.99,1,113.63
499.99,1,113.83
499.99,1,114.03
499.99,1,114.23
499.99,1,114.43
499.99,1,114.62
499.99,1,114.82
499.98,1,115.02
499.98,1,115.22
499.98,1,115.42
499.98,1,115.62
499.98,1,115.82
499.98,1,116.02
499.98,1,116.22
499.98,1,116.42
499.98,1,116.61
499.98,1,116.81
499.98,1,117.01
499.98,1,117.21
499.98,1,117.41
499.98,1,117.61
499.98,1,117.81
499.97,1,118.01
499.97,1,118.21
499.97,1,118.4
499.97,1,118.6
499.97,1,118.8
499.96,1,119
499.96,1,119.2
499.96,1,119.4
499.96,1,119.6
499.96,1,119.8
499.96,1,120
499.95,1,120.2
499.95,1,120.39
499.95,1,120.59
499.95,1,120.79
499.95,1,120.99
499.94,1,121.19
499.94,1,121.39
499.94,1,121.59
499.94,1,121.79
499.94,1,121.99
499.93,1,122.19
499.93,1,122.39
499.93,1,122.58
499.93,1,122.78
499.93,1,122.98
499.91,1,123.18
499.91,1,123.38
499.91,1,123.58
499.91,1,123.78
499.91,1,123.98
499.89,1,124.18
499.89,1,124.38
499.89,1,124.57
499.89,1,124.77
499.89,1,124.97
499.87,1,125.17
499.87,1,125.37
499.87,1,125.57
499.87,1,125.77
499.87,1,125.97
499.84,1,126.17
499.84,1,126.36
499.84,1,126.56
499.84,1,126.76
499.84,1,126.96
499.8,1,127.16
499.8,1,127.36
499.8,1,127.56
499.8,1,127.76
499.8,1,127.96
499.76,1,128.16
499.76,1,128.35
499.76,1,128.55
499.76,1,128.75
499.76,1,128.95
499.7,1,129.15
499.7,1,129.35
499.7,1,129.55
499.7,1,129.75
499.7,1,129.95
499.63,1,130.15
499.63,1,130.35
499.63,1,130.54
499.63,1,130.74
499.63,1,130.94
499.55,1,131.14
499.55,1,131.34
499.55,1,131.54
499.55,1,131.74
499.55,1,131.94
499.46,1,132.14
499.46,1,132.34
499.46,1,132.53
499.46,1,132.73
499.46,1,132.93
499.34,1,133.13
499.34,1,133.33
499.34,1,133.53
499.34,1,133.73
499.34,1,133.93
499.21,1,134.13
499.21,1,134.32
499.21,1,134.52
499.21,1,134.72
499.21,1,134.92
499.04,1,135.12
499.04,1,135.32
499.04,1,135.52
499.04,1,135.72
499.04,1,135.92
498.85,1,136.12
498.85,1,136.32
498.85,1,136.51
498.85,1,136.71
498.85,1,136.91
498.62,1,137.11
498.62,1,137.31
498.62,1,137.51
498.62,1,137.71
498.62,1,137.91
498.35,1,138.11
498.35,1,138.3
498.35,1,138.5
498.35,1,138.7
498.35,1,138.9
498.03,1,139.1
498.03,1,139.3
498.03,1,139.5
498.03,1,139.7
498.03,1,139.9
497.66,1,140.1
497.66,1,140.29
497.66,1,140.49
497.66,1,140.69
497.66,1,140.89
497.23,1,141.09
497.23,1,141.29
497.23,1,141.49
497.23,1,141.69
497.23,1,141.89
496.72,1,142.09
496.72,1,142.29
496.72,1,142.48
496.72,1,142.68
496.72,1,142.88
496.14,1,143.08
496.14,1,143.28
496.14,1,143.48
496.14,1,143.68
496.14,1,143.88
495.46,1,144.08
495.46,1,144.27
495.46,1,144.47
495.46,1,144.67
495.46,1,144.87
494.68,1,145.07
494.68,1,145.27
494.68,1,145.47
494.68,1,145.67
494.68,1,145.87
493.78,1,146.07
493.78,1,146.26
493.78,1,146.46
493.78,1,146.66
493.78,1,146.86
492.76,1,147.06
492.76,1,147.26
492.76,1,147.46
492.76,1,147.66
492.76,1,147.86
491.59,1,148.06
491.59,1,148.26
491.59,1,148.45
491.59,1,148.65
491.59,1,148.85
490.25,1,149.05
490.25,1,149.25
490.25,1,149.45
490.25,1,149.65
490.25,1,149.85
488.75,1,150.05
488.75,1,150.24
488.75,1,150.44
488.75,1,150.64
488.75,1,150.84
487.04,1,151.04
487.04,1,151.24
487.04,1,151.44
487.04,1,151.64
487.04,1,151.84
485.12,1,152.04
485.12,1,152.24
485.12,1,152.43
485.12,1,152.63
485.12,1,152.83
482.97,1,153.03
482.97,1,153.23
482.97,1,153.43
482.97,1,153.63
482.97,1,153.83
480.57,1,154.03
480.57,1,154.23
480.57,1,154.42
480.57,1,154.62
480.57,1,154.82
477.89,1,155.02
477.89,1,155.22
477.89,1,155.42
477.89,1,155.62
477.89,1,155.82
474.92,1,156.02
474.92,1,156.21
474.92,1,156.41
474.92,1,156.61
474.92,1,156.81
471.62,1,157.01
471.62,1,157.21
471.62,1,157.41
471.62,1,157.61
471.62,1,157.81
467.99,1,158.01
467.99,1,158.21
467.99,1,158.4
467.99,1,158.6
467.99,1,158.8
464.01,1,159
464.01,1,159.2
464.01,1,159.4
464.01,1,159.6
464.01,1,159.8
464.01,1,160
459.64,1,160.2
459.64,1,160.39
459.64,1,160.59
459.64,1,160.79
459.64,1,160.99
454.87,1,161.19
454.87,1,161.39
454.87,1,161.59
454.87,1,161.79
454.87,1,161.99
449.68,1,162.18
449.68,1,162.38
449.68,1,162.58
449.68,1,162.78
449.68,1,162.98
444.06,1,163.18
444.06,1,163.38
444.06,1,163.58
444.06,1,163.78
444.06,1,163.98
437.98,1,164.18
437.98,1,164.37
437.98,1,164.57
437.98,1,164.77
437.98,1,164.97
431.44,1,165.17
431.44,1,165.37
431.44,1,165.57
431.44,1,165.77
431.44,1,165.97
424.42,1,166.16
424.42,1,166.36
424.42,1,166.56
424.42,1,166.76
424.42,1,166.96
416.91,1,167.16
416.91,1,167.36
416.91,1,167.56
416.91,1,167.76
416.91,1,167.96
408.9,1,168.15
408.9,1,168.35
408.9,1,168.55
408.9,1,168.75
408.9,1,168.95
400.4,1,169.15
400.4,1,169.35
400.4,1,169.55
400.4,1,169.75
400.4,1,169.95
391.39,1,170.15
391.39,1,170.34
391.39,1,170.54
391.39,1,170.74
391.39,1,170.94
381.89,1,171.14
381.89,1,171.34
381.89,1,171.54
381.89,1,171.74
381.89,1,171.94
371.89,1,172.13
371.89,1,172.33
371.89,1,172.53
371.89,1,172.73
371.89,1,172.93
361.41,1,173.13
361.41,1,173.33
361.41,1,173.53
361.41,1,173.73
361.41,1,173.93
350.46,1,174.12
350.46,1,174.32
350.46,1,174.52
350.46,1,174.72
350.46,1,174.92
339.05,1,175.12
339.05,1,175.32
339.05,1,175.52
339.05,1,175.72
339.05,1,175.92
327.2,1,176.12
327.2,1,176.31
327.2,1,176.51
327.2,1,176.71
327.2,1,176.91
314.95,1,177.11
314.95,1,177.31
314.95,1,177.51
314.95,1,177.71
314.95,1,177.91
302.31,1,178.1
302.31,1,178.3
302.31,1,178.5
302.31,1,178.7
302.31,1,178.9
289.4,1,179.1
289.4,1,179.3
289.4,1,179.5
289.4,1,179.7
289.4,1,179.9
0,1,180.1
0,1,180.29
0,1,180.49
0,1,180.69
0,1,180.89
0,1,181.09
0,1,181.29
0,1,181.49
0,1,181.69
0,1,181.89
0,1,182.09
0,1,182.28
0,1,182.48
0,1,182.68
0,1,182.88
0,1,183.08
0,1,183.28
0,1,183.48
0,1,183.68
0,1,183.88
0,1,184.07
0,1,184.27
0,1,184.47
0,1,184.67
0,1,184.87
0,1,185.07
0,1,185.27
0,1,185.47
0,1,185.67
0,1,185.87
0,1,186.07
0,1,186.26
0,1,186.46
0,1,186.66
0,1,186.86
0,1,187.06
0,1,187.26
0,1,187.46
0,1,187.66
0,1,187.86
0,1,188.05
0,1,188.25
0,1,188.45
0,1,188.65
0,1,188.85
0,1,189.05
0,1,189.25
0,1,189.45
0,1,189.65
0,1,189.85
0,1,190.04
0,1,190.24
0,1,190.44
0,1,190.64
0,1,190.84
0,1,191.04
0,1,191.24
0,1,191.44
0,1,191.64
0,1,191.84
0,1,192.04
0,1,192.23
0,1,192.43
0,1,192.63
0,1,192.83
0,1,193.03
0,1,193.23
0,1,193.43
0,1,193.63
0,1,193.83
0,1,194.02
0,1,194.22
0,1,194.42
0,1,194.62
0,1,194.82
0,1,195.02
0,1,195.22
0,1,195.42
0,1,195.62
0,1,195.82
0,1,196.01
0,1,196.21
0,1,196.41
0,1,196.61
0,1,196.81
0,1,197.01
0,1,197.21
0,1,197.41
0,1,197.61
0,1,197.81
0,1,198.01
0,1,198.2
0,1,198.4
0,1,198.6
0,1,198.8
0,1,199
