"PuMA_Matrix","vtkValidPointMask","arc_length"
0,1,0
0,1,0.199
0,1,0.398
0,1,0.597
0,1,0.796
0,1,0.995
0,1,1.194
0,1,1.393
0,1,1.592
0,1,1.791
0,1,1.99
0,1,2.189
0,1,2.388
0,1,2.587
0,1,2.786
0,1,2.985
0,1,3.184
0,1,3.383
0,1,3.582
0,1,3.781
0,1,3.98
0,1,4.179
0,1,4.378
0,1,4.577
0,1,4.776
0,1,4.975
0,1,5.174
0,1,5.373
0,1,5.572
0,1,5.771
0,1,5.97
0,1,6.169
0,1,6.368
0,1,6.567
0,1,6.766
0,1,6.965
0,1,7.164
0,1,7.363
0,1,7.562
0,1,7.761
0,1,7.96
0,1,8.159
0,1,8.358
0,1,8.557
0,1,8.756
0,1,8.955
0,1,9.154
0,1,9.353
0,1,9.552
0,1,9.751
0,1,9.95
0,1,10.149
0,1,10.348
0,1,10.547
0,1,10.746
0,1,10.945
0,1,11.144
0,1,11.343
0,1,11.542
0,1,11.741
0,1,11.94
0,1,12.139
0,1,12.338
0,1,12.537
0,1,12.736
0,1,12.935
0,1,13.134
0,1,13.333
0,1,13.532
0,1,13.731
0,1,13.93
0,1,14.129
0,1,14.328
0,1,14.527
0,1,14.726
0,1,14.925
0,1,15.124
0,1,15.323
0,1,15.522
0,1,15.721
0,1,15.92
0,1,16.119
0,1,16.318
0,1,16.517
0,1,16.716
0,1,16.915
0,1,17.114
0,1,17.313
0,1,17.512
0,1,17.711
0,1,17.91
0,1,18.109
0,1,18.308
0,1,18.507
0,1,18.706
0,1,18.905
0,1,19.104
0,1,19.303
0,1,19.502
0,1,19.701
0,1,19.9
273.01,1,20.099
273.01,1,20.298
273.01,1,20.497
273.01,1,20.696
273.01,1,20.895
285.19,1,21.094
285.19,1,21.293
285.19,1,21.492
285.19,1,21.691
285.19,1,21.89
297.18,1,22.089
297.18,1,22.288
297.18,1,22.487
297.18,1,22.686
297.18,1,22.885
308.88,1,23.084
308.88,1,23.283
308.88,1,23.482
308.88,1,23.681
308.88,1,23.88
320.27,1,24.079
320.27,1,24.278
320.27,1,24.477
320.27,1,24.676
320.27,1,24.875
331.31,1,25.074
331.31,1,25.273
331.31,1,25.472
331.31,1,25.671
331.31,1,25.87
342,1,26.069
342,1,26.268
342,1,26.467
342,1,26.666
342,1,26.865
352.31,1,27.064
352.31,1,27.263
352.31,1,27.462
352.31,1,27.661
352.31,1,27.86
362.24,1,28.059
362.24,1,28.258
362.24,1,28.457
362.24,1,28.656
362.24,1,28.855
371.77,1,29.054
371.77,1,29.253
371.77,1,29.452
371.77,1,29.651
371.77,1,29.85
380.9,1,30.049
380.9,1,30.248
380.9,1,30.447
380.9,1,30.646
380.9,1,30.845
389.61,1,31.044
389.61,1,31.243
389.61,1,31.442
389.61,1,31.641
389.61,1,31.84
397.9,1,32.039
397.9,1,32.238
397.9,1,32.437
397.9,1,32.636
397.9,1,32.835
405.78,1,33.034
405.78,1,33.233
405.78,1,33.432
405.78,1,33.631
405.78,1,33.83
413.24,1,34.029
413.24,1,34.228
413.24,1,34.427
413.24,1,34.626
413.24,1,34.825
420.29,1,35.024
420.29,1,35.223
420.29,1,35.422
420.29,1,35.621
420.29,1,35.82
426.92,1,36.019
426.92,1,36.218
426.92,1,36.417
426.92,1,36.616
426.92,1,36.815
433.16,1,37.014
433.16,1,37.213
433.16,1,37.412
433.16,1,37.611
433.16,1,37.81
439,1,38.009
439,1,38.208
439,1,38.407
439,1,38.606
439,1,38.805
444.46,1,39.004
444.46,1,39.203
444.46,1,39.402
444.46,1,39.601
444.46,1,39.8
444.46,1,39.999
449.54,1,40.198
449.54,1,40.397
449.54,1,40.596
449.54,1,40.795
449.54,1,40.994
454.26,1,41.193
454.26,1,41.392
454.26,1,41.591
454.26,1,41.79
454.26,1,41.989
458.64,1,42.188
458.64,1,42.387
458.64,1,42.586
458.64,1,42.785
458.64,1,42.984
462.68,1,43.183
462.68,1,43.382
462.68,1,43.581
462.68,1,43.78
462.68,1,43.979
466.4,1,44.178
466.4,1,44.377
466.4,1,44.576
466.4,1,44.775
466.4,1,44.974
469.83,1,45.173
469.83,1,45.372
469.83,1,45.571
469.83,1,45.77
469.83,1,45.969
472.97,1,46.168
472.97,1,46.367
472.97,1,46.566
472.97,1,46.765
472.97,1,46.964
475.83,1,47.163
475.83,1,47.362
475.83,1,47.561
475.83,1,47.76
475.83,1,47.959
478.45,1,48.158
478.45,1,48.357
478.45,1,48.556
478.45,1,48.755
478.45,1,48.954
480.82,1,49.153
480.82,1,49.352
480.82,1,49.551
480.82,1,49.75
480.82,1,49.949
482.97,1,50.148
482.97,1,50.347
482.97,1,50.546
482.97,1,50.745
482.97,1,50.944
484.92,1,51.143
484.92,1,51.342
484.92,1,51.541
484.92,1,51.74
484.92,1,51.939
486.67,1,52.138
486.67,1,52.337
486.67,1,52.536
486.67,1,52.735
486.67,1,52.934
488.25,1,53.133
488.25,1,53.332
488.25,1,53.531
488.25,1,53.73
488.25,1,53.929
489.66,1,54.128
489.66,1,54.327
489.66,1,54.526
489.66,1,54.725
489.66,1,54.924
490.93,1,55.123
490.93,1,55.322
490.93,1,55.521
490.93,1,55.72
490.93,1,55.919
492.06,1,56.118
492.06,1,56.317
492.06,1,56.516
492.06,1,56.715
492.06,1,56.914
493.06,1,57.113
493.06,1,57.312
493.06,1,57.511
493.06,1,57.71
493.06,1,57.909
493.95,1,58.108
493.95,1,58.307
493.95,1,58.506
493.95,1,58.705
493.95,1,58.904
494.74,1,59.103
494.74,1,59.302
494.74,1,59.501
494.74,1,59.7
494.74,1,59.899
495.43,1,60.098
495.43,1,60.297
495.43,1,60.496
495.43,1,60.695
495.43,1,60.894
496.05,1,61.093
496.05,1,61.292
496.05,1,61.491
496.05,1,61.69
496.05,1,61.889
496.58,1,62.088
496.58,1,62.287
496.58,1,62.486
496.58,1,62.685
496.58,1,62.884
497.05,1,63.083
497.05,1,63.282
497.05,1,63.481
497.05,1,63.68
497.05,1,63.879
497.47,1,64.078
497.47,1,64.277
497.47,1,64.476
497.47,1,64.675
497.47,1,64.874
497.82,1,65.073
497.82,1,65.272
497.82,1,65.471
497.82,1,65.67
497.82,1,65.869
498.13,1,66.068
498.13,1,66.267
498.13,1,66.466
498.13,1,66.665
498.13,1,66.864
498.4,1,67.063
498.4,1,67.262
498.4,1,67.461
498.4,1,67.66
498.4,1,67.859
498.64,1,68.058
498.64,1,68.257
498.64,1,68.456
498.64,1,68.655
498.64,1,68.854
498.84,1,69.053
498.84,1,69.252
498.84,1,69.451
498.84,1,69.65
498.84,1,69.849
499.01,1,70.048
499.01,1,70.247
499.01,1,70.446
499.01,1,70.645
499.01,1,70.844
499.16,1,71.043
499.16,1,71.242
499.16,1,71.441
499.16,1,71.64
499.16,1,71.839
499.29,1,72.038
499.29,1,72.237
499.29,1,72.436
499.29,1,72.635
499.29,1,72.834
499.4,1,73.033
499.4,1,73.232
499.4,1,73.431
499.4,1,73.63
499.4,1,73.829
499.49,1,74.028
499.49,1,74.227
499.49,1,74.426
499.49,1,74.625
499.49,1,74.824
499.57,1,75.023
499.57,1,75.222
499.57,1,75.421
499.57,1,75.62
499.57,1,75.819
499.64,1,76.018
499.64,1,76.217
499.64,1,76.416
499.64,1,76.615
499.64,1,76.814
499.7,1,77.013
499.7,1,77.212
499.7,1,77.411
499.7,1,77.61
499.7,1,77.809
499.74,1,78.008
499.74,1,78.207
499.74,1,78.406
499.74,1,78.605
499.74,1,78.804
499.78,1,79.003
499.78,1,79.202
499.78,1,79.401
499.78,1,79.6
499.78,1,79.799
499.78,1,79.998
499.82,1,80.197
499.82,1,80.396
499.82,1,80.595
499.82,1,80.794
499.82,1,80.993
499.85,1,81.192
499.85,1,81.391
499.85,1,81.59
499.85,1,81.789
499.85,1,81.988
499.87,1,82.187
499.87,1,82.386
499.87,1,82.585
499.87,1,82.784
499.87,1,82.983
499.89,1,83.182
499.89,1,83.381
499.89,1,83.58
499.89,1,83.779
499.89,1,83.978
499.91,1,84.177
499.91,1,84.376
499.91,1,84.575
499.91,1,84.774
499.91,1,84.973
499.92,1,85.172
499.92,1,85.371
499.92,1,85.57
499.92,1,85.769
499.92,1,85.968
499.94,1,86.167
499.94,1,86.366
499.94,1,86.565
499.94,1,86.764
499.94,1,86.963
499.95,1,87.162
499.95,1,87.361
499.95,1,87.56
499.95,1,87.759
499.95,1,87.958
499.95,1,88.157
499.95,1,88.356
499.95,1,88.555
499.95,1,88.754
499.95,1,88.953
499.96,1,89.152
499.96,1,89.351
499.96,1,89.55
499.96,1,89.749
499.96,1,89.948
499.97,1,90.147
499.97,1,90.346
499.97,1,90.545
499.97,1,90.744
499.97,1,90.943
499.97,1,91.142
499.97,1,91.341
499.97,1,91.54
499.97,1,91.739
499.97,1,91.938
499.97,1,92.137
499.97,1,92.336
499.97,1,92.535
499.97,1,92.734
499.97,1,92.933
499.98,1,93.132
499.98,1,93.331
499.98,1,93.53
499.98,1,93.729
499.98,1,93.928
499.98,1,94.127
499.98,1,94.326
499.98,1,94.525
499.98,1,94.724
499.98,1,94.923
499.98,1,95.122
499.98,1,95.321
499.98,1,95.52
499.98,1,95.719
499.98,1,95.918
499.98,1,96.117
499.98,1,96.316
499.98,1,96.515
499.98,1,96.714
499.98,1,96.913
499.98,1,97.112
499.98,1,97.311
499.98,1,97.51
499.98,1,97.709
499.98,1,97.908
499.99,1,98.107
499.99,1,98.306
499.99,1,98.505
499.99,1,98.704
499.99,1,98.903
499.99,1,99.102
499.99,1,99.301
499.99,1,99.5
499.99,1,99.699
499.99,1,99.898
499.99,1,100.1
499.99,1,100.3
499.99,1,100.5
499.99,1,100.69
499.99,1,100.89
499.99,1,101.09
499.99,1,101.29
499.99,1,101.49
499.99,1,101.69
499.99,1,101.89
499.98,1,102.09
499.98,1,102.29
499.98,1,102.49
499.98,1,102.68
499.98,1,102.88
499.98,1,103.08
499.98,1,103.28
499.98,1,103.48
499.98,1,103.68
499.98,1,103.88
499.98,1,104.08
499.98,1,104.28
499.98,1,104.47
499.98,1,104.67
499.98,1,104.87
499.98,1,105.07
499.98,1,105.27
499.98,1,105.47
499.98,1,105.67
499.98,1,105.87
499.98,1,106.07
499.98,1,106.27
499.98,1,106.46
499.98,1,106.66
499.98,1,106.86
499.97,1,107.06
499.97,1,107.26
499.97,1,107.46
499.97,1,107.66
499.97,1,107.86
499.97,1,108.06
499.97,1,108.26
499.97,1,108.46
499.97,1,108.65
499.97,1,108.85
499.97,1,109.05
499.97,1,109.25
499.97,1,109.45
499.97,1,109.65
499.97,1,109.85
499.96,1,110.05
499.96,1,110.25
499.96,1,110.44
499.96,1,110.64
499.96,1,110.84
499.95,1,111.04
499.95,1,111.24
499.95,1,111.44
499.95,1,111.64
499.95,1,111.84
499.95,1,112.04
499.95,1,112.24
499.95,1,112.43
499.95,1,112.63
499.95,1,112.83
499.94,1,113.03
499.94,1,113.23
499.94,1,113.43
499.94,1,113.63
499.94,1,113.83
499.92,1,114.03
499.92,1,114.23
499.92,1,114.43
499.92,1,114.62
499.92,1,114.82
499.91,1,115.02
499.91,1,115.22
499.91,1,115.42
499.91,1,115.62
499.91,1,115.82
499.89,1,116.02
499.89,1,116.22
499.89,1,116.42
499.89,1,116.61
499.89,1,116.81
499.87,1,117.01
499.87,1,117.21
499.87,1,117.41
499.87,1,117.61
499.87,1,117.81
499.85,1,118.01
499.85,1,118.21
499.85,1,118.4
499.85,1,118.6
499.85,1,118.8
499.82,1,119
499.82,1,119.2
499.82,1,119.4
499.82,1,119.6
499.82,1,119.8
499.82,1,120
499.78,1,120.2
499.78,1,120.39
499.78,1,120.59
499.78,1,120.79
499.78,1,120.99
499.74,1,121.19
499.74,1,121.39
499.74,1,121.59
499.74,1,121.79
499.74,1,121.99
499.7,1,122.19
499.7,1,122.39
499.7,1,122.58
499.7,1,122.78
499.7,1,122.98
499.64,1,123.18
499.64,1,123.38
499.64,1,123.58
499.64,1,123.78
499.64,1,123.98
499.57,1,124.18
499.57,1,124.38
499.57,1,124.57
499.57,1,124.77
499.57,1,124.97
499.49,1,125.17
499.49,1,125.37
499.49,1,125.57
499.49,1,125.77
499.49,1,125.97
499.4,1,126.17
499.4,1,126.36
499.4,1,126.56
499.4,1,126.76
499.4,1,126.96
499.29,1,127.16
499.29,1,127.36
499.29,1,127.56
499.29,1,127.76
499.29,1,127.96
499.16,1,128.16
499.16,1,128.35
499.16,1,128.55
499.16,1,128.75
499.16,1,128.95
499.01,1,129.15
499.01,1,129.35
499.01,1,129.55
499.01,1,129.75
499.01,1,129.95
498.84,1,130.15
498.84,1,130.35
498.84,1,130.54
498.84,1,130.74
498.84,1,130.94
498.64,1,131.14
498.64,1,131.34
498.64,1,131.54
498.64,1,131.74
498.64,1,131.94
498.4,1,132.14
498.4,1,132.34
498.4,1,132.53
498.4,1,132.73
498.4,1,132.93
498.13,1,133.13
498.13,1,133.33
498.13,1,133.53
498.13,1,133.73
498.13,1,133.93
497.82,1,134.13
497.82,1,134.32
497.82,1,134.52
497.82,1,134.72
497.82,1,134.92
497.47,1,135.12
497.47,1,135.32
497.47,1,135.52
497.47,1,135.72
497.47,1,135.92
497.05,1,136.12
497.05,1,136.32
497.05,1,136.51
497.05,1,136.71
497.05,1,136.91
496.58,1,137.11
496.58,1,137.31
496.58,1,137.51
496.58,1,137.71
496.58,1,137.91
496.05,1,138.11
496.05,1,138.3
496.05,1,138.5
496.05,1,138.7
496.05,1,138.9
495.43,1,139.1
495.43,1,139.3
495.43,1,139.5
495.43,1,139.7
495.43,1,139.9
494.74,1,140.1
494.74,1,140.29
494.74,1,140.49
494.74,1,140.69
494.74,1,140.89
493.95,1,141.09
493.95,1,141.29
493.95,1,141.49
493.95,1,141.69
493.95,1,141.89
493.06,1,142.09
493.06,1,142.29
493.06,1,142.48
493.06,1,142.68
493.06,1,142.88
492.06,1,143.08
492.06,1,143.28
492.06,1,143.48
492.06,1,143.68
492.06,1,143.88
490.93,1,144.08
490.93,1,144.27
490.93,1,144.47
490.93,1,144.67
490.93,1,144.87
489.66,1,145.07
489.66,1,145.27
489.66,1,145.47
489.66,1,145.67
489.66,1,145.87
488.25,1,146.07
488.25,1,146.26
488.25,1,146.46
488.25,1,146.66
488.25,1,146.86
486.67,1,147.06
486.67,1,147.26
486.67,1,147.46
486.67,1,147.66
486.67,1,147.86
484.92,1,148.06
484.92,1,148.26
484.92,1,148.45
484.92,1,148.65
484.92,1,148.85
482.97,1,149.05
482.97,1,149.25
482.97,1,149.45
482.97,1,149.65
482.97,1,149.85
480.82,1,150.05
480.82,1,150.24
480.82,1,150.44
480.82,1,150.64
480.82,1,150.84
478.45,1,151.04
478.45,1,151.24
478.45,1,151.44
478.45,1,151.64
478.45,1,151.84
475.83,1,152.04
475.83,1,152.24
475.83,1,152.43
475.83,1,152.63
475.83,1,152.83
472.97,1,153.03
472.97,1,153.23
472.97,1,153.43
472.97,1,153.63
472.97,1,153.83
469.83,1,154.03
469.83,1,154.23
469.83,1,154.42
469.83,1,154.62
469.83,1,154.82
466.4,1,155.02
466.4,1,155.22
466.4,1,155.42
466.4,1,155.62
466.4,1,155.82
462.68,1,156.02
462.68,1,156.21
462.68,1,156.41
462.68,1,156.61
462.68,1,156.81
458.64,1,157.01
458.64,1,157.21
458.64,1,157.41
458.64,1,157.61
458.64,1,157.81
454.26,1,158.01
454.26,1,158.21
454.26,1,158.4
454.26,1,158.6
454.26,1,158.8
449.54,1,159
449.54,1,159.2
449.54,1,159.4
449.54,1,159.6
449.54,1,159.8
449.54,1,160
444.46,1,160.2
444.46,1,160.39
444.46,1,160.59
444.46,1,160.79
444.46,1,160.99
439,1,161.19
439,1,161.39
439,1,161.59
439,1,161.79
439,1,161.99
433.16,1,162.18
433.16,1,162.38
433.16,1,162.58
433.16,1,162.78
433.16,1,162.98
426.92,1,163.18
426.92,1,163.38
426.92,1,163.58
426.92,1,163.78
426.92,1,163.98
420.29,1,164.18
420.29,1,164.37
420.29,1,164.57
420.29,1,164.77
420.29,1,164.97
413.24,1,165.17
413.24,1,165.37
413.24,1,165.57
413.24,1,165.77
413.24,1,165.97
405.78,1,166.16
405.78,1,166.36
405.78,1,166.56
405.78,1,166.76
405.78,1,166.96
397.9,1,167.16
397.9,1,167.36
397.9,1,167.56
397.9,1,167.76
397.9,1,167.96
389.61,1,168.15
389.61,1,168.35
389.61,1,168.55
389.61,1,168.75
389.61,1,168.95
380.9,1,169.15
380.9,1,169.35
380.9,1,169.55
380.9,1,169.75
380.9,1,169.95
371.77,1,170.15
371.77,1,170.34
371.77,1,170.54
371.77,1,170.74
371.77,1,170.94
362.24,1,171.14
362.24,1,171.34
362.24,1,171.54
362.24,1,171.74
362.24,1,171.94
352.31,1,172.13
352.31,1,172.33
352.31,1,172.53
352.31,1,172.73
352.31,1,172.93
342,1,173.13
342,1,173.33
342,1,173.53
342,1,173.73
342,1,173.93
331.31,1,174.12
331.31,1,174.32
331.31,1,174.52
331.31,1,174.72
331.31,1,174.92
320.27,1,175.12
320.27,1,175.32
320.27,1,175.52
320.27,1,175.72
320.27,1,175.92
308.88,1,176.12
308.88,1,176.31
308.88,1,176.51
308.88,1,176.71
308.88,1,176.91
297.18,1,177.11
297.18,1,177.31
297.18,1,177.51
297.18,1,177.71
297.18,1,177.91
285.19,1,178.1
285.19,1,178.3
285.19,1,178.5
285.19,1,178.7
285.19,1,178.9
273.01,1,179.1
273.01,1,179.3
273.01,1,179.5
273.01,1,179.7
273.01,1,179.9
0,1,180.1
0,1,180.29
0,1,180.49
0,1,180.69
0,1,180.89
0,1,181.09
0,1,181.29
0,1,181.49
0,1,181.69
0,1,181.89
0,1,182.09
0,1,182.28
0,1,182.48
0,1,182.68
0,1,182.88
0,1,183.08
0,1,183.28
0,1,183.48
0,1,183.68
0,1,183.88
0,1,184.07
0,1,184.27
0,1,184.47
0,1,184.67
0,1,184.87
0,1,185.07
0,1,185.27
0,1,185.47
0,1,185.67
0,1,185.87
0,1,186.07
0,1,186.26
0,1,186.46
0,1,186.66
0,1,186.86
0,1,187.06
0,1,187.26
0,1,187.46
0,1,187.66
0,1,187.86
0,1,188.05
0,1,188.25
0,1,188.45
0,1,188.65
0,1,188.85
0,1,189.05
0,1,189.25
0,1,189.45
0,1,189.65
0,1,189.85
0,1,190.04
0,1,190.24
0,1,190.44
0,1,190.64
0,1,190.84
0,1,191.04
0,1,191.24
0,1,191.44
0,1,191.64
0,1,191.84
0,1,192.04
0,1,192.23
0,1,192.43
0,1,192.63
0,1,192.83
0,1,193.03
0,1,193.23
0,1,193.43
0,1,193.63
0,1,193.83
0,1,194.02
0,1,194.22
0,1,194.42
0,1,194.62
0,1,194.82
0,1,195.02
0,1,195.22
0,1,195.42
0,1,195.62
0,1,195.82
0,1,196.01
0,1,196.21
0,1,196.41
0,1,196.61
0,1,196.81
0,1,197.01
0,1,197.21
0,1,197.41
0,1,197.61
0,1,197.81
0,1,198.01
0,1,198.2
0,1,198.4
0,1,198.6
0,1,198.8
0,1,199
