"PuMA_Matrix","vtkValidPointMask","arc_length"
0,1,0
0,1,0.199
0,1,0.398
0,1,0.597
0,1,0.796
0,1,0.995
0,1,1.194
0,1,1.393
0,1,1.592
0,1,1.791
0,1,1.99
0,1,2.189
0,1,2.388
0,1,2.587
0,1,2.786
0,1,2.985
0,1,3.184
0,1,3.383
0,1,3.582
0,1,3.781
0,1,3.98
0,1,4.179
0,1,4.378
0,1,4.577
0,1,4.776
0,1,4.975
0,1,5.174
0,1,5.373
0,1,5.572
0,1,5.771
0,1,5.97
0,1,6.169
0,1,6.368
0,1,6.567
0,1,6.766
0,1,6.965
0,1,7.164
0,1,7.363
0,1,7.562
0,1,7.761
0,1,7.96
0,1,8.159
0,1,8.358
0,1,8.557
0,1,8.756
0,1,8.955
0,1,9.154
0,1,9.353
0,1,9.552
0,1,9.751
0,1,9.95
0,1,10.149
0,1,10.348
0,1,10.547
0,1,10.746
0,1,10.945
0,1,11.144
0,1,11.343
0,1,11.542
0,1,11.741
0,1,11.94
0,1,12.139
0,1,12.338
0,1,12.537
0,1,12.736
0,1,12.935
0,1,13.134
0,1,13.333
0,1,13.532
0,1,13.731
0,1,13.93
0,1,14.129
0,1,14.328
0,1,14.527
0,1,14.726
0,1,14.925
0,1,15.124
0,1,15.323
0,1,15.522
0,1,15.721
0,1,15.92
0,1,16.119
0,1,16.318
0,1,16.517
0,1,16.716
0,1,16.915
0,1,17.114
0,1,17.313
0,1,17.512
0,1,17.711
0,1,17.91
0,1,18.109
0,1,18.308
0,1,18.507
0,1,18.706
0,1,18.905
0,1,19.104
0,1,19.303
0,1,19.502
0,1,19.701
0,1,19.9
259.97,1,20.099
259.97,1,20.298
259.97,1,20.497
259.97,1,20.696
259.97,1,20.895
271.55,1,21.094
271.55,1,21.293
271.55,1,21.492
271.55,1,21.691
271.55,1,21.89
283.01,1,22.089
283.01,1,22.288
283.01,1,22.487
283.01,1,22.686
283.01,1,22.885
294.23,1,23.084
294.23,1,23.283
294.23,1,23.482
294.23,1,23.681
294.23,1,23.88
305.2,1,24.079
305.2,1,24.278
305.2,1,24.477
305.2,1,24.676
305.2,1,24.875
315.9,1,25.074
315.9,1,25.273
315.9,1,25.472
315.9,1,25.671
315.9,1,25.87
326.31,1,26.069
326.31,1,26.268
326.31,1,26.467
326.31,1,26.666
326.31,1,26.865
336.4,1,27.064
336.4,1,27.263
336.4,1,27.462
336.4,1,27.661
336.4,1,27.86
346.18,1,28.059
346.18,1,28.258
346.18,1,28.457
346.18,1,28.656
346.18,1,28.855
355.63,1,29.054
355.63,1,29.253
355.63,1,29.452
355.63,1,29.651
355.63,1,29.85
364.74,1,30.049
364.74,1,30.248
364.74,1,30.447
364.74,1,30.646
364.74,1,30.845
373.5,1,31.044
373.5,1,31.243
373.5,1,31.442
373.5,1,31.641
373.5,1,31.84
381.91,1,32.039
381.91,1,32.238
381.91,1,32.437
381.91,1,32.636
381.91,1,32.835
389.96,1,33.034
389.96,1,33.233
389.96,1,33.432
389.96,1,33.631
389.96,1,33.83
397.65,1,34.029
397.65,1,34.228
397.65,1,34.427
397.65,1,34.626
397.65,1,34.825
404.97,1,35.024
404.97,1,35.223
404.97,1,35.422
404.97,1,35.621
404.97,1,35.82
411.93,1,36.019
411.93,1,36.218
411.93,1,36.417
411.93,1,36.616
411.93,1,36.815
418.54,1,37.014
418.54,1,37.213
418.54,1,37.412
418.54,1,37.611
418.54,1,37.81
424.79,1,38.009
424.79,1,38.208
424.79,1,38.407
424.79,1,38.606
424.79,1,38.805
430.69,1,39.004
430.69,1,39.203
430.69,1,39.402
430.69,1,39.601
430.69,1,39.8
430.69,1,39.999
436.25,1,40.198
436.25,1,40.397
436.25,1,40.596
436.25,1,40.795
436.25,1,40.994
441.48,1,41.193
441.48,1,41.392
441.48,1,41.591
441.48,1,41.79
441.48,1,41.989
446.38,1,42.188
446.38,1,42.387
446.38,1,42.586
446.38,1,42.785
446.38,1,42.984
450.96,1,43.183
450.96,1,43.382
450.96,1,43.581
450.96,1,43.78
450.96,1,43.979
455.23,1,44.178
455.23,1,44.377
455.23,1,44.576
455.23,1,44.775
455.23,1,44.974
459.21,1,45.173
459.21,1,45.372
459.21,1,45.571
459.21,1,45.77
459.21,1,45.969
462.91,1,46.168
462.91,1,46.367
462.91,1,46.566
462.91,1,46.765
462.91,1,46.964
466.34,1,47.163
466.34,1,47.362
466.34,1,47.561
466.34,1,47.76
466.34,1,47.959
469.51,1,48.158
469.51,1,48.357
469.51,1,48.556
469.51,1,48.755
469.51,1,48.954
472.43,1,49.153
472.43,1,49.352
472.43,1,49.551
472.43,1,49.75
472.43,1,49.949
475.12,1,50.148
475.12,1,50.347
475.12,1,50.546
475.12,1,50.745
475.12,1,50.944
477.59,1,51.143
477.59,1,51.342
477.59,1,51.541
477.59,1,51.74
477.59,1,51.939
479.85,1,52.138
479.85,1,52.337
479.85,1,52.536
479.85,1,52.735
479.85,1,52.934
481.92,1,53.133
481.92,1,53.332
481.92,1,53.531
481.92,1,53.73
481.92,1,53.929
483.81,1,54.128
483.81,1,54.327
483.81,1,54.526
483.81,1,54.725
483.81,1,54.924
485.53,1,55.123
485.53,1,55.322
485.53,1,55.521
485.53,1,55.72
485.53,1,55.919
487.08,1,56.118
487.08,1,56.317
487.08,1,56.516
487.08,1,56.715
487.08,1,56.914
488.5,1,57.113
488.5,1,57.312
488.5,1,57.511
488.5,1,57.71
488.5,1,57.909
489.77,1,58.108
489.77,1,58.307
489.77,1,58.506
489.77,1,58.705
489.77,1,58.904
490.92,1,59.103
490.92,1,59.302
490.92,1,59.501
490.92,1,59.7
490.92,1,59.899
491.96,1,60.098
491.96,1,60.297
491.96,1,60.496
491.96,1,60.695
491.96,1,60.894
492.89,1,61.093
492.89,1,61.292
492.89,1,61.491
492.89,1,61.69
492.89,1,61.889
493.72,1,62.088
493.72,1,62.287
493.72,1,62.486
493.72,1,62.685
493.72,1,62.884
494.47,1,63.083
494.47,1,63.282
494.47,1,63.481
494.47,1,63.68
494.47,1,63.879
495.13,1,64.078
495.13,1,64.277
495.13,1,64.476
495.13,1,64.675
495.13,1,64.874
495.72,1,65.073
495.72,1,65.272
495.72,1,65.471
495.72,1,65.67
495.72,1,65.869
496.25,1,66.068
496.25,1,66.267
496.25,1,66.466
496.25,1,66.665
496.25,1,66.864
496.72,1,67.063
496.72,1,67.262
496.72,1,67.461
496.72,1,67.66
496.72,1,67.859
497.13,1,68.058
497.13,1,68.257
497.13,1,68.456
497.13,1,68.655
497.13,1,68.854
497.49,1,69.053
497.49,1,69.252
497.49,1,69.451
497.49,1,69.65
497.49,1,69.849
497.81,1,70.048
497.81,1,70.247
497.81,1,70.446
497.81,1,70.645
497.81,1,70.844
498.1,1,71.043
498.1,1,71.242
498.1,1,71.441
498.1,1,71.64
498.1,1,71.839
498.34,1,72.038
498.34,1,72.237
498.34,1,72.436
498.34,1,72.635
498.34,1,72.834
498.56,1,73.033
498.56,1,73.232
498.56,1,73.431
498.56,1,73.63
498.56,1,73.829
498.75,1,74.028
498.75,1,74.227
498.75,1,74.426
498.75,1,74.625
498.75,1,74.824
498.92,1,75.023
498.92,1,75.222
498.92,1,75.421
498.92,1,75.62
498.92,1,75.819
499.06,1,76.018
499.06,1,76.217
499.06,1,76.416
499.06,1,76.615
499.06,1,76.814
499.19,1,77.013
499.19,1,77.212
499.19,1,77.411
499.19,1,77.61
499.19,1,77.809
499.3,1,78.008
499.3,1,78.207
499.3,1,78.406
499.3,1,78.605
499.3,1,78.804
499.39,1,79.003
499.39,1,79.202
499.39,1,79.401
499.39,1,79.6
499.39,1,79.799
499.39,1,79.998
499.47,1,80.197
499.47,1,80.396
499.47,1,80.595
499.47,1,80.794
499.47,1,80.993
499.55,1,81.192
499.55,1,81.391
499.55,1,81.59
499.55,1,81.789
499.55,1,81.988
499.61,1,82.187
499.61,1,82.386
499.61,1,82.585
499.61,1,82.784
499.61,1,82.983
499.66,1,83.182
499.66,1,83.381
499.66,1,83.58
499.66,1,83.779
499.66,1,83.978
499.7,1,84.177
499.7,1,84.376
499.7,1,84.575
499.7,1,84.774
499.7,1,84.973
499.74,1,85.172
499.74,1,85.371
499.74,1,85.57
499.74,1,85.769
499.74,1,85.968
499.78,1,86.167
499.78,1,86.366
499.78,1,86.565
499.78,1,86.764
499.78,1,86.963
499.81,1,87.162
499.81,1,87.361
499.81,1,87.56
499.81,1,87.759
499.81,1,87.958
499.83,1,88.157
499.83,1,88.356
499.83,1,88.555
499.83,1,88.754
499.83,1,88.953
499.85,1,89.152
499.85,1,89.351
499.85,1,89.55
499.85,1,89.749
499.85,1,89.948
499.87,1,90.147
499.87,1,90.346
499.87,1,90.545
499.87,1,90.744
499.87,1,90.943
499.88,1,91.142
499.88,1,91.341
499.88,1,91.54
499.88,1,91.739
499.88,1,91.938
499.89,1,92.137
499.89,1,92.336
499.89,1,92.535
499.89,1,92.734
499.89,1,92.933
499.9,1,93.132
499.9,1,93.331
499.9,1,93.53
499.9,1,93.729
499.9,1,93.928
499.91,1,94.127
499.91,1,94.326
499.91,1,94.525
499.91,1,94.724
499.91,1,94.923
499.92,1,95.122
499.92,1,95.321
499.92,1,95.52
499.92,1,95.719
499.92,1,95.918
499.92,1,96.117
499.92,1,96.316
499.92,1,96.515
499.92,1,96.714
499.92,1,96.913
499.93,1,97.112
499.93,1,97.311
499.93,1,97.51
499.93,1,97.709
499.93,1,97.908
499.93,1,98.107
499.93,1,98.306
499.93,1,98.505
499.93,1,98.704
499.93,1,98.903
499.93,1,99.102
499.93,1,99.301
499.93,1,99.5
499.93,1,99.699
499.93,1,99.898
499.93,1,100.1
499.93,1,100.3
499.93,1,100.5
499.93,1,100.69
499.93,1,100.89
499.93,1,101.09
499.93,1,101.29
499.93,1,101.49
499.93,1,101.69
499.93,1,101.89
499.93,1,102.09
499.93,1,102.29
499.93,1,102.49
499.93,1,102.68
499.93,1,102.88
499.92,1,103.08
499.92,1,103.28
499.92,1,103.48
499.92,1,103.68
499.92,1,103.88
499.92,1,104.08
499.92,1,104.28
499.92,1,104.47
499.92,1,104.67
499.92,1,104.87
499.91,1,105.07
499.91,1,105.27
499.91,1,105.47
499.91,1,105.67
499.91,1,105.87
499.9,1,106.07
499.9,1,106.27
499.9,1,106.46
499.9,1,106.66
499.9,1,106.86
499.89,1,107.06
499.89,1,107.26
499.89,1,107.46
499.89,1,107.66
499.89,1,107.86
499.88,1,108.06
499.88,1,108.26
499.88,1,108.46
499.88,1,108.65
499.88,1,108.85
499.87,1,109.05
499.87,1,109.25
499.87,1,109.45
499.87,1,109.65
499.87,1,109.85
499.85,1,110.05
499.85,1,110.25
499.85,1,110.44
499.85,1,110.64
499.85,1,110.84
499.83,1,111.04
499.83,1,111.24
499.83,1,111.44
499.83,1,111.64
499.83,1,111.84
499.81,1,112.04
499.81,1,112.24
499.81,1,112.43
499.81,1,112.63
499.81,1,112.83
499.78,1,113.03
499.78,1,113.23
499.78,1,113.43
499.78,1,113.63
499.78,1,113.83
499.74,1,114.03
499.74,1,114.23
499.74,1,114.43
499.74,1,114.62
499.74,1,114.82
499.7,1,115.02
499.7,1,115.22
499.7,1,115.42
499.7,1,115.62
499.7,1,115.82
499.66,1,116.02
499.66,1,116.22
499.66,1,116.42
499.66,1,116.61
499.66,1,116.81
499.61,1,117.01
499.61,1,117.21
499.61,1,117.41
499.61,1,117.61
499.61,1,117.81
499.55,1,118.01
499.55,1,118.21
499.55,1,118.4
499.55,1,118.6
499.55,1,118.8
499.47,1,119
499.47,1,119.2
499.47,1,119.4
499.47,1,119.6
499.47,1,119.8
499.47,1,120
499.39,1,120.2
499.39,1,120.39
499.39,1,120.59
499.39,1,120.79
499.39,1,120.99
499.3,1,121.19
499.3,1,121.39
499.3,1,121.59
499.3,1,121.79
499.3,1,121.99
499.19,1,122.19
499.19,1,122.39
499.19,1,122.58
499.19,1,122.78
499.19,1,122.98
499.06,1,123.18
499.06,1,123.38
499.06,1,123.58
499.06,1,123.78
499.06,1,123.98
498.92,1,124.18
498.92,1,124.38
498.92,1,124.57
498.92,1,124.77
498.92,1,124.97
498.75,1,125.17
498.75,1,125.37
498.75,1,125.57
498.75,1,125.77
498.75,1,125.97
498.56,1,126.17
498.56,1,126.36
498.56,1,126.56
498.56,1,126.76
498.56,1,126.96
498.34,1,127.16
498.34,1,127.36
498.34,1,127.56
498.34,1,127.76
498.34,1,127.96
498.1,1,128.16
498.1,1,128.35
498.1,1,128.55
498.1,1,128.75
498.1,1,128.95
497.81,1,129.15
497.81,1,129.35
497.81,1,129.55
497.81,1,129.75
497.81,1,129.95
497.49,1,130.15
497.49,1,130.35
497.49,1,130.54
497.49,1,130.74
497.49,1,130.94
497.13,1,131.14
497.13,1,131.34
497.13,1,131.54
497.13,1,131.74
497.13,1,131.94
496.72,1,132.14
496.72,1,132.34
496.72,1,132.53
496.72,1,132.73
496.72,1,132.93
496.25,1,133.13
496.25,1,133.33
496.25,1,133.53
496.25,1,133.73
496.25,1,133.93
495.72,1,134.13
495.72,1,134.32
495.72,1,134.52
495.72,1,134.72
495.72,1,134.92
495.13,1,135.12
495.13,1,135.32
495.13,1,135.52
495.13,1,135.72
495.13,1,135.92
494.47,1,136.12
494.47,1,136.32
494.47,1,136.51
494.47,1,136.71
494.47,1,136.91
493.72,1,137.11
493.72,1,137.31
493.72,1,137.51
493.72,1,137.71
493.72,1,137.91
492.89,1,138.11
492.89,1,138.3
492.89,1,138.5
492.89,1,138.7
492.89,1,138.9
491.96,1,139.1
491.96,1,139.3
491.96,1,139.5
491.96,1,139.7
491.96,1,139.9
490.92,1,140.1
490.92,1,140.29
490.92,1,140.49
490.92,1,140.69
490.92,1,140.89
489.77,1,141.09
489.77,1,141.29
489.77,1,141.49
489.77,1,141.69
489.77,1,141.89
488.5,1,142.09
488.5,1,142.29
488.5,1,142.48
488.5,1,142.68
488.5,1,142.88
487.08,1,143.08
487.08,1,143.28
487.08,1,143.48
487.08,1,143.68
487.08,1,143.88
485.53,1,144.08
485.53,1,144.27
485.53,1,144.47
485.53,1,144.67
485.53,1,144.87
483.81,1,145.07
483.81,1,145.27
483.81,1,145.47
483.81,1,145.67
483.81,1,145.87
481.92,1,146.07
481.92,1,146.26
481.92,1,146.46
481.92,1,146.66
481.92,1,146.86
479.85,1,147.06
479.85,1,147.26
479.85,1,147.46
479.85,1,147.66
479.85,1,147.86
477.59,1,148.06
477.59,1,148.26
477.59,1,148.45
477.59,1,148.65
477.59,1,148.85
475.12,1,149.05
475.12,1,149.25
475.12,1,149.45
475.12,1,149.65
475.12,1,149.85
472.43,1,150.05
472.43,1,150.24
472.43,1,150.44
472.43,1,150.64
472.43,1,150.84
469.51,1,151.04
469.51,1,151.24
469.51,1,151.44
469.51,1,151.64
469.51,1,151.84
466.34,1,152.04
466.34,1,152.24
466.34,1,152.43
466.34,1,152.63
466.34,1,152.83
462.91,1,153.03
462.91,1,153.23
462.91,1,153.43
462.91,1,153.63
462.91,1,153.83
459.21,1,154.03
459.21,1,154.23
459.21,1,154.42
459.21,1,154.62
459.21,1,154.82
455.23,1,155.02
455.23,1,155.22
455.23,1,155.42
455.23,1,155.62
455.23,1,155.82
450.96,1,156.02
450.96,1,156.21
450.96,1,156.41
450.96,1,156.61
450.96,1,156.81
446.38,1,157.01
446.38,1,157.21
446.38,1,157.41
446.38,1,157.61
446.38,1,157.81
441.48,1,158.01
441.48,1,158.21
441.48,1,158.4
441.48,1,158.6
441.48,1,158.8
436.25,1,159
436.25,1,159.2
436.25,1,159.4
436.25,1,159.6
436.25,1,159.8
436.25,1,160
430.69,1,160.2
430.69,1,160.39
430.69,1,160.59
430.69,1,160.79
430.69,1,160.99
424.79,1,161.19
424.79,1,161.39
424.79,1,161.59
424.79,1,161.79
424.79,1,161.99
418.54,1,162.18
418.54,1,162.38
418.54,1,162.58
418.54,1,162.78
418.54,1,162.98
411.93,1,163.18
411.93,1,163.38
411.93,1,163.58
411.93,1,163.78
411.93,1,163.98
404.97,1,164.18
404.97,1,164.37
404.97,1,164.57
404.97,1,164.77
404.97,1,164.97
397.65,1,165.17
397.65,1,165.37
397.65,1,165.57
397.65,1,165.77
397.65,1,165.97
389.96,1,166.16
389.96,1,166.36
389.96,1,166.56
389.96,1,166.76
389.96,1,166.96
381.91,1,167.16
381.91,1,167.36
381.91,1,167.56
381.91,1,167.76
381.91,1,167.96
373.5,1,168.15
373.5,1,168.35
373.5,1,168.55
373.5,1,168.75
373.5,1,168.95
364.74,1,169.15
364.74,1,169.35
364.74,1,169.55
364.74,1,169.75
364.74,1,169.95
355.63,1,170.15
355.63,1,170.34
355.63,1,170.54
355.63,1,170.74
355.63,1,170.94
346.18,1,171.14
346.18,1,171.34
346.18,1,171.54
346.18,1,171.74
346.18,1,171.94
336.4,1,172.13
336.4,1,172.33
336.4,1,172.53
336.4,1,172.73
336.4,1,172.93
326.31,1,173.13
326.31,1,173.33
326.31,1,173.53
326.31,1,173.73
326.31,1,173.93
315.9,1,174.12
315.9,1,174.32
315.9,1,174.52
315.9,1,174.72
315.9,1,174.92
305.2,1,175.12
305.2,1,175.32
305.2,1,175.52
305.2,1,175.72
305.2,1,175.92
294.23,1,176.12
294.23,1,176.31
294.23,1,176.51
294.23,1,176.71
294.23,1,176.91
283.01,1,177.11
283.01,1,177.31
283.01,1,177.51
283.01,1,177.71
283.01,1,177.91
271.55,1,178.1
271.55,1,178.3
271.55,1,178.5
271.55,1,178.7
271.55,1,178.9
259.97,1,179.1
259.97,1,179.3
259.97,1,179.5
259.97,1,179.7
259.97,1,179.9
0,1,180.1
0,1,180.29
0,1,180.49
0,1,180.69
0,1,180.89
0,1,181.09
0,1,181.29
0,1,181.49
0,1,181.69
0,1,181.89
0,1,182.09
0,1,182.28
0,1,182.48
0,1,182.68
0,1,182.88
0,1,183.08
0,1,183.28
0,1,183.48
0,1,183.68
0,1,183.88
0,1,184.07
0,1,184.27
0,1,184.47
0,1,184.67
0,1,184.87
0,1,185.07
0,1,185.27
0,1,185.47
0,1,185.67
0,1,185.87
0,1,186.07
0,1,186.26
0,1,186.46
0,1,186.66
0,1,186.86
0,1,187.06
0,1,187.26
0,1,187.46
0,1,187.66
0,1,187.86
0,1,188.05
0,1,188.25
0,1,188.45
0,1,188.65
0,1,188.85
0,1,189.05
0,1,189.25
0,1,189.45
0,1,189.65
0,1,189.85
0,1,190.04
0,1,190.24
0,1,190.44
0,1,190.64
0,1,190.84
0,1,191.04
0,1,191.24
0,1,191.44
0,1,191.64
0,1,191.84
0,1,192.04
0,1,192.23
0,1,192.43
0,1,192.63
0,1,192.83
0,1,193.03
0,1,193.23
0,1,193.43
0,1,193.63
0,1,193.83
0,1,194.02
0,1,194.22
0,1,194.42
0,1,194.62
0,1,194.82
0,1,195.02
0,1,195.22
0,1,195.42
0,1,195.62
0,1,195.82
0,1,196.01
0,1,196.21
0,1,196.41
0,1,196.61
0,1,196.81
0,1,197.01
0,1,197.21
0,1,197.41
0,1,197.61
0,1,197.81
0,1,198.01
0,1,198.2
0,1,198.4
0,1,198.6
0,1,198.8
0,1,199
