"PuMA_Matrix","vtkValidPointMask","arc_length"
0,1,0
0,1,0.199
0,1,0.398
0,1,0.597
0,1,0.796
0,1,0.995
0,1,1.194
0,1,1.393
0,1,1.592
0,1,1.791
0,1,1.99
0,1,2.189
0,1,2.388
0,1,2.587
0,1,2.786
0,1,2.985
0,1,3.184
0,1,3.383
0,1,3.582
0,1,3.781
0,1,3.98
0,1,4.179
0,1,4.378
0,1,4.577
0,1,4.776
0,1,4.975
0,1,5.174
0,1,5.373
0,1,5.572
0,1,5.771
0,1,5.97
0,1,6.169
0,1,6.368
0,1,6.567
0,1,6.766
0,1,6.965
0,1,7.164
0,1,7.363
0,1,7.562
0,1,7.761
0,1,7.96
0,1,8.159
0,1,8.358
0,1,8.557
0,1,8.756
0,1,8.955
0,1,9.154
0,1,9.353
0,1,9.552
0,1,9.751
0,1,9.95
0,1,10.149
0,1,10.348
0,1,10.547
0,1,10.746
0,1,10.945
0,1,11.144
0,1,11.343
0,1,11.542
0,1,11.741
0,1,11.94
0,1,12.139
0,1,12.338
0,1,12.537
0,1,12.736
0,1,12.935
0,1,13.134
0,1,13.333
0,1,13.532
0,1,13.731
0,1,13.93
0,1,14.129
0,1,14.328
0,1,14.527
0,1,14.726
0,1,14.925
0,1,15.124
0,1,15.323
0,1,15.522
0,1,15.721
0,1,15.92
0,1,16.119
0,1,16.318
0,1,16.517
0,1,16.716
0,1,16.915
0,1,17.114
0,1,17.313
0,1,17.512
0,1,17.711
0,1,17.91
0,1,18.109
0,1,18.308
0,1,18.507
0,1,18.706
0,1,18.905
0,1,19.104
0,1,19.303
0,1,19.502
0,1,19.701
0,1,19.9
267.78,1,20.099
267.78,1,20.298
267.78,1,20.497
267.78,1,20.696
267.78,1,20.895
279.72,1,21.094
279.72,1,21.293
279.72,1,21.492
279.72,1,21.691
279.72,1,21.89
291.5,1,22.089
291.5,1,22.288
291.5,1,22.487
291.5,1,22.686
291.5,1,22.885
303.01,1,23.084
303.01,1,23.283
303.01,1,23.482
303.01,1,23.681
303.01,1,23.88
314.24,1,24.079
314.24,1,24.278
314.24,1,24.477
314.24,1,24.676
314.24,1,24.875
325.15,1,25.074
325.15,1,25.273
325.15,1,25.472
325.15,1,25.671
325.15,1,25.87
335.73,1,26.069
335.73,1,26.268
335.73,1,26.467
335.73,1,26.666
335.73,1,26.865
345.96,1,27.064
345.96,1,27.263
345.96,1,27.462
345.96,1,27.661
345.96,1,27.86
355.84,1,28.059
355.84,1,28.258
355.84,1,28.457
355.84,1,28.656
355.84,1,28.855
365.35,1,29.054
365.35,1,29.253
365.35,1,29.452
365.35,1,29.651
365.35,1,29.85
374.48,1,30.049
374.48,1,30.248
374.48,1,30.447
374.48,1,30.646
374.48,1,30.845
383.22,1,31.044
383.22,1,31.243
383.22,1,31.442
383.22,1,31.641
383.22,1,31.84
391.57,1,32.039
391.57,1,32.238
391.57,1,32.437
391.57,1,32.636
391.57,1,32.835
399.53,1,33.034
399.53,1,33.233
399.53,1,33.432
399.53,1,33.631
399.53,1,33.83
407.1,1,34.029
407.1,1,34.228
407.1,1,34.427
407.1,1,34.626
407.1,1,34.825
414.27,1,35.024
414.27,1,35.223
414.27,1,35.422
414.27,1,35.621
414.27,1,35.82
421.05,1,36.019
421.05,1,36.218
421.05,1,36.417
421.05,1,36.616
421.05,1,36.815
427.44,1,37.014
427.44,1,37.213
427.44,1,37.412
427.44,1,37.611
427.44,1,37.81
433.46,1,38.009
433.46,1,38.208
433.46,1,38.407
433.46,1,38.606
433.46,1,38.805
439.11,1,39.004
439.11,1,39.203
439.11,1,39.402
439.11,1,39.601
439.11,1,39.8
439.11,1,39.999
444.39,1,40.198
444.39,1,40.397
444.39,1,40.596
444.39,1,40.795
444.39,1,40.994
449.33,1,41.193
449.33,1,41.392
449.33,1,41.591
449.33,1,41.79
449.33,1,41.989
453.92,1,42.188
453.92,1,42.387
453.92,1,42.586
453.92,1,42.785
453.92,1,42.984
458.19,1,43.183
458.19,1,43.382
458.19,1,43.581
458.19,1,43.78
458.19,1,43.979
462.14,1,44.178
462.14,1,44.377
462.14,1,44.576
462.14,1,44.775
462.14,1,44.974
465.79,1,45.173
465.79,1,45.372
465.79,1,45.571
465.79,1,45.77
465.79,1,45.969
469.16,1,46.168
469.16,1,46.367
469.16,1,46.566
469.16,1,46.765
469.16,1,46.964
472.25,1,47.163
472.25,1,47.362
472.25,1,47.561
472.25,1,47.76
472.25,1,47.959
475.09,1,48.158
475.09,1,48.357
475.09,1,48.556
475.09,1,48.755
475.09,1,48.954
477.69,1,49.153
477.69,1,49.352
477.69,1,49.551
477.69,1,49.75
477.69,1,49.949
480.05,1,50.148
480.05,1,50.347
480.05,1,50.546
480.05,1,50.745
480.05,1,50.944
482.21,1,51.143
482.21,1,51.342
482.21,1,51.541
482.21,1,51.74
482.21,1,51.939
484.16,1,52.138
484.16,1,52.337
484.16,1,52.536
484.16,1,52.735
484.16,1,52.934
485.93,1,53.133
485.93,1,53.332
485.93,1,53.531
485.93,1,53.73
485.93,1,53.929
487.53,1,54.128
487.53,1,54.327
487.53,1,54.526
487.53,1,54.725
487.53,1,54.924
488.97,1,55.123
488.97,1,55.322
488.97,1,55.521
488.97,1,55.72
488.97,1,55.919
490.27,1,56.118
490.27,1,56.317
490.27,1,56.516
490.27,1,56.715
490.27,1,56.914
491.43,1,57.113
491.43,1,57.312
491.43,1,57.511
491.43,1,57.71
491.43,1,57.909
492.46,1,58.108
492.46,1,58.307
492.46,1,58.506
492.46,1,58.705
492.46,1,58.904
493.39,1,59.103
493.39,1,59.302
493.39,1,59.501
493.39,1,59.7
493.39,1,59.899
494.21,1,60.098
494.21,1,60.297
494.21,1,60.496
494.21,1,60.695
494.21,1,60.894
494.94,1,61.093
494.94,1,61.292
494.94,1,61.491
494.94,1,61.69
494.94,1,61.889
495.59,1,62.088
495.59,1,62.287
495.59,1,62.486
495.59,1,62.685
495.59,1,62.884
496.16,1,63.083
496.16,1,63.282
496.16,1,63.481
496.16,1,63.68
496.16,1,63.879
496.67,1,64.078
496.67,1,64.277
496.67,1,64.476
496.67,1,64.675
496.67,1,64.874
497.11,1,65.073
497.11,1,65.272
497.11,1,65.471
497.11,1,65.67
497.11,1,65.869
497.5,1,66.068
497.5,1,66.267
497.5,1,66.466
497.5,1,66.665
497.5,1,66.864
497.84,1,67.063
497.84,1,67.262
497.84,1,67.461
497.84,1,67.66
497.84,1,67.859
498.14,1,68.058
498.14,1,68.257
498.14,1,68.456
498.14,1,68.655
498.14,1,68.854
498.4,1,69.053
498.4,1,69.252
498.4,1,69.451
498.4,1,69.65
498.4,1,69.849
498.62,1,70.048
498.62,1,70.247
498.62,1,70.446
498.62,1,70.645
498.62,1,70.844
498.82,1,71.043
498.82,1,71.242
498.82,1,71.441
498.82,1,71.64
498.82,1,71.839
498.99,1,72.038
498.99,1,72.237
498.99,1,72.436
498.99,1,72.635
498.99,1,72.834
499.13,1,73.033
499.13,1,73.232
499.13,1,73.431
499.13,1,73.63
499.13,1,73.829
499.26,1,74.028
499.26,1,74.227
499.26,1,74.426
499.26,1,74.625
499.26,1,74.824
499.37,1,75.023
499.37,1,75.222
499.37,1,75.421
499.37,1,75.62
499.37,1,75.819
499.46,1,76.018
499.46,1,76.217
499.46,1,76.416
499.46,1,76.615
499.46,1,76.814
499.54,1,77.013
499.54,1,77.212
499.54,1,77.411
499.54,1,77.61
499.54,1,77.809
499.61,1,78.008
499.61,1,78.207
499.61,1,78.406
499.61,1,78.605
499.61,1,78.804
499.67,1,79.003
499.67,1,79.202
499.67,1,79.401
499.67,1,79.6
499.67,1,79.799
499.67,1,79.998
499.72,1,80.197
499.72,1,80.396
499.72,1,80.595
499.72,1,80.794
499.72,1,80.993
499.76,1,81.192
499.76,1,81.391
499.76,1,81.59
499.76,1,81.789
499.76,1,81.988
499.8,1,82.187
499.8,1,82.386
499.8,1,82.585
499.8,1,82.784
499.8,1,82.983
499.83,1,83.182
499.83,1,83.381
499.83,1,83.58
499.83,1,83.779
499.83,1,83.978
499.85,1,84.177
499.85,1,84.376
499.85,1,84.575
499.85,1,84.774
499.85,1,84.973
499.87,1,85.172
499.87,1,85.371
499.87,1,85.57
499.87,1,85.769
499.87,1,85.968
499.89,1,86.167
499.89,1,86.366
499.89,1,86.565
499.89,1,86.764
499.89,1,86.963
499.91,1,87.162
499.91,1,87.361
499.91,1,87.56
499.91,1,87.759
499.91,1,87.958
499.92,1,88.157
499.92,1,88.356
499.92,1,88.555
499.92,1,88.754
499.92,1,88.953
499.93,1,89.152
499.93,1,89.351
499.93,1,89.55
499.93,1,89.749
499.93,1,89.948
499.94,1,90.147
499.94,1,90.346
499.94,1,90.545
499.94,1,90.744
499.94,1,90.943
499.95,1,91.142
499.95,1,91.341
499.95,1,91.54
499.95,1,91.739
499.95,1,91.938
499.95,1,92.137
499.95,1,92.336
499.95,1,92.535
499.95,1,92.734
499.95,1,92.933
499.96,1,93.132
499.96,1,93.331
499.96,1,93.53
499.96,1,93.729
499.96,1,93.928
499.96,1,94.127
499.96,1,94.326
499.96,1,94.525
499.96,1,94.724
499.96,1,94.923
499.97,1,95.122
499.97,1,95.321
499.97,1,95.52
499.97,1,95.719
499.97,1,95.918
499.97,1,96.117
499.97,1,96.316
499.97,1,96.515
499.97,1,96.714
499.97,1,96.913
499.97,1,97.112
499.97,1,97.311
499.97,1,97.51
499.97,1,97.709
499.97,1,97.908
499.97,1,98.107
499.97,1,98.306
499.97,1,98.505
499.97,1,98.704
499.97,1,98.903
499.97,1,99.102
499.97,1,99.301
499.97,1,99.5
499.97,1,99.699
499.97,1,99.898
499.97,1,100.1
499.97,1,100.3
499.97,1,100.5
499.97,1,100.69
499.97,1,100.89
499.97,1,101.09
499.97,1,101.29
499.97,1,101.49
499.97,1,101.69
499.97,1,101.89
499.97,1,102.09
499.97,1,102.29
499.97,1,102.49
499.97,1,102.68
499.97,1,102.88
499.97,1,103.08
499.97,1,103.28
499.97,1,103.48
499.97,1,103.68
499.97,1,103.88
499.97,1,104.08
499.97,1,104.28
499.97,1,104.47
499.97,1,104.67
499.97,1,104.87
499.96,1,105.07
499.96,1,105.27
499.96,1,105.47
499.96,1,105.67
499.96,1,105.87
499.96,1,106.07
499.96,1,106.27
499.96,1,106.46
499.96,1,106.66
499.96,1,106.86
499.95,1,107.06
499.95,1,107.26
499.95,1,107.46
499.95,1,107.66
499.95,1,107.86
499.95,1,108.06
499.95,1,108.26
499.95,1,108.46
499.95,1,108.65
499.95,1,108.85
499.94,1,109.05
499.94,1,109.25
499.94,1,109.45
499.94,1,109.65
499.94,1,109.85
499.93,1,110.05
499.93,1,110.25
499.93,1,110.44
499.93,1,110.64
499.93,1,110.84
499.92,1,111.04
499.92,1,111.24
499.92,1,111.44
499.92,1,111.64
499.92,1,111.84
499.91,1,112.04
499.91,1,112.24
499.91,1,112.43
499.91,1,112.63
499.91,1,112.83
499.89,1,113.03
499.89,1,113.23
499.89,1,113.43
499.89,1,113.63
499.89,1,113.83
499.87,1,114.03
499.87,1,114.23
499.87,1,114.43
499.87,1,114.62
499.87,1,114.82
499.85,1,115.02
499.85,1,115.22
499.85,1,115.42
499.85,1,115.62
499.85,1,115.82
499.83,1,116.02
499.83,1,116.22
499.83,1,116.42
499.83,1,116.61
499.83,1,116.81
499.8,1,117.01
499.8,1,117.21
499.8,1,117.41
499.8,1,117.61
499.8,1,117.81
499.76,1,118.01
499.76,1,118.21
499.76,1,118.4
499.76,1,118.6
499.76,1,118.8
499.72,1,119
499.72,1,119.2
499.72,1,119.4
499.72,1,119.6
499.72,1,119.8
499.72,1,120
499.67,1,120.2
499.67,1,120.39
499.67,1,120.59
499.67,1,120.79
499.67,1,120.99
499.61,1,121.19
499.61,1,121.39
499.61,1,121.59
499.61,1,121.79
499.61,1,121.99
499.54,1,122.19
499.54,1,122.39
499.54,1,122.58
499.54,1,122.78
499.54,1,122.98
499.46,1,123.18
499.46,1,123.38
499.46,1,123.58
499.46,1,123.78
499.46,1,123.98
499.37,1,124.18
499.37,1,124.38
499.37,1,124.57
499.37,1,124.77
499.37,1,124.97
499.26,1,125.17
499.26,1,125.37
499.26,1,125.57
499.26,1,125.77
499.26,1,125.97
499.13,1,126.17
499.13,1,126.36
499.13,1,126.56
499.13,1,126.76
499.13,1,126.96
498.99,1,127.16
498.99,1,127.36
498.99,1,127.56
498.99,1,127.76
498.99,1,127.96
498.82,1,128.16
498.82,1,128.35
498.82,1,128.55
498.82,1,128.75
498.82,1,128.95
498.62,1,129.15
498.62,1,129.35
498.62,1,129.55
498.62,1,129.75
498.62,1,129.95
498.4,1,130.15
498.4,1,130.35
498.4,1,130.54
498.4,1,130.74
498.4,1,130.94
498.14,1,131.14
498.14,1,131.34
498.14,1,131.54
498.14,1,131.74
498.14,1,131.94
497.84,1,132.14
497.84,1,132.34
497.84,1,132.53
497.84,1,132.73
497.84,1,132.93
497.5,1,133.13
497.5,1,133.33
497.5,1,133.53
497.5,1,133.73
497.5,1,133.93
497.11,1,134.13
497.11,1,134.32
497.11,1,134.52
497.11,1,134.72
497.11,1,134.92
496.67,1,135.12
496.67,1,135.32
496.67,1,135.52
496.67,1,135.72
496.67,1,135.92
496.16,1,136.12
496.16,1,136.32
496.16,1,136.51
496.16,1,136.71
496.16,1,136.91
495.59,1,137.11
495.59,1,137.31
495.59,1,137.51
495.59,1,137.71
495.59,1,137.91
494.94,1,138.11
494.94,1,138.3
494.94,1,138.5
494.94,1,138.7
494.94,1,138.9
494.21,1,139.1
494.21,1,139.3
494.21,1,139.5
494.21,1,139.7
494.21,1,139.9
493.39,1,140.1
493.39,1,140.29
493.39,1,140.49
493.39,1,140.69
493.39,1,140.89
492.46,1,141.09
492.46,1,141.29
492.46,1,141.49
492.46,1,141.69
492.46,1,141.89
491.43,1,142.09
491.43,1,142.29
491.43,1,142.48
491.43,1,142.68
491.43,1,142.88
490.27,1,143.08
490.27,1,143.28
490.27,1,143.48
490.27,1,143.68
490.27,1,143.88
488.97,1,144.08
488.97,1,144.27
488.97,1,144.47
488.97,1,144.67
488.97,1,144.87
487.53,1,145.07
487.53,1,145.27
487.53,1,145.47
487.53,1,145.67
487.53,1,145.87
485.93,1,146.07
485.93,1,146.26
485.93,1,146.46
485.93,1,146.66
485.93,1,146.86
484.16,1,147.06
484.16,1,147.26
484.16,1,147.46
484.16,1,147.66
484.16,1,147.86
482.21,1,148.06
482.21,1,148.26
482.21,1,148.45
482.21,1,148.65
482.21,1,148.85
480.05,1,149.05
480.05,1,149.25
480.05,1,149.45
480.05,1,149.65
480.05,1,149.85
477.69,1,150.05
477.69,1,150.24
477.69,1,150.44
477.69,1,150.64
477.69,1,150.84
475.09,1,151.04
475.09,1,151.24
475.09,1,151.44
475.09,1,151.64
475.09,1,151.84
472.25,1,152.04
472.25,1,152.24
472.25,1,152.43
472.25,1,152.63
472.25,1,152.83
469.16,1,153.03
469.16,1,153.23
469.16,1,153.43
469.16,1,153.63
469.16,1,153.83
465.79,1,154.03
465.79,1,154.23
465.79,1,154.42
465.79,1,154.62
465.79,1,154.82
462.14,1,155.02
462.14,1,155.22
462.14,1,155.42
462.14,1,155.62
462.14,1,155.82
458.19,1,156.02
458.19,1,156.21
458.19,1,156.41
458.19,1,156.61
458.19,1,156.81
453.92,1,157.01
453.92,1,157.21
453.92,1,157.41
453.92,1,157.61
453.92,1,157.81
449.33,1,158.01
449.33,1,158.21
449.33,1,158.4
449.33,1,158.6
449.33,1,158.8
444.39,1,159
444.39,1,159.2
444.39,1,159.4
444.39,1,159.6
444.39,1,159.8
444.39,1,160
439.11,1,160.2
439.11,1,160.39
439.11,1,160.59
439.11,1,160.79
439.11,1,160.99
433.46,1,161.19
433.46,1,161.39
433.46,1,161.59
433.46,1,161.79
433.46,1,161.99
427.44,1,162.18
427.44,1,162.38
427.44,1,162.58
427.44,1,162.78
427.44,1,162.98
421.05,1,163.18
421.05,1,163.38
421.05,1,163.58
421.05,1,163.78
421.05,1,163.98
414.27,1,164.18
414.27,1,164.37
414.27,1,164.57
414.27,1,164.77
414.27,1,164.97
407.1,1,165.17
407.1,1,165.37
407.1,1,165.57
407.1,1,165.77
407.1,1,165.97
399.53,1,166.16
399.53,1,166.36
399.53,1,166.56
399.53,1,166.76
399.53,1,166.96
391.57,1,167.16
391.57,1,167.36
391.57,1,167.56
391.57,1,167.76
391.57,1,167.96
383.22,1,168.15
383.22,1,168.35
383.22,1,168.55
383.22,1,168.75
383.22,1,168.95
374.48,1,169.15
374.48,1,169.35
374.48,1,169.55
374.48,1,169.75
374.48,1,169.95
365.35,1,170.15
365.35,1,170.34
365.35,1,170.54
365.35,1,170.74
365.35,1,170.94
355.84,1,171.14
355.84,1,171.34
355.84,1,171.54
355.84,1,171.74
355.84,1,171.94
345.96,1,172.13
345.96,1,172.33
345.96,1,172.53
345.96,1,172.73
345.96,1,172.93
335.73,1,173.13
335.73,1,173.33
335.73,1,173.53
335.73,1,173.73
335.73,1,173.93
325.15,1,174.12
325.15,1,174.32
325.15,1,174.52
325.15,1,174.72
325.15,1,174.92
314.24,1,175.12
314.24,1,175.32
314.24,1,175.52
314.24,1,175.72
314.24,1,175.92
303.01,1,176.12
303.01,1,176.31
303.01,1,176.51
303.01,1,176.71
303.01,1,176.91
291.5,1,177.11
291.5,1,177.31
291.5,1,177.51
291.5,1,177.71
291.5,1,177.91
279.72,1,178.1
279.72,1,178.3
279.72,1,178.5
279.72,1,178.7
279.72,1,178.9
267.78,1,179.1
267.78,1,179.3
267.78,1,179.5
267.78,1,179.7
267.78,1,179.9
0,1,180.1
0,1,180.29
0,1,180.49
0,1,180.69
0,1,180.89
0,1,181.09
0,1,181.29
0,1,181.49
0,1,181.69
0,1,181.89
0,1,182.09
0,1,182.28
0,1,182.48
0,1,182.68
0,1,182.88
0,1,183.08
0,1,183.28
0,1,183.48
0,1,183.68
0,1,183.88
0,1,184.07
0,1,184.27
0,1,184.47
0,1,184.67
0,1,184.87
0,1,185.07
0,1,185.27
0,1,185.47
0,1,185.67
0,1,185.87
0,1,186.07
0,1,186.26
0,1,186.46
0,1,186.66
0,1,186.86
0,1,187.06
0,1,187.26
0,1,187.46
0,1,187.66
0,1,187.86
0,1,188.05
0,1,188.25
0,1,188.45
0,1,188.65
0,1,188.85
0,1,189.05
0,1,189.25
0,1,189.45
0,1,189.65
0,1,189.85
0,1,190.04
0,1,190.24
0,1,190.44
0,1,190.64
0,1,190.84
0,1,191.04
0,1,191.24
0,1,191.44
0,1,191.64
0,1,191.84
0,1,192.04
0,1,192.23
0,1,192.43
0,1,192.63
0,1,192.83
0,1,193.03
0,1,193.23
0,1,193.43
0,1,193.63
0,1,193.83
0,1,194.02
0,1,194.22
0,1,194.42
0,1,194.62
0,1,194.82
0,1,195.02
0,1,195.22
0,1,195.42
0,1,195.62
0,1,195.82
0,1,196.01
0,1,196.21
0,1,196.41
0,1,196.61
0,1,196.81
0,1,197.01
0,1,197.21
0,1,197.41
0,1,197.61
0,1,197.81
0,1,198.01
0,1,198.2
0,1,198.4
0,1,198.6
0,1,198.8
0,1,199
