"PuMA_Matrix","vtkValidPointMask","arc_length"
0,1,0
0,1,0.199
0,1,0.398
0,1,0.597
0,1,0.796
0,1,0.995
0,1,1.194
0,1,1.393
0,1,1.592
0,1,1.791
0,1,1.99
0,1,2.189
0,1,2.388
0,1,2.587
0,1,2.786
0,1,2.985
0,1,3.184
0,1,3.383
0,1,3.582
0,1,3.781
0,1,3.98
0,1,4.179
0,1,4.378
0,1,4.577
0,1,4.776
0,1,4.975
0,1,5.174
0,1,5.373
0,1,5.572
0,1,5.771
0,1,5.97
0,1,6.169
0,1,6.368
0,1,6.567
0,1,6.766
0,1,6.965
0,1,7.164
0,1,7.363
0,1,7.562
0,1,7.761
0,1,7.96
0,1,8.159
0,1,8.358
0,1,8.557
0,1,8.756
0,1,8.955
0,1,9.154
0,1,9.353
0,1,9.552
0,1,9.751
0,1,9.95
0,1,10.149
0,1,10.348
0,1,10.547
0,1,10.746
0,1,10.945
0,1,11.144
0,1,11.343
0,1,11.542
0,1,11.741
0,1,11.94
0,1,12.139
0,1,12.338
0,1,12.537
0,1,12.736
0,1,12.935
0,1,13.134
0,1,13.333
0,1,13.532
0,1,13.731
0,1,13.93
0,1,14.129
0,1,14.328
0,1,14.527
0,1,14.726
0,1,14.925
0,1,15.124
0,1,15.323
0,1,15.522
0,1,15.721
0,1,15.92
0,1,16.119
0,1,16.318
0,1,16.517
0,1,16.716
0,1,16.915
0,1,17.114
0,1,17.313
0,1,17.512
0,1,17.711
0,1,17.91
0,1,18.109
0,1,18.308
0,1,18.507
0,1,18.706
0,1,18.905
0,1,19.104
0,1,19.303
0,1,19.502
0,1,19.701
0,1,19.9
347.39,1,20.099
347.39,1,20.298
347.39,1,20.497
347.39,1,20.696
347.39,1,20.895
362.67,1,21.094
362.67,1,21.293
362.67,1,21.492
362.67,1,21.691
362.67,1,21.89
377.2,1,22.089
377.2,1,22.288
377.2,1,22.487
377.2,1,22.686
377.2,1,22.885
390.82,1,23.084
390.82,1,23.283
390.82,1,23.482
390.82,1,23.681
390.82,1,23.88
403.49,1,24.079
403.49,1,24.278
403.49,1,24.477
403.49,1,24.676
403.49,1,24.875
415.2,1,25.074
415.2,1,25.273
415.2,1,25.472
415.2,1,25.671
415.2,1,25.87
425.94,1,26.069
425.94,1,26.268
425.94,1,26.467
425.94,1,26.666
425.94,1,26.865
435.71,1,27.064
435.71,1,27.263
435.71,1,27.462
435.71,1,27.661
435.71,1,27.86
444.54,1,28.059
444.54,1,28.258
444.54,1,28.457
444.54,1,28.656
444.54,1,28.855
452.46,1,29.054
452.46,1,29.253
452.46,1,29.452
452.46,1,29.651
452.46,1,29.85
459.51,1,30.049
459.51,1,30.248
459.51,1,30.447
459.51,1,30.646
459.51,1,30.845
465.74,1,31.044
465.74,1,31.243
465.74,1,31.442
465.74,1,31.641
465.74,1,31.84
471.2,1,32.039
471.2,1,32.238
471.2,1,32.437
471.2,1,32.636
471.2,1,32.835
475.95,1,33.034
475.95,1,33.233
475.95,1,33.432
475.95,1,33.631
475.95,1,33.83
480.05,1,34.029
480.05,1,34.228
480.05,1,34.427
480.05,1,34.626
480.05,1,34.825
483.57,1,35.024
483.57,1,35.223
483.57,1,35.422
483.57,1,35.621
483.57,1,35.82
486.55,1,36.019
486.55,1,36.218
486.55,1,36.417
486.55,1,36.616
486.55,1,36.815
489.07,1,37.014
489.07,1,37.213
489.07,1,37.412
489.07,1,37.611
489.07,1,37.81
491.18,1,38.009
491.18,1,38.208
491.18,1,38.407
491.18,1,38.606
491.18,1,38.805
492.93,1,39.004
492.93,1,39.203
492.93,1,39.402
492.93,1,39.601
492.93,1,39.8
492.93,1,39.999
494.37,1,40.198
494.37,1,40.397
494.37,1,40.596
494.37,1,40.795
494.37,1,40.994
495.55,1,41.193
495.55,1,41.392
495.55,1,41.591
495.55,1,41.79
495.55,1,41.989
496.51,1,42.188
496.51,1,42.387
496.51,1,42.586
496.51,1,42.785
496.51,1,42.984
497.28,1,43.183
497.28,1,43.382
497.28,1,43.581
497.28,1,43.78
497.28,1,43.979
497.9,1,44.178
497.9,1,44.377
497.9,1,44.576
497.9,1,44.775
497.9,1,44.974
498.38,1,45.173
498.38,1,45.372
498.38,1,45.571
498.38,1,45.77
498.38,1,45.969
498.77,1,46.168
498.77,1,46.367
498.77,1,46.566
498.77,1,46.765
498.77,1,46.964
499.06,1,47.163
499.06,1,47.362
499.06,1,47.561
499.06,1,47.76
499.06,1,47.959
499.3,1,48.158
499.3,1,48.357
499.3,1,48.556
499.3,1,48.755
499.3,1,48.954
499.47,1,49.153
499.47,1,49.352
499.47,1,49.551
499.47,1,49.75
499.47,1,49.949
499.61,1,50.148
499.61,1,50.347
499.61,1,50.546
499.61,1,50.745
499.61,1,50.944
499.71,1,51.143
499.71,1,51.342
499.71,1,51.541
499.71,1,51.74
499.71,1,51.939
499.79,1,52.138
499.79,1,52.337
499.79,1,52.536
499.79,1,52.735
499.79,1,52.934
499.85,1,53.133
499.85,1,53.332
499.85,1,53.531
499.85,1,53.73
499.85,1,53.929
499.89,1,54.128
499.89,1,54.327
499.89,1,54.526
499.89,1,54.725
499.89,1,54.924
499.92,1,55.123
499.92,1,55.322
499.92,1,55.521
499.92,1,55.72
499.92,1,55.919
499.94,1,56.118
499.94,1,56.317
499.94,1,56.516
499.94,1,56.715
499.94,1,56.914
499.96,1,57.113
499.96,1,57.312
499.96,1,57.511
499.96,1,57.71
499.96,1,57.909
499.97,1,58.108
499.97,1,58.307
499.97,1,58.506
499.97,1,58.705
499.97,1,58.904
499.98,1,59.103
499.98,1,59.302
499.98,1,59.501
499.98,1,59.7
499.98,1,59.899
499.99,1,60.098
499.99,1,60.297
499.99,1,60.496
499.99,1,60.695
499.99,1,60.894
499.99,1,61.093
499.99,1,61.292
499.99,1,61.491
499.99,1,61.69
499.99,1,61.889
499.99,1,62.088
499.99,1,62.287
499.99,1,62.486
499.99,1,62.685
499.99,1,62.884
500,1,63.083
500,1,63.282
500,1,63.481
500,1,63.68
500,1,63.879
500,1,64.078
500,1,64.277
500,1,64.476
500,1,64.675
500,1,64.874
500,1,65.073
500,1,65.272
500,1,65.471
500,1,65.67
500,1,65.869
500,1,66.068
500,1,66.267
500,1,66.466
500,1,66.665
500,1,66.864
500,1,67.063
500,1,67.262
500,1,67.461
500,1,67.66
500,1,67.859
500,1,68.058
500,1,68.257
500,1,68.456
500,1,68.655
500,1,68.854
500,1,69.053
500,1,69.252
500,1,69.451
500,1,69.65
500,1,69.849
500,1,70.048
500,1,70.247
500,1,70.446
500,1,70.645
500,1,70.844
500,1,71.043
500,1,71.242
500,1,71.441
500,1,71.64
500,1,71.839
500,1,72.038
500,1,72.237
500,1,72.436
500,1,72.635
500,1,72.834
500,1,73.033
500,1,73.232
500,1,73.431
500,1,73.63
500,1,73.829
500,1,74.028
500,1,74.227
500,1,74.426
500,1,74.625
500,1,74.824
500,1,75.023
500,1,75.222
500,1,75.421
500,1,75.62
500,1,75.819
500,1,76.018
500,1,76.217
500,1,76.416
500,1,76.615
500,1,76.814
500,1,77.013
500,1,77.212
500,1,77.411
500,1,77.61
500,1,77.809
500,1,78.008
500,1,78.207
500,1,78.406
500,1,78.605
500,1,78.804
500,1,79.003
500,1,79.202
500,1,79.401
500,1,79.6
500,1,79.799
500,1,79.998
500,1,80.197
500,1,80.396
500,1,80.595
500,1,80.794
500,1,80.993
500,1,81.192
500,1,81.391
500,1,81.59
500,1,81.789
500,1,81.988
500,1,82.187
500,1,82.386
500,1,82.585
500,1,82.784
500,1,82.983
500,1,83.182
500,1,83.381
500,1,83.58
500,1,83.779
500,1,83.978
500,1,84.177
500,1,84.376
500,1,84.575
500,1,84.774
500,1,84.973
500,1,85.172
500,1,85.371
500,1,85.57
500,1,85.769
500,1,85.968
500,1,86.167
500,1,86.366
500,1,86.565
500,1,86.764
500,1,86.963
500,1,87.162
500,1,87.361
500,1,87.56
500,1,87.759
500,1,87.958
500,1,88.157
500,1,88.356
500,1,88.555
500,1,88.754
500,1,88.953
500,1,89.152
500,1,89.351
500,1,89.55
500,1,89.749
500,1,89.948
500,1,90.147
500,1,90.346
500,1,90.545
500,1,90.744
500,1,90.943
500,1,91.142
500,1,91.341
500,1,91.54
500,1,91.739
500,1,91.938
500,1,92.137
500,1,92.336
500,1,92.535
500,1,92.734
500,1,92.933
500,1,93.132
500,1,93.331
500,1,93.53
500,1,93.729
500,1,93.928
500,1,94.127
500,1,94.326
500,1,94.525
500,1,94.724
500,1,94.923
500,1,95.122
500,1,95.321
500,1,95.52
500,1,95.719
500,1,95.918
500,1,96.117
500,1,96.316
500,1,96.515
500,1,96.714
500,1,96.913
500,1,97.112
500,1,97.311
500,1,97.51
500,1,97.709
500,1,97.908
500,1,98.107
500,1,98.306
500,1,98.505
500,1,98.704
500,1,98.903
500,1,99.102
500,1,99.301
500,1,99.5
500,1,99.699
500,1,99.898
500,1,100.1
500,1,100.3
500,1,100.5
500,1,100.69
500,1,100.89
500,1,101.09
500,1,101.29
500,1,101.49
500,1,101.69
500,1,101.89
500,1,102.09
500,1,102.29
500,1,102.49
500,1,102.68
500,1,102.88
500,1,103.08
500,1,103.28
500,1,103.48
500,1,103.68
500,1,103.88
500,1,104.08
500,1,104.28
500,1,104.47
500,1,104.67
500,1,104.87
500,1,105.07
500,1,105.27
500,1,105.47
500,1,105.67
500,1,105.87
500,1,106.07
500,1,106.27
500,1,106.46
500,1,106.66
500,1,106.86
500,1,107.06
500,1,107.26
500,1,107.46
500,1,107.66
500,1,107.86
500,1,108.06
500,1,108.26
500,1,108.46
500,1,108.65
500,1,108.85
500,1,109.05
500,1,109.25
500,1,109.45
500,1,109.65
500,1,109.85
500,1,110.05
500,1,110.25
500,1,110.44
500,1,110.64
500,1,110.84
500,1,111.04
500,1,111.24
500,1,111.44
500,1,111.64
500,1,111.84
500,1,112.04
500,1,112.24
500,1,112.43
500,1,112.63
500,1,112.83
500,1,113.03
500,1,113.23
500,1,113.43
500,1,113.63
500,1,113.83
500,1,114.03
500,1,114.23
500,1,114.43
500,1,114.62
500,1,114.82
500,1,115.02
500,1,115.22
500,1,115.42
500,1,115.62
500,1,115.82
500,1,116.02
500,1,116.22
500,1,116.42
500,1,116.61
500,1,116.81
500,1,117.01
500,1,117.21
500,1,117.41
500,1,117.61
500,1,117.81
500,1,118.01
500,1,118.21
500,1,118.4
500,1,118.6
500,1,118.8
500,1,119
500,1,119.2
500,1,119.4
500,1,119.6
500,1,119.8
500,1,120
500,1,120.2
500,1,120.39
500,1,120.59
500,1,120.79
500,1,120.99
500,1,121.19
500,1,121.39
500,1,121.59
500,1,121.79
500,1,121.99
500,1,122.19
500,1,122.39
500,1,122.58
500,1,122.78
500,1,122.98
500,1,123.18
500,1,123.38
500,1,123.58
500,1,123.78
500,1,123.98
500,1,124.18
500,1,124.38
500,1,124.57
500,1,124.77
500,1,124.97
500,1,125.17
500,1,125.37
500,1,125.57
500,1,125.77
500,1,125.97
500,1,126.17
500,1,126.36
500,1,126.56
500,1,126.76
500,1,126.96
500,1,127.16
500,1,127.36
500,1,127.56
500,1,127.76
500,1,127.96
500,1,128.16
500,1,128.35
500,1,128.55
500,1,128.75
500,1,128.95
500,1,129.15
500,1,129.35
500,1,129.55
500,1,129.75
500,1,129.95
500,1,130.15
500,1,130.35
500,1,130.54
500,1,130.74
500,1,130.94
500,1,131.14
500,1,131.34
500,1,131.54
500,1,131.74
500,1,131.94
500,1,132.14
500,1,132.34
500,1,132.53
500,1,132.73
500,1,132.93
500,1,133.13
500,1,133.33
500,1,133.53
500,1,133.73
500,1,133.93
500,1,134.13
500,1,134.32
500,1,134.52
500,1,134.72
500,1,134.92
500,1,135.12
500,1,135.32
500,1,135.52
500,1,135.72
500,1,135.92
500,1,136.12
500,1,136.32
500,1,136.51
500,1,136.71
500,1,136.91
499.99,1,137.11
499.99,1,137.31
499.99,1,137.51
499.99,1,137.71
499.99,1,137.91
499.99,1,138.11
499.99,1,138.3
499.99,1,138.5
499.99,1,138.7
499.99,1,138.9
499.99,1,139.1
499.99,1,139.3
499.99,1,139.5
499.99,1,139.7
499.99,1,139.9
499.98,1,140.1
499.98,1,140.29
499.98,1,140.49
499.98,1,140.69
499.98,1,140.89
499.97,1,141.09
499.97,1,141.29
499.97,1,141.49
499.97,1,141.69
499.97,1,141.89
499.96,1,142.09
499.96,1,142.29
499.96,1,142.48
499.96,1,142.68
499.96,1,142.88
499.94,1,143.08
499.94,1,143.28
499.94,1,143.48
499.94,1,143.68
499.94,1,143.88
499.92,1,144.08
499.92,1,144.27
499.92,1,144.47
499.92,1,144.67
499.92,1,144.87
499.89,1,145.07
499.89,1,145.27
499.89,1,145.47
499.89,1,145.67
499.89,1,145.87
499.85,1,146.07
499.85,1,146.26
499.85,1,146.46
499.85,1,146.66
499.85,1,146.86
499.79,1,147.06
499.79,1,147.26
499.79,1,147.46
499.79,1,147.66
499.79,1,147.86
499.71,1,148.06
499.71,1,148.26
499.71,1,148.45
499.71,1,148.65
499.71,1,148.85
499.61,1,149.05
499.61,1,149.25
499.61,1,149.45
499.61,1,149.65
499.61,1,149.85
499.47,1,150.05
499.47,1,150.24
499.47,1,150.44
499.47,1,150.64
499.47,1,150.84
499.3,1,151.04
499.3,1,151.24
499.3,1,151.44
499.3,1,151.64
499.3,1,151.84
499.06,1,152.04
499.06,1,152.24
499.06,1,152.43
499.06,1,152.63
499.06,1,152.83
498.77,1,153.03
498.77,1,153.23
498.77,1,153.43
498.77,1,153.63
498.77,1,153.83
498.38,1,154.03
498.38,1,154.23
498.38,1,154.42
498.38,1,154.62
498.38,1,154.82
497.9,1,155.02
497.9,1,155.22
497.9,1,155.42
497.9,1,155.62
497.9,1,155.82
497.28,1,156.02
497.28,1,156.21
497.28,1,156.41
497.28,1,156.61
497.28,1,156.81
496.51,1,157.01
496.51,1,157.21
496.51,1,157.41
496.51,1,157.61
496.51,1,157.81
495.55,1,158.01
495.55,1,158.21
495.55,1,158.4
495.55,1,158.6
495.55,1,158.8
494.37,1,159
494.37,1,159.2
494.37,1,159.4
494.37,1,159.6
494.37,1,159.8
494.37,1,160
492.93,1,160.2
492.93,1,160.39
492.93,1,160.59
492.93,1,160.79
492.93,1,160.99
491.18,1,161.19
491.18,1,161.39
491.18,1,161.59
491.18,1,161.79
491.18,1,161.99
489.07,1,162.18
489.07,1,162.38
489.07,1,162.58
489.07,1,162.78
489.07,1,162.98
486.55,1,163.18
486.55,1,163.38
486.55,1,163.58
486.55,1,163.78
486.55,1,163.98
483.57,1,164.18
483.57,1,164.37
483.57,1,164.57
483.57,1,164.77
483.57,1,164.97
480.05,1,165.17
480.05,1,165.37
480.05,1,165.57
480.05,1,165.77
480.05,1,165.97
475.95,1,166.16
475.95,1,166.36
475.95,1,166.56
475.95,1,166.76
475.95,1,166.96
471.2,1,167.16
471.2,1,167.36
471.2,1,167.56
471.2,1,167.76
471.2,1,167.96
465.74,1,168.15
465.74,1,168.35
465.74,1,168.55
465.74,1,168.75
465.74,1,168.95
459.51,1,169.15
459.51,1,169.35
459.51,1,169.55
459.51,1,169.75
459.51,1,169.95
452.46,1,170.15
452.46,1,170.34
452.46,1,170.54
452.46,1,170.74
452.46,1,170.94
444.54,1,171.14
444.54,1,171.34
444.54,1,171.54
444.54,1,171.74
444.54,1,171.94
435.71,1,172.13
435.71,1,172.33
435.71,1,172.53
435.71,1,172.73
435.71,1,172.93
425.94,1,173.13
425.94,1,173.33
425.94,1,173.53
425.94,1,173.73
425.94,1,173.93
415.2,1,174.12
415.2,1,174.32
415.2,1,174.52
415.2,1,174.72
415.2,1,174.92
403.49,1,175.12
403.49,1,175.32
403.49,1,175.52
403.49,1,175.72
403.49,1,175.92
390.82,1,176.12
390.82,1,176.31
390.82,1,176.51
390.82,1,176.71
390.82,1,176.91
377.2,1,177.11
377.2,1,177.31
377.2,1,177.51
377.2,1,177.71
377.2,1,177.91
362.67,1,178.1
362.67,1,178.3
362.67,1,178.5
362.67,1,178.7
362.67,1,178.9
347.39,1,179.1
347.39,1,179.3
347.39,1,179.5
347.39,1,179.7
347.39,1,179.9
0,1,180.1
0,1,180.29
0,1,180.49
0,1,180.69
0,1,180.89
0,1,181.09
0,1,181.29
0,1,181.49
0,1,181.69
0,1,181.89
0,1,182.09
0,1,182.28
0,1,182.48
0,1,182.68
0,1,182.88
0,1,183.08
0,1,183.28
0,1,183.48
0,1,183.68
0,1,183.88
0,1,184.07
0,1,184.27
0,1,184.47
0,1,184.67
0,1,184.87
0,1,185.07
0,1,185.27
0,1,185.47
0,1,185.67
0,1,185.87
0,1,186.07
0,1,186.26
0,1,186.46
0,1,186.66
0,1,186.86
0,1,187.06
0,1,187.26
0,1,187.46
0,1,187.66
0,1,187.86
0,1,188.05
0,1,188.25
0,1,188.45
0,1,188.65
0,1,188.85
0,1,189.05
0,1,189.25
0,1,189.45
0,1,189.65
0,1,189.85
0,1,190.04
0,1,190.24
0,1,190.44
0,1,190.64
0,1,190.84
0,1,191.04
0,1,191.24
0,1,191.44
0,1,191.64
0,1,191.84
0,1,192.04
0,1,192.23
0,1,192.43
0,1,192.63
0,1,192.83
0,1,193.03
0,1,193.23
0,1,193.43
0,1,193.63
0,1,193.83
0,1,194.02
0,1,194.22
0,1,194.42
0,1,194.62
0,1,194.82
0,1,195.02
0,1,195.22
0,1,195.42
0,1,195.62
0,1,195.82
0,1,196.01
0,1,196.21
0,1,196.41
0,1,196.61
0,1,196.81
0,1,197.01
0,1,197.21
0,1,197.41
0,1,197.61
0,1,197.81
0,1,198.01
0,1,198.2
0,1,198.4
0,1,198.6
0,1,198.8
0,1,199
