"PuMA_Matrix","vtkValidPointMask","arc_length"
0,1,0
0,1,0.199
0,1,0.398
0,1,0.597
0,1,0.796
0,1,0.995
0,1,1.194
0,1,1.393
0,1,1.592
0,1,1.791
0,1,1.99
0,1,2.189
0,1,2.388
0,1,2.587
0,1,2.786
0,1,2.985
0,1,3.184
0,1,3.383
0,1,3.582
0,1,3.781
0,1,3.98
0,1,4.179
0,1,4.378
0,1,4.577
0,1,4.776
0,1,4.975
0,1,5.174
0,1,5.373
0,1,5.572
0,1,5.771
0,1,5.97
0,1,6.169
0,1,6.368
0,1,6.567
0,1,6.766
0,1,6.965
0,1,7.164
0,1,7.363
0,1,7.562
0,1,7.761
0,1,7.96
0,1,8.159
0,1,8.358
0,1,8.557
0,1,8.756
0,1,8.955
0,1,9.154
0,1,9.353
0,1,9.552
0,1,9.751
0,1,9.95
0,1,10.149
0,1,10.348
0,1,10.547
0,1,10.746
0,1,10.945
0,1,11.144
0,1,11.343
0,1,11.542
0,1,11.741
0,1,11.94
0,1,12.139
0,1,12.338
0,1,12.537
0,1,12.736
0,1,12.935
0,1,13.134
0,1,13.333
0,1,13.532
0,1,13.731
0,1,13.93
0,1,14.129
0,1,14.328
0,1,14.527
0,1,14.726
0,1,14.925
0,1,15.124
0,1,15.323
0,1,15.522
0,1,15.721
0,1,15.92
0,1,16.119
0,1,16.318
0,1,16.517
0,1,16.716
0,1,16.915
0,1,17.114
0,1,17.313
0,1,17.512
0,1,17.711
0,1,17.91
0,1,18.109
0,1,18.308
0,1,18.507
0,1,18.706
0,1,18.905
0,1,19.104
0,1,19.303
0,1,19.502
0,1,19.701
0,1,19.9
258.3,1,20.099
258.3,1,20.298
258.3,1,20.497
258.3,1,20.696
258.3,1,20.895
269.81,1,21.094
269.81,1,21.293
269.81,1,21.492
269.81,1,21.691
269.81,1,21.89
281.2,1,22.089
281.2,1,22.288
281.2,1,22.487
281.2,1,22.686
281.2,1,22.885
292.36,1,23.084
292.36,1,23.283
292.36,1,23.482
292.36,1,23.681
292.36,1,23.88
303.27,1,24.079
303.27,1,24.278
303.27,1,24.477
303.27,1,24.676
303.27,1,24.875
313.92,1,25.074
313.92,1,25.273
313.92,1,25.472
313.92,1,25.671
313.92,1,25.87
324.29,1,26.069
324.29,1,26.268
324.29,1,26.467
324.29,1,26.666
324.29,1,26.865
334.35,1,27.064
334.35,1,27.263
334.35,1,27.462
334.35,1,27.661
334.35,1,27.86
344.11,1,28.059
344.11,1,28.258
344.11,1,28.457
344.11,1,28.656
344.11,1,28.855
353.54,1,29.054
353.54,1,29.253
353.54,1,29.452
353.54,1,29.651
353.54,1,29.85
362.64,1,30.049
362.64,1,30.248
362.64,1,30.447
362.64,1,30.646
362.64,1,30.845
371.4,1,31.044
371.4,1,31.243
371.4,1,31.442
371.4,1,31.641
371.4,1,31.84
379.82,1,32.039
379.82,1,32.238
379.82,1,32.437
379.82,1,32.636
379.82,1,32.835
387.88,1,33.034
387.88,1,33.233
387.88,1,33.432
387.88,1,33.631
387.88,1,33.83
395.59,1,34.029
395.59,1,34.228
395.59,1,34.427
395.59,1,34.626
395.59,1,34.825
402.94,1,35.024
402.94,1,35.223
402.94,1,35.422
402.94,1,35.621
402.94,1,35.82
409.94,1,36.019
409.94,1,36.218
409.94,1,36.417
409.94,1,36.616
409.94,1,36.815
416.58,1,37.014
416.58,1,37.213
416.58,1,37.412
416.58,1,37.611
416.58,1,37.81
422.88,1,38.009
422.88,1,38.208
422.88,1,38.407
422.88,1,38.606
422.88,1,38.805
428.83,1,39.004
428.83,1,39.203
428.83,1,39.402
428.83,1,39.601
428.83,1,39.8
428.83,1,39.999
434.45,1,40.198
434.45,1,40.397
434.45,1,40.596
434.45,1,40.795
434.45,1,40.994
439.73,1,41.193
439.73,1,41.392
439.73,1,41.591
439.73,1,41.79
439.73,1,41.989
444.69,1,42.188
444.69,1,42.387
444.69,1,42.586
444.69,1,42.785
444.69,1,42.984
449.34,1,43.183
449.34,1,43.382
449.34,1,43.581
449.34,1,43.78
449.34,1,43.979
453.68,1,44.178
453.68,1,44.377
453.68,1,44.576
453.68,1,44.775
453.68,1,44.974
457.73,1,45.173
457.73,1,45.372
457.73,1,45.571
457.73,1,45.77
457.73,1,45.969
461.49,1,46.168
461.49,1,46.367
461.49,1,46.566
461.49,1,46.765
461.49,1,46.964
464.99,1,47.163
464.99,1,47.362
464.99,1,47.561
464.99,1,47.76
464.99,1,47.959
468.23,1,48.158
468.23,1,48.357
468.23,1,48.556
468.23,1,48.755
468.23,1,48.954
471.22,1,49.153
471.22,1,49.352
471.22,1,49.551
471.22,1,49.75
471.22,1,49.949
473.98,1,50.148
473.98,1,50.347
473.98,1,50.546
473.98,1,50.745
473.98,1,50.944
476.51,1,51.143
476.51,1,51.342
476.51,1,51.541
476.51,1,51.74
476.51,1,51.939
478.84,1,52.138
478.84,1,52.337
478.84,1,52.536
478.84,1,52.735
478.84,1,52.934
480.98,1,53.133
480.98,1,53.332
480.98,1,53.531
480.98,1,53.73
480.98,1,53.929
482.93,1,54.128
482.93,1,54.327
482.93,1,54.526
482.93,1,54.725
482.93,1,54.924
484.7,1,55.123
484.7,1,55.322
484.7,1,55.521
484.7,1,55.72
484.7,1,55.919
486.32,1,56.118
486.32,1,56.317
486.32,1,56.516
486.32,1,56.715
486.32,1,56.914
487.79,1,57.113
487.79,1,57.312
487.79,1,57.511
487.79,1,57.71
487.79,1,57.909
489.12,1,58.108
489.12,1,58.307
489.12,1,58.506
489.12,1,58.705
489.12,1,58.904
490.32,1,59.103
490.32,1,59.302
490.32,1,59.501
490.32,1,59.7
490.32,1,59.899
491.4,1,60.098
491.4,1,60.297
491.4,1,60.496
491.4,1,60.695
491.4,1,60.894
492.38,1,61.093
492.38,1,61.292
492.38,1,61.491
492.38,1,61.69
492.38,1,61.889
493.26,1,62.088
493.26,1,62.287
493.26,1,62.486
493.26,1,62.685
493.26,1,62.884
494.04,1,63.083
494.04,1,63.282
494.04,1,63.481
494.04,1,63.68
494.04,1,63.879
494.74,1,64.078
494.74,1,64.277
494.74,1,64.476
494.74,1,64.675
494.74,1,64.874
495.37,1,65.073
495.37,1,65.272
495.37,1,65.471
495.37,1,65.67
495.37,1,65.869
495.93,1,66.068
495.93,1,66.267
495.93,1,66.466
495.93,1,66.665
495.93,1,66.864
496.43,1,67.063
496.43,1,67.262
496.43,1,67.461
496.43,1,67.66
496.43,1,67.859
496.87,1,68.058
496.87,1,68.257
496.87,1,68.456
496.87,1,68.655
496.87,1,68.854
497.26,1,69.053
497.26,1,69.252
497.26,1,69.451
497.26,1,69.65
497.26,1,69.849
497.6,1,70.048
497.6,1,70.247
497.6,1,70.446
497.6,1,70.645
497.6,1,70.844
497.9,1,71.043
497.9,1,71.242
497.9,1,71.441
497.9,1,71.64
497.9,1,71.839
498.17,1,72.038
498.17,1,72.237
498.17,1,72.436
498.17,1,72.635
498.17,1,72.834
498.41,1,73.033
498.41,1,73.232
498.41,1,73.431
498.41,1,73.63
498.41,1,73.829
498.61,1,74.028
498.61,1,74.227
498.61,1,74.426
498.61,1,74.625
498.61,1,74.824
498.79,1,75.023
498.79,1,75.222
498.79,1,75.421
498.79,1,75.62
498.79,1,75.819
498.95,1,76.018
498.95,1,76.217
498.95,1,76.416
498.95,1,76.615
498.95,1,76.814
499.09,1,77.013
499.09,1,77.212
499.09,1,77.411
499.09,1,77.61
499.09,1,77.809
499.21,1,78.008
499.21,1,78.207
499.21,1,78.406
499.21,1,78.605
499.21,1,78.804
499.31,1,79.003
499.31,1,79.202
499.31,1,79.401
499.31,1,79.6
499.31,1,79.799
499.31,1,79.998
499.41,1,80.197
499.41,1,80.396
499.41,1,80.595
499.41,1,80.794
499.41,1,80.993
499.48,1,81.192
499.48,1,81.391
499.48,1,81.59
499.48,1,81.789
499.48,1,81.988
499.55,1,82.187
499.55,1,82.386
499.55,1,82.585
499.55,1,82.784
499.55,1,82.983
499.61,1,83.182
499.61,1,83.381
499.61,1,83.58
499.61,1,83.779
499.61,1,83.978
499.66,1,84.177
499.66,1,84.376
499.66,1,84.575
499.66,1,84.774
499.66,1,84.973
499.7,1,85.172
499.7,1,85.371
499.7,1,85.57
499.7,1,85.769
499.7,1,85.968
499.74,1,86.167
499.74,1,86.366
499.74,1,86.565
499.74,1,86.764
499.74,1,86.963
499.77,1,87.162
499.77,1,87.361
499.77,1,87.56
499.77,1,87.759
499.77,1,87.958
499.8,1,88.157
499.8,1,88.356
499.8,1,88.555
499.8,1,88.754
499.8,1,88.953
499.83,1,89.152
499.83,1,89.351
499.83,1,89.55
499.83,1,89.749
499.83,1,89.948
499.84,1,90.147
499.84,1,90.346
499.84,1,90.545
499.84,1,90.744
499.84,1,90.943
499.86,1,91.142
499.86,1,91.341
499.86,1,91.54
499.86,1,91.739
499.86,1,91.938
499.88,1,92.137
499.88,1,92.336
499.88,1,92.535
499.88,1,92.734
499.88,1,92.933
499.89,1,93.132
499.89,1,93.331
499.89,1,93.53
499.89,1,93.729
499.89,1,93.928
499.9,1,94.127
499.9,1,94.326
499.9,1,94.525
499.9,1,94.724
499.9,1,94.923
499.9,1,95.122
499.9,1,95.321
499.9,1,95.52
499.9,1,95.719
499.9,1,95.918
499.91,1,96.117
499.91,1,96.316
499.91,1,96.515
499.91,1,96.714
499.91,1,96.913
499.91,1,97.112
499.91,1,97.311
499.91,1,97.51
499.91,1,97.709
499.91,1,97.908
499.92,1,98.107
499.92,1,98.306
499.92,1,98.505
499.92,1,98.704
499.92,1,98.903
499.92,1,99.102
499.92,1,99.301
499.92,1,99.5
499.92,1,99.699
499.92,1,99.898
499.92,1,100.1
499.92,1,100.3
499.92,1,100.5
499.92,1,100.69
499.92,1,100.89
499.92,1,101.09
499.92,1,101.29
499.92,1,101.49
499.92,1,101.69
499.92,1,101.89
499.91,1,102.09
499.91,1,102.29
499.91,1,102.49
499.91,1,102.68
499.91,1,102.88
499.91,1,103.08
499.91,1,103.28
499.91,1,103.48
499.91,1,103.68
499.91,1,103.88
499.9,1,104.08
499.9,1,104.28
499.9,1,104.47
499.9,1,104.67
499.9,1,104.87
499.9,1,105.07
499.9,1,105.27
499.9,1,105.47
499.9,1,105.67
499.9,1,105.87
499.89,1,106.07
499.89,1,106.27
499.89,1,106.46
499.89,1,106.66
499.89,1,106.86
499.88,1,107.06
499.88,1,107.26
499.88,1,107.46
499.88,1,107.66
499.88,1,107.86
499.86,1,108.06
499.86,1,108.26
499.86,1,108.46
499.86,1,108.65
499.86,1,108.85
499.84,1,109.05
499.84,1,109.25
499.84,1,109.45
499.84,1,109.65
499.84,1,109.85
499.83,1,110.05
499.83,1,110.25
499.83,1,110.44
499.83,1,110.64
499.83,1,110.84
499.8,1,111.04
499.8,1,111.24
499.8,1,111.44
499.8,1,111.64
499.8,1,111.84
499.77,1,112.04
499.77,1,112.24
499.77,1,112.43
499.77,1,112.63
499.77,1,112.83
499.74,1,113.03
499.74,1,113.23
499.74,1,113.43
499.74,1,113.63
499.74,1,113.83
499.7,1,114.03
499.7,1,114.23
499.7,1,114.43
499.7,1,114.62
499.7,1,114.82
499.66,1,115.02
499.66,1,115.22
499.66,1,115.42
499.66,1,115.62
499.66,1,115.82
499.61,1,116.02
499.61,1,116.22
499.61,1,116.42
499.61,1,116.61
499.61,1,116.81
499.55,1,117.01
499.55,1,117.21
499.55,1,117.41
499.55,1,117.61
499.55,1,117.81
499.48,1,118.01
499.48,1,118.21
499.48,1,118.4
499.48,1,118.6
499.48,1,118.8
499.41,1,119
499.41,1,119.2
499.41,1,119.4
499.41,1,119.6
499.41,1,119.8
499.41,1,120
499.31,1,120.2
499.31,1,120.39
499.31,1,120.59
499.31,1,120.79
499.31,1,120.99
499.21,1,121.19
499.21,1,121.39
499.21,1,121.59
499.21,1,121.79
499.21,1,121.99
499.09,1,122.19
499.09,1,122.39
499.09,1,122.58
499.09,1,122.78
499.09,1,122.98
498.95,1,123.18
498.95,1,123.38
498.95,1,123.58
498.95,1,123.78
498.95,1,123.98
498.79,1,124.18
498.79,1,124.38
498.79,1,124.57
498.79,1,124.77
498.79,1,124.97
498.61,1,125.17
498.61,1,125.37
498.61,1,125.57
498.61,1,125.77
498.61,1,125.97
498.41,1,126.17
498.41,1,126.36
498.41,1,126.56
498.41,1,126.76
498.41,1,126.96
498.17,1,127.16
498.17,1,127.36
498.17,1,127.56
498.17,1,127.76
498.17,1,127.96
497.9,1,128.16
497.9,1,128.35
497.9,1,128.55
497.9,1,128.75
497.9,1,128.95
497.6,1,129.15
497.6,1,129.35
497.6,1,129.55
497.6,1,129.75
497.6,1,129.95
497.26,1,130.15
497.26,1,130.35
497.26,1,130.54
497.26,1,130.74
497.26,1,130.94
496.87,1,131.14
496.87,1,131.34
496.87,1,131.54
496.87,1,131.74
496.87,1,131.94
496.43,1,132.14
496.43,1,132.34
496.43,1,132.53
496.43,1,132.73
496.43,1,132.93
495.93,1,133.13
495.93,1,133.33
495.93,1,133.53
495.93,1,133.73
495.93,1,133.93
495.37,1,134.13
495.37,1,134.32
495.37,1,134.52
495.37,1,134.72
495.37,1,134.92
494.74,1,135.12
494.74,1,135.32
494.74,1,135.52
494.74,1,135.72
494.74,1,135.92
494.04,1,136.12
494.04,1,136.32
494.04,1,136.51
494.04,1,136.71
494.04,1,136.91
493.26,1,137.11
493.26,1,137.31
493.26,1,137.51
493.26,1,137.71
493.26,1,137.91
492.38,1,138.11
492.38,1,138.3
492.38,1,138.5
492.38,1,138.7
492.38,1,138.9
491.4,1,139.1
491.4,1,139.3
491.4,1,139.5
491.4,1,139.7
491.4,1,139.9
490.32,1,140.1
490.32,1,140.29
490.32,1,140.49
490.32,1,140.69
490.32,1,140.89
489.12,1,141.09
489.12,1,141.29
489.12,1,141.49
489.12,1,141.69
489.12,1,141.89
487.79,1,142.09
487.79,1,142.29
487.79,1,142.48
487.79,1,142.68
487.79,1,142.88
486.32,1,143.08
486.32,1,143.28
486.32,1,143.48
486.32,1,143.68
486.32,1,143.88
484.7,1,144.08
484.7,1,144.27
484.7,1,144.47
484.7,1,144.67
484.7,1,144.87
482.93,1,145.07
482.93,1,145.27
482.93,1,145.47
482.93,1,145.67
482.93,1,145.87
480.98,1,146.07
480.98,1,146.26
480.98,1,146.46
480.98,1,146.66
480.98,1,146.86
478.84,1,147.06
478.84,1,147.26
478.84,1,147.46
478.84,1,147.66
478.84,1,147.86
476.51,1,148.06
476.51,1,148.26
476.51,1,148.45
476.51,1,148.65
476.51,1,148.85
473.98,1,149.05
473.98,1,149.25
473.98,1,149.45
473.98,1,149.65
473.98,1,149.85
471.22,1,150.05
471.22,1,150.24
471.22,1,150.44
471.22,1,150.64
471.22,1,150.84
468.23,1,151.04
468.23,1,151.24
468.23,1,151.44
468.23,1,151.64
468.23,1,151.84
464.99,1,152.04
464.99,1,152.24
464.99,1,152.43
464.99,1,152.63
464.99,1,152.83
461.49,1,153.03
461.49,1,153.23
461.49,1,153.43
461.49,1,153.63
461.49,1,153.83
457.73,1,154.03
457.73,1,154.23
457.73,1,154.42
457.73,1,154.62
457.73,1,154.82
453.68,1,155.02
453.68,1,155.22
453.68,1,155.42
453.68,1,155.62
453.68,1,155.82
449.34,1,156.02
449.34,1,156.21
449.34,1,156.41
449.34,1,156.61
449.34,1,156.81
444.69,1,157.01
444.69,1,157.21
444.69,1,157.41
444.69,1,157.61
444.69,1,157.81
439.73,1,158.01
439.73,1,158.21
439.73,1,158.4
439.73,1,158.6
439.73,1,158.8
434.45,1,159
434.45,1,159.2
434.45,1,159.4
434.45,1,159.6
434.45,1,159.8
434.45,1,160
428.83,1,160.2
428.83,1,160.39
428.83,1,160.59
428.83,1,160.79
428.83,1,160.99
422.88,1,161.19
422.88,1,161.39
422.88,1,161.59
422.88,1,161.79
422.88,1,161.99
416.58,1,162.18
416.58,1,162.38
416.58,1,162.58
416.58,1,162.78
416.58,1,162.98
409.94,1,163.18
409.94,1,163.38
409.94,1,163.58
409.94,1,163.78
409.94,1,163.98
402.94,1,164.18
402.94,1,164.37
402.94,1,164.57
402.94,1,164.77
402.94,1,164.97
395.59,1,165.17
395.59,1,165.37
395.59,1,165.57
395.59,1,165.77
395.59,1,165.97
387.88,1,166.16
387.88,1,166.36
387.88,1,166.56
387.88,1,166.76
387.88,1,166.96
379.82,1,167.16
379.82,1,167.36
379.82,1,167.56
379.82,1,167.76
379.82,1,167.96
371.4,1,168.15
371.4,1,168.35
371.4,1,168.55
371.4,1,168.75
371.4,1,168.95
362.64,1,169.15
362.64,1,169.35
362.64,1,169.55
362.64,1,169.75
362.64,1,169.95
353.54,1,170.15
353.54,1,170.34
353.54,1,170.54
353.54,1,170.74
353.54,1,170.94
344.11,1,171.14
344.11,1,171.34
344.11,1,171.54
344.11,1,171.74
344.11,1,171.94
334.35,1,172.13
334.35,1,172.33
334.35,1,172.53
334.35,1,172.73
334.35,1,172.93
324.29,1,173.13
324.29,1,173.33
324.29,1,173.53
324.29,1,173.73
324.29,1,173.93
313.92,1,174.12
313.92,1,174.32
313.92,1,174.52
313.92,1,174.72
313.92,1,174.92
303.27,1,175.12
303.27,1,175.32
303.27,1,175.52
303.27,1,175.72
303.27,1,175.92
292.36,1,176.12
292.36,1,176.31
292.36,1,176.51
292.36,1,176.71
292.36,1,176.91
281.2,1,177.11
281.2,1,177.31
281.2,1,177.51
281.2,1,177.71
281.2,1,177.91
269.81,1,178.1
269.81,1,178.3
269.81,1,178.5
269.81,1,178.7
269.81,1,178.9
258.3,1,179.1
258.3,1,179.3
258.3,1,179.5
258.3,1,179.7
258.3,1,179.9
0,1,180.1
0,1,180.29
0,1,180.49
0,1,180.69
0,1,180.89
0,1,181.09
0,1,181.29
0,1,181.49
0,1,181.69
0,1,181.89
0,1,182.09
0,1,182.28
0,1,182.48
0,1,182.68
0,1,182.88
0,1,183.08
0,1,183.28
0,1,183.48
0,1,183.68
0,1,183.88
0,1,184.07
0,1,184.27
0,1,184.47
0,1,184.67
0,1,184.87
0,1,185.07
0,1,185.27
0,1,185.47
0,1,185.67
0,1,185.87
0,1,186.07
0,1,186.26
0,1,186.46
0,1,186.66
0,1,186.86
0,1,187.06
0,1,187.26
0,1,187.46
0,1,187.66
0,1,187.86
0,1,188.05
0,1,188.25
0,1,188.45
0,1,188.65
0,1,188.85
0,1,189.05
0,1,189.25
0,1,189.45
0,1,189.65
0,1,189.85
0,1,190.04
0,1,190.24
0,1,190.44
0,1,190.64
0,1,190.84
0,1,191.04
0,1,191.24
0,1,191.44
0,1,191.64
0,1,191.84
0,1,192.04
0,1,192.23
0,1,192.43
0,1,192.63
0,1,192.83
0,1,193.03
0,1,193.23
0,1,193.43
0,1,193.63
0,1,193.83
0,1,194.02
0,1,194.22
0,1,194.42
0,1,194.62
0,1,194.82
0,1,195.02
0,1,195.22
0,1,195.42
0,1,195.62
0,1,195.82
0,1,196.01
0,1,196.21
0,1,196.41
0,1,196.61
0,1,196.81
0,1,197.01
0,1,197.21
0,1,197.41
0,1,197.61
0,1,197.81
0,1,198.01
0,1,198.2
0,1,198.4
0,1,198.6
0,1,198.8
0,1,199
