"PuMA_Matrix","vtkValidPointMask","arc_length"
0,1,0
0,1,0.199
0,1,0.398
0,1,0.597
0,1,0.796
0,1,0.995
0,1,1.194
0,1,1.393
0,1,1.592
0,1,1.791
0,1,1.99
0,1,2.189
0,1,2.388
0,1,2.587
0,1,2.786
0,1,2.985
0,1,3.184
0,1,3.383
0,1,3.582
0,1,3.781
0,1,3.98
0,1,4.179
0,1,4.378
0,1,4.577
0,1,4.776
0,1,4.975
0,1,5.174
0,1,5.373
0,1,5.572
0,1,5.771
0,1,5.97
0,1,6.169
0,1,6.368
0,1,6.567
0,1,6.766
0,1,6.965
0,1,7.164
0,1,7.363
0,1,7.562
0,1,7.761
0,1,7.96
0,1,8.159
0,1,8.358
0,1,8.557
0,1,8.756
0,1,8.955
0,1,9.154
0,1,9.353
0,1,9.552
0,1,9.751
0,1,9.95
0,1,10.149
0,1,10.348
0,1,10.547
0,1,10.746
0,1,10.945
0,1,11.144
0,1,11.343
0,1,11.542
0,1,11.741
0,1,11.94
0,1,12.139
0,1,12.338
0,1,12.537
0,1,12.736
0,1,12.935
0,1,13.134
0,1,13.333
0,1,13.532
0,1,13.731
0,1,13.93
0,1,14.129
0,1,14.328
0,1,14.527
0,1,14.726
0,1,14.925
0,1,15.124
0,1,15.323
0,1,15.522
0,1,15.721
0,1,15.92
0,1,16.119
0,1,16.318
0,1,16.517
0,1,16.716
0,1,16.915
0,1,17.114
0,1,17.313
0,1,17.512
0,1,17.711
0,1,17.91
0,1,18.109
0,1,18.308
0,1,18.507
0,1,18.706
0,1,18.905
0,1,19.104
0,1,19.303
0,1,19.502
0,1,19.701
0,1,19.9
269,1,20.099
269,1,20.298
269,1,20.497
269,1,20.696
269,1,20.895
281,1,21.094
281,1,21.293
281,1,21.492
281,1,21.691
281,1,21.89
292.83,1,22.089
292.83,1,22.288
292.83,1,22.487
292.83,1,22.686
292.83,1,22.885
304.38,1,23.084
304.38,1,23.283
304.38,1,23.482
304.38,1,23.681
304.38,1,23.88
315.64,1,24.079
315.64,1,24.278
315.64,1,24.477
315.64,1,24.676
315.64,1,24.875
326.59,1,25.074
326.59,1,25.273
326.59,1,25.472
326.59,1,25.671
326.59,1,25.87
337.19,1,26.069
337.19,1,26.268
337.19,1,26.467
337.19,1,26.666
337.19,1,26.865
347.45,1,27.064
347.45,1,27.263
347.45,1,27.462
347.45,1,27.661
347.45,1,27.86
357.34,1,28.059
357.34,1,28.258
357.34,1,28.457
357.34,1,28.656
357.34,1,28.855
366.85,1,29.054
366.85,1,29.253
366.85,1,29.452
366.85,1,29.651
366.85,1,29.85
375.98,1,30.049
375.98,1,30.248
375.98,1,30.447
375.98,1,30.646
375.98,1,30.845
384.72,1,31.044
384.72,1,31.243
384.72,1,31.442
384.72,1,31.641
384.72,1,31.84
393.06,1,32.039
393.06,1,32.238
393.06,1,32.437
393.06,1,32.636
393.06,1,32.835
401,1,33.034
401,1,33.233
401,1,33.432
401,1,33.631
401,1,33.83
408.54,1,34.029
408.54,1,34.228
408.54,1,34.427
408.54,1,34.626
408.54,1,34.825
415.69,1,35.024
415.69,1,35.223
415.69,1,35.422
415.69,1,35.621
415.69,1,35.82
422.44,1,36.019
422.44,1,36.218
422.44,1,36.417
422.44,1,36.616
422.44,1,36.815
428.8,1,37.014
428.8,1,37.213
428.8,1,37.412
428.8,1,37.611
428.8,1,37.81
434.77,1,38.009
434.77,1,38.208
434.77,1,38.407
434.77,1,38.606
434.77,1,38.805
440.38,1,39.004
440.38,1,39.203
440.38,1,39.402
440.38,1,39.601
440.38,1,39.8
440.38,1,39.999
445.62,1,40.198
445.62,1,40.397
445.62,1,40.596
445.62,1,40.795
445.62,1,40.994
450.5,1,41.193
450.5,1,41.392
450.5,1,41.591
450.5,1,41.79
450.5,1,41.989
455.05,1,42.188
455.05,1,42.387
455.05,1,42.586
455.05,1,42.785
455.05,1,42.984
459.26,1,43.183
459.26,1,43.382
459.26,1,43.581
459.26,1,43.78
459.26,1,43.979
463.16,1,44.178
463.16,1,44.377
463.16,1,44.576
463.16,1,44.775
463.16,1,44.974
466.76,1,45.173
466.76,1,45.372
466.76,1,45.571
466.76,1,45.77
466.76,1,45.969
470.07,1,46.168
470.07,1,46.367
470.07,1,46.566
470.07,1,46.765
470.07,1,46.964
473.12,1,47.163
473.12,1,47.362
473.12,1,47.561
473.12,1,47.76
473.12,1,47.959
475.9,1,48.158
475.9,1,48.357
475.9,1,48.556
475.9,1,48.755
475.9,1,48.954
478.44,1,49.153
478.44,1,49.352
478.44,1,49.551
478.44,1,49.75
478.44,1,49.949
480.76,1,50.148
480.76,1,50.347
480.76,1,50.546
480.76,1,50.745
480.76,1,50.944
482.87,1,51.143
482.87,1,51.342
482.87,1,51.541
482.87,1,51.74
482.87,1,51.939
484.77,1,52.138
484.77,1,52.337
484.77,1,52.536
484.77,1,52.735
484.77,1,52.934
486.5,1,53.133
486.5,1,53.332
486.5,1,53.531
486.5,1,53.73
486.5,1,53.929
488.05,1,54.128
488.05,1,54.327
488.05,1,54.526
488.05,1,54.725
488.05,1,54.924
489.45,1,55.123
489.45,1,55.322
489.45,1,55.521
489.45,1,55.72
489.45,1,55.919
490.71,1,56.118
490.71,1,56.317
490.71,1,56.516
490.71,1,56.715
490.71,1,56.914
491.83,1,57.113
491.83,1,57.312
491.83,1,57.511
491.83,1,57.71
491.83,1,57.909
492.83,1,58.108
492.83,1,58.307
492.83,1,58.506
492.83,1,58.705
492.83,1,58.904
493.73,1,59.103
493.73,1,59.302
493.73,1,59.501
493.73,1,59.7
493.73,1,59.899
494.52,1,60.098
494.52,1,60.297
494.52,1,60.496
494.52,1,60.695
494.52,1,60.894
495.22,1,61.093
495.22,1,61.292
495.22,1,61.491
495.22,1,61.69
495.22,1,61.889
495.84,1,62.088
495.84,1,62.287
495.84,1,62.486
495.84,1,62.685
495.84,1,62.884
496.39,1,63.083
496.39,1,63.282
496.39,1,63.481
496.39,1,63.68
496.39,1,63.879
496.87,1,64.078
496.87,1,64.277
496.87,1,64.476
496.87,1,64.675
496.87,1,64.874
497.29,1,65.073
497.29,1,65.272
497.29,1,65.471
497.29,1,65.67
497.29,1,65.869
497.66,1,66.068
497.66,1,66.267
497.66,1,66.466
497.66,1,66.665
497.66,1,66.864
497.98,1,67.063
497.98,1,67.262
497.98,1,67.461
497.98,1,67.66
497.98,1,67.859
498.27,1,68.058
498.27,1,68.257
498.27,1,68.456
498.27,1,68.655
498.27,1,68.854
498.51,1,69.053
498.51,1,69.252
498.51,1,69.451
498.51,1,69.65
498.51,1,69.849
498.72,1,70.048
498.72,1,70.247
498.72,1,70.446
498.72,1,70.645
498.72,1,70.844
498.91,1,71.043
498.91,1,71.242
498.91,1,71.441
498.91,1,71.64
498.91,1,71.839
499.07,1,72.038
499.07,1,72.237
499.07,1,72.436
499.07,1,72.635
499.07,1,72.834
499.2,1,73.033
499.2,1,73.232
499.2,1,73.431
499.2,1,73.63
499.2,1,73.829
499.32,1,74.028
499.32,1,74.227
499.32,1,74.426
499.32,1,74.625
499.32,1,74.824
499.42,1,75.023
499.42,1,75.222
499.42,1,75.421
499.42,1,75.62
499.42,1,75.819
499.51,1,76.018
499.51,1,76.217
499.51,1,76.416
499.51,1,76.615
499.51,1,76.814
499.58,1,77.013
499.58,1,77.212
499.58,1,77.411
499.58,1,77.61
499.58,1,77.809
499.65,1,78.008
499.65,1,78.207
499.65,1,78.406
499.65,1,78.605
499.65,1,78.804
499.7,1,79.003
499.7,1,79.202
499.7,1,79.401
499.7,1,79.6
499.7,1,79.799
499.7,1,79.998
499.74,1,80.197
499.74,1,80.396
499.74,1,80.595
499.74,1,80.794
499.74,1,80.993
499.78,1,81.192
499.78,1,81.391
499.78,1,81.59
499.78,1,81.789
499.78,1,81.988
499.82,1,82.187
499.82,1,82.386
499.82,1,82.585
499.82,1,82.784
499.82,1,82.983
499.84,1,83.182
499.84,1,83.381
499.84,1,83.58
499.84,1,83.779
499.84,1,83.978
499.87,1,84.177
499.87,1,84.376
499.87,1,84.575
499.87,1,84.774
499.87,1,84.973
499.89,1,85.172
499.89,1,85.371
499.89,1,85.57
499.89,1,85.769
499.89,1,85.968
499.9,1,86.167
499.9,1,86.366
499.9,1,86.565
499.9,1,86.764
499.9,1,86.963
499.92,1,87.162
499.92,1,87.361
499.92,1,87.56
499.92,1,87.759
499.92,1,87.958
499.93,1,88.157
499.93,1,88.356
499.93,1,88.555
499.93,1,88.754
499.93,1,88.953
499.94,1,89.152
499.94,1,89.351
499.94,1,89.55
499.94,1,89.749
499.94,1,89.948
499.95,1,90.147
499.95,1,90.346
499.95,1,90.545
499.95,1,90.744
499.95,1,90.943
499.95,1,91.142
499.95,1,91.341
499.95,1,91.54
499.95,1,91.739
499.95,1,91.938
499.96,1,92.137
499.96,1,92.336
499.96,1,92.535
499.96,1,92.734
499.96,1,92.933
499.96,1,93.132
499.96,1,93.331
499.96,1,93.53
499.96,1,93.729
499.96,1,93.928
499.97,1,94.127
499.97,1,94.326
499.97,1,94.525
499.97,1,94.724
499.97,1,94.923
499.97,1,95.122
499.97,1,95.321
499.97,1,95.52
499.97,1,95.719
499.97,1,95.918
499.97,1,96.117
499.97,1,96.316
499.97,1,96.515
499.97,1,96.714
499.97,1,96.913
499.97,1,97.112
499.97,1,97.311
499.97,1,97.51
499.97,1,97.709
499.97,1,97.908
499.98,1,98.107
499.98,1,98.306
499.98,1,98.505
499.98,1,98.704
499.98,1,98.903
499.98,1,99.102
499.98,1,99.301
499.98,1,99.5
499.98,1,99.699
499.98,1,99.898
499.98,1,100.1
499.98,1,100.3
499.98,1,100.5
499.98,1,100.69
499.98,1,100.89
499.98,1,101.09
499.98,1,101.29
499.98,1,101.49
499.98,1,101.69
499.98,1,101.89
499.97,1,102.09
499.97,1,102.29
499.97,1,102.49
499.97,1,102.68
499.97,1,102.88
499.97,1,103.08
499.97,1,103.28
499.97,1,103.48
499.97,1,103.68
499.97,1,103.88
499.97,1,104.08
499.97,1,104.28
499.97,1,104.47
499.97,1,104.67
499.97,1,104.87
499.97,1,105.07
499.97,1,105.27
499.97,1,105.47
499.97,1,105.67
499.97,1,105.87
499.96,1,106.07
499.96,1,106.27
499.96,1,106.46
499.96,1,106.66
499.96,1,106.86
499.96,1,107.06
499.96,1,107.26
499.96,1,107.46
499.96,1,107.66
499.96,1,107.86
499.95,1,108.06
499.95,1,108.26
499.95,1,108.46
499.95,1,108.65
499.95,1,108.85
499.95,1,109.05
499.95,1,109.25
499.95,1,109.45
499.95,1,109.65
499.95,1,109.85
499.94,1,110.05
499.94,1,110.25
499.94,1,110.44
499.94,1,110.64
499.94,1,110.84
499.93,1,111.04
499.93,1,111.24
499.93,1,111.44
499.93,1,111.64
499.93,1,111.84
499.92,1,112.04
499.92,1,112.24
499.92,1,112.43
499.92,1,112.63
499.92,1,112.83
499.9,1,113.03
499.9,1,113.23
499.9,1,113.43
499.9,1,113.63
499.9,1,113.83
499.89,1,114.03
499.89,1,114.23
499.89,1,114.43
499.89,1,114.62
499.89,1,114.82
499.87,1,115.02
499.87,1,115.22
499.87,1,115.42
499.87,1,115.62
499.87,1,115.82
499.84,1,116.02
499.84,1,116.22
499.84,1,116.42
499.84,1,116.61
499.84,1,116.81
499.82,1,117.01
499.82,1,117.21
499.82,1,117.41
499.82,1,117.61
499.82,1,117.81
499.78,1,118.01
499.78,1,118.21
499.78,1,118.4
499.78,1,118.6
499.78,1,118.8
499.74,1,119
499.74,1,119.2
499.74,1,119.4
499.74,1,119.6
499.74,1,119.8
499.74,1,120
499.7,1,120.2
499.7,1,120.39
499.7,1,120.59
499.7,1,120.79
499.7,1,120.99
499.65,1,121.19
499.65,1,121.39
499.65,1,121.59
499.65,1,121.79
499.65,1,121.99
499.58,1,122.19
499.58,1,122.39
499.58,1,122.58
499.58,1,122.78
499.58,1,122.98
499.51,1,123.18
499.51,1,123.38
499.51,1,123.58
499.51,1,123.78
499.51,1,123.98
499.42,1,124.18
499.42,1,124.38
499.42,1,124.57
499.42,1,124.77
499.42,1,124.97
499.32,1,125.17
499.32,1,125.37
499.32,1,125.57
499.32,1,125.77
499.32,1,125.97
499.2,1,126.17
499.2,1,126.36
499.2,1,126.56
499.2,1,126.76
499.2,1,126.96
499.07,1,127.16
499.07,1,127.36
499.07,1,127.56
499.07,1,127.76
499.07,1,127.96
498.91,1,128.16
498.91,1,128.35
498.91,1,128.55
498.91,1,128.75
498.91,1,128.95
498.72,1,129.15
498.72,1,129.35
498.72,1,129.55
498.72,1,129.75
498.72,1,129.95
498.51,1,130.15
498.51,1,130.35
498.51,1,130.54
498.51,1,130.74
498.51,1,130.94
498.27,1,131.14
498.27,1,131.34
498.27,1,131.54
498.27,1,131.74
498.27,1,131.94
497.98,1,132.14
497.98,1,132.34
497.98,1,132.53
497.98,1,132.73
497.98,1,132.93
497.66,1,133.13
497.66,1,133.33
497.66,1,133.53
497.66,1,133.73
497.66,1,133.93
497.29,1,134.13
497.29,1,134.32
497.29,1,134.52
497.29,1,134.72
497.29,1,134.92
496.87,1,135.12
496.87,1,135.32
496.87,1,135.52
496.87,1,135.72
496.87,1,135.92
496.39,1,136.12
496.39,1,136.32
496.39,1,136.51
496.39,1,136.71
496.39,1,136.91
495.84,1,137.11
495.84,1,137.31
495.84,1,137.51
495.84,1,137.71
495.84,1,137.91
495.22,1,138.11
495.22,1,138.3
495.22,1,138.5
495.22,1,138.7
495.22,1,138.9
494.52,1,139.1
494.52,1,139.3
494.52,1,139.5
494.52,1,139.7
494.52,1,139.9
493.73,1,140.1
493.73,1,140.29
493.73,1,140.49
493.73,1,140.69
493.73,1,140.89
492.83,1,141.09
492.83,1,141.29
492.83,1,141.49
492.83,1,141.69
492.83,1,141.89
491.83,1,142.09
491.83,1,142.29
491.83,1,142.48
491.83,1,142.68
491.83,1,142.88
490.71,1,143.08
490.71,1,143.28
490.71,1,143.48
490.71,1,143.68
490.71,1,143.88
489.45,1,144.08
489.45,1,144.27
489.45,1,144.47
489.45,1,144.67
489.45,1,144.87
488.05,1,145.07
488.05,1,145.27
488.05,1,145.47
488.05,1,145.67
488.05,1,145.87
486.5,1,146.07
486.5,1,146.26
486.5,1,146.46
486.5,1,146.66
486.5,1,146.86
484.77,1,147.06
484.77,1,147.26
484.77,1,147.46
484.77,1,147.66
484.77,1,147.86
482.87,1,148.06
482.87,1,148.26
482.87,1,148.45
482.87,1,148.65
482.87,1,148.85
480.76,1,149.05
480.76,1,149.25
480.76,1,149.45
480.76,1,149.65
480.76,1,149.85
478.44,1,150.05
478.44,1,150.24
478.44,1,150.44
478.44,1,150.64
478.44,1,150.84
475.9,1,151.04
475.9,1,151.24
475.9,1,151.44
475.9,1,151.64
475.9,1,151.84
473.12,1,152.04
473.12,1,152.24
473.12,1,152.43
473.12,1,152.63
473.12,1,152.83
470.07,1,153.03
470.07,1,153.23
470.07,1,153.43
470.07,1,153.63
470.07,1,153.83
466.76,1,154.03
466.76,1,154.23
466.76,1,154.42
466.76,1,154.62
466.76,1,154.82
463.16,1,155.02
463.16,1,155.22
463.16,1,155.42
463.16,1,155.62
463.16,1,155.82
459.26,1,156.02
459.26,1,156.21
459.26,1,156.41
459.26,1,156.61
459.26,1,156.81
455.05,1,157.01
455.05,1,157.21
455.05,1,157.41
455.05,1,157.61
455.05,1,157.81
450.5,1,158.01
450.5,1,158.21
450.5,1,158.4
450.5,1,158.6
450.5,1,158.8
445.62,1,159
445.62,1,159.2
445.62,1,159.4
445.62,1,159.6
445.62,1,159.8
445.62,1,160
440.38,1,160.2
440.38,1,160.39
440.38,1,160.59
440.38,1,160.79
440.38,1,160.99
434.77,1,161.19
434.77,1,161.39
434.77,1,161.59
434.77,1,161.79
434.77,1,161.99
428.8,1,162.18
428.8,1,162.38
428.8,1,162.58
428.8,1,162.78
428.8,1,162.98
422.44,1,163.18
422.44,1,163.38
422.44,1,163.58
422.44,1,163.78
422.44,1,163.98
415.69,1,164.18
415.69,1,164.37
415.69,1,164.57
415.69,1,164.77
415.69,1,164.97
408.54,1,165.17
408.54,1,165.37
408.54,1,165.57
408.54,1,165.77
408.54,1,165.97
401,1,166.16
401,1,166.36
401,1,166.56
401,1,166.76
401,1,166.96
393.06,1,167.16
393.06,1,167.36
393.06,1,167.56
393.06,1,167.76
393.06,1,167.96
384.72,1,168.15
384.72,1,168.35
384.72,1,168.55
384.72,1,168.75
384.72,1,168.95
375.98,1,169.15
375.98,1,169.35
375.98,1,169.55
375.98,1,169.75
375.98,1,169.95
366.85,1,170.15
366.85,1,170.34
366.85,1,170.54
366.85,1,170.74
366.85,1,170.94
357.34,1,171.14
357.34,1,171.34
357.34,1,171.54
357.34,1,171.74
357.34,1,171.94
347.45,1,172.13
347.45,1,172.33
347.45,1,172.53
347.45,1,172.73
347.45,1,172.93
337.19,1,173.13
337.19,1,173.33
337.19,1,173.53
337.19,1,173.73
337.19,1,173.93
326.59,1,174.12
326.59,1,174.32
326.59,1,174.52
326.59,1,174.72
326.59,1,174.92
315.64,1,175.12
315.64,1,175.32
315.64,1,175.52
315.64,1,175.72
315.64,1,175.92
304.38,1,176.12
304.38,1,176.31
304.38,1,176.51
304.38,1,176.71
304.38,1,176.91
292.83,1,177.11
292.83,1,177.31
292.83,1,177.51
292.83,1,177.71
292.83,1,177.91
281,1,178.1
281,1,178.3
281,1,178.5
281,1,178.7
281,1,178.9
269,1,179.1
269,1,179.3
269,1,179.5
269,1,179.7
269,1,179.9
0,1,180.1
0,1,180.29
0,1,180.49
0,1,180.69
0,1,180.89
0,1,181.09
0,1,181.29
0,1,181.49
0,1,181.69
0,1,181.89
0,1,182.09
0,1,182.28
0,1,182.48
0,1,182.68
0,1,182.88
0,1,183.08
0,1,183.28
0,1,183.48
0,1,183.68
0,1,183.88
0,1,184.07
0,1,184.27
0,1,184.47
0,1,184.67
0,1,184.87
0,1,185.07
0,1,185.27
0,1,185.47
0,1,185.67
0,1,185.87
0,1,186.07
0,1,186.26
0,1,186.46
0,1,186.66
0,1,186.86
0,1,187.06
0,1,187.26
0,1,187.46
0,1,187.66
0,1,187.86
0,1,188.05
0,1,188.25
0,1,188.45
0,1,188.65
0,1,188.85
0,1,189.05
0,1,189.25
0,1,189.45
0,1,189.65
0,1,189.85
0,1,190.04
0,1,190.24
0,1,190.44
0,1,190.64
0,1,190.84
0,1,191.04
0,1,191.24
0,1,191.44
0,1,191.64
0,1,191.84
0,1,192.04
0,1,192.23
0,1,192.43
0,1,192.63
0,1,192.83
0,1,193.03
0,1,193.23
0,1,193.43
0,1,193.63
0,1,193.83
0,1,194.02
0,1,194.22
0,1,194.42
0,1,194.62
0,1,194.82
0,1,195.02
0,1,195.22
0,1,195.42
0,1,195.62
0,1,195.82
0,1,196.01
0,1,196.21
0,1,196.41
0,1,196.61
0,1,196.81
0,1,197.01
0,1,197.21
0,1,197.41
0,1,197.61
0,1,197.81
0,1,198.01
0,1,198.2
0,1,198.4
0,1,198.6
0,1,198.8
0,1,199
