"PuMA_Matrix","vtkValidPointMask","arc_length"
0,1,0
0,1,0.199
0,1,0.398
0,1,0.597
0,1,0.796
0,1,0.995
0,1,1.194
0,1,1.393
0,1,1.592
0,1,1.791
0,1,1.99
0,1,2.189
0,1,2.388
0,1,2.587
0,1,2.786
0,1,2.985
0,1,3.184
0,1,3.383
0,1,3.582
0,1,3.781
0,1,3.98
0,1,4.179
0,1,4.378
0,1,4.577
0,1,4.776
0,1,4.975
0,1,5.174
0,1,5.373
0,1,5.572
0,1,5.771
0,1,5.97
0,1,6.169
0,1,6.368
0,1,6.567
0,1,6.766
0,1,6.965
0,1,7.164
0,1,7.363
0,1,7.562
0,1,7.761
0,1,7.96
0,1,8.159
0,1,8.358
0,1,8.557
0,1,8.756
0,1,8.955
0,1,9.154
0,1,9.353
0,1,9.552
0,1,9.751
0,1,9.95
0,1,10.149
0,1,10.348
0,1,10.547
0,1,10.746
0,1,10.945
0,1,11.144
0,1,11.343
0,1,11.542
0,1,11.741
0,1,11.94
0,1,12.139
0,1,12.338
0,1,12.537
0,1,12.736
0,1,12.935
0,1,13.134
0,1,13.333
0,1,13.532
0,1,13.731
0,1,13.93
0,1,14.129
0,1,14.328
0,1,14.527
0,1,14.726
0,1,14.925
0,1,15.124
0,1,15.323
0,1,15.522
0,1,15.721
0,1,15.92
0,1,16.119
0,1,16.318
0,1,16.517
0,1,16.716
0,1,16.915
0,1,17.114
0,1,17.313
0,1,17.512
0,1,17.711
0,1,17.91
0,1,18.109
0,1,18.308
0,1,18.507
0,1,18.706
0,1,18.905
0,1,19.104
0,1,19.303
0,1,19.502
0,1,19.701
0,1,19.9
270.98,1,20.099
270.98,1,20.298
270.98,1,20.497
270.98,1,20.696
270.98,1,20.895
283.07,1,21.094
283.07,1,21.293
283.07,1,21.492
283.07,1,21.691
283.07,1,21.89
294.98,1,22.089
294.98,1,22.288
294.98,1,22.487
294.98,1,22.686
294.98,1,22.885
306.61,1,23.084
306.61,1,23.283
306.61,1,23.482
306.61,1,23.681
306.61,1,23.88
317.93,1,24.079
317.93,1,24.278
317.93,1,24.477
317.93,1,24.676
317.93,1,24.875
328.93,1,25.074
328.93,1,25.273
328.93,1,25.472
328.93,1,25.671
328.93,1,25.87
339.57,1,26.069
339.57,1,26.268
339.57,1,26.467
339.57,1,26.666
339.57,1,26.865
349.86,1,27.064
349.86,1,27.263
349.86,1,27.462
349.86,1,27.661
349.86,1,27.86
359.77,1,28.059
359.77,1,28.258
359.77,1,28.457
359.77,1,28.656
359.77,1,28.855
369.29,1,29.054
369.29,1,29.253
369.29,1,29.452
369.29,1,29.651
369.29,1,29.85
378.42,1,30.049
378.42,1,30.248
378.42,1,30.447
378.42,1,30.646
378.42,1,30.845
387.15,1,31.044
387.15,1,31.243
387.15,1,31.442
387.15,1,31.641
387.15,1,31.84
395.47,1,32.039
395.47,1,32.238
395.47,1,32.437
395.47,1,32.636
395.47,1,32.835
403.38,1,33.034
403.38,1,33.233
403.38,1,33.432
403.38,1,33.631
403.38,1,33.83
410.88,1,34.029
410.88,1,34.228
410.88,1,34.427
410.88,1,34.626
410.88,1,34.825
417.98,1,35.024
417.98,1,35.223
417.98,1,35.422
417.98,1,35.621
417.98,1,35.82
424.67,1,36.019
424.67,1,36.218
424.67,1,36.417
424.67,1,36.616
424.67,1,36.815
430.97,1,37.014
430.97,1,37.213
430.97,1,37.412
430.97,1,37.611
430.97,1,37.81
436.88,1,38.009
436.88,1,38.208
436.88,1,38.407
436.88,1,38.606
436.88,1,38.805
442.41,1,39.004
442.41,1,39.203
442.41,1,39.402
442.41,1,39.601
442.41,1,39.8
442.41,1,39.999
447.58,1,40.198
447.58,1,40.397
447.58,1,40.596
447.58,1,40.795
447.58,1,40.994
452.38,1,41.193
452.38,1,41.392
452.38,1,41.591
452.38,1,41.79
452.38,1,41.989
456.84,1,42.188
456.84,1,42.387
456.84,1,42.586
456.84,1,42.785
456.84,1,42.984
460.97,1,43.183
460.97,1,43.382
460.97,1,43.581
460.97,1,43.78
460.97,1,43.979
464.79,1,44.178
464.79,1,44.377
464.79,1,44.576
464.79,1,44.775
464.79,1,44.974
468.3,1,45.173
468.3,1,45.372
468.3,1,45.571
468.3,1,45.77
468.3,1,45.969
471.53,1,46.168
471.53,1,46.367
471.53,1,46.566
471.53,1,46.765
471.53,1,46.964
474.48,1,47.163
474.48,1,47.362
474.48,1,47.561
474.48,1,47.76
474.48,1,47.959
477.18,1,48.158
477.18,1,48.357
477.18,1,48.556
477.18,1,48.755
477.18,1,48.954
479.64,1,49.153
479.64,1,49.352
479.64,1,49.551
479.64,1,49.75
479.64,1,49.949
481.88,1,50.148
481.88,1,50.347
481.88,1,50.546
481.88,1,50.745
481.88,1,50.944
483.9,1,51.143
483.9,1,51.342
483.9,1,51.541
483.9,1,51.74
483.9,1,51.939
485.74,1,52.138
485.74,1,52.337
485.74,1,52.536
485.74,1,52.735
485.74,1,52.934
487.39,1,53.133
487.39,1,53.332
487.39,1,53.531
487.39,1,53.73
487.39,1,53.929
488.87,1,54.128
488.87,1,54.327
488.87,1,54.526
488.87,1,54.725
488.87,1,54.924
490.2,1,55.123
490.2,1,55.322
490.2,1,55.521
490.2,1,55.72
490.2,1,55.919
491.4,1,56.118
491.4,1,56.317
491.4,1,56.516
491.4,1,56.715
491.4,1,56.914
492.46,1,57.113
492.46,1,57.312
492.46,1,57.511
492.46,1,57.71
492.46,1,57.909
493.4,1,58.108
493.4,1,58.307
493.4,1,58.506
493.4,1,58.705
493.4,1,58.904
494.24,1,59.103
494.24,1,59.302
494.24,1,59.501
494.24,1,59.7
494.24,1,59.899
494.99,1,60.098
494.99,1,60.297
494.99,1,60.496
494.99,1,60.695
494.99,1,60.894
495.64,1,61.093
495.64,1,61.292
495.64,1,61.491
495.64,1,61.69
495.64,1,61.889
496.22,1,62.088
496.22,1,62.287
496.22,1,62.486
496.22,1,62.685
496.22,1,62.884
496.73,1,63.083
496.73,1,63.282
496.73,1,63.481
496.73,1,63.68
496.73,1,63.879
497.18,1,64.078
497.18,1,64.277
497.18,1,64.476
497.18,1,64.675
497.18,1,64.874
497.57,1,65.073
497.57,1,65.272
497.57,1,65.471
497.57,1,65.67
497.57,1,65.869
497.91,1,66.068
497.91,1,66.267
497.91,1,66.466
497.91,1,66.665
497.91,1,66.864
498.2,1,67.063
498.2,1,67.262
498.2,1,67.461
498.2,1,67.66
498.2,1,67.859
498.46,1,68.058
498.46,1,68.257
498.46,1,68.456
498.46,1,68.655
498.46,1,68.854
498.68,1,69.053
498.68,1,69.252
498.68,1,69.451
498.68,1,69.65
498.68,1,69.849
498.87,1,70.048
498.87,1,70.247
498.87,1,70.446
498.87,1,70.645
498.87,1,70.844
499.04,1,71.043
499.04,1,71.242
499.04,1,71.441
499.04,1,71.64
499.04,1,71.839
499.18,1,72.038
499.18,1,72.237
499.18,1,72.436
499.18,1,72.635
499.18,1,72.834
499.31,1,73.033
499.31,1,73.232
499.31,1,73.431
499.31,1,73.63
499.31,1,73.829
499.41,1,74.028
499.41,1,74.227
499.41,1,74.426
499.41,1,74.625
499.41,1,74.824
499.5,1,75.023
499.5,1,75.222
499.5,1,75.421
499.5,1,75.62
499.5,1,75.819
499.58,1,76.018
499.58,1,76.217
499.58,1,76.416
499.58,1,76.615
499.58,1,76.814
499.64,1,77.013
499.64,1,77.212
499.64,1,77.411
499.64,1,77.61
499.64,1,77.809
499.7,1,78.008
499.7,1,78.207
499.7,1,78.406
499.7,1,78.605
499.7,1,78.804
499.74,1,79.003
499.74,1,79.202
499.74,1,79.401
499.74,1,79.6
499.74,1,79.799
499.74,1,79.998
499.78,1,80.197
499.78,1,80.396
499.78,1,80.595
499.78,1,80.794
499.78,1,80.993
499.82,1,81.192
499.82,1,81.391
499.82,1,81.59
499.82,1,81.789
499.82,1,81.988
499.85,1,82.187
499.85,1,82.386
499.85,1,82.585
499.85,1,82.784
499.85,1,82.983
499.87,1,83.182
499.87,1,83.381
499.87,1,83.58
499.87,1,83.779
499.87,1,83.978
499.89,1,84.177
499.89,1,84.376
499.89,1,84.575
499.89,1,84.774
499.89,1,84.973
499.91,1,85.172
499.91,1,85.371
499.91,1,85.57
499.91,1,85.769
499.91,1,85.968
499.92,1,86.167
499.92,1,86.366
499.92,1,86.565
499.92,1,86.764
499.92,1,86.963
499.93,1,87.162
499.93,1,87.361
499.93,1,87.56
499.93,1,87.759
499.93,1,87.958
499.94,1,88.157
499.94,1,88.356
499.94,1,88.555
499.94,1,88.754
499.94,1,88.953
499.95,1,89.152
499.95,1,89.351
499.95,1,89.55
499.95,1,89.749
499.95,1,89.948
499.96,1,90.147
499.96,1,90.346
499.96,1,90.545
499.96,1,90.744
499.96,1,90.943
499.96,1,91.142
499.96,1,91.341
499.96,1,91.54
499.96,1,91.739
499.96,1,91.938
499.97,1,92.137
499.97,1,92.336
499.97,1,92.535
499.97,1,92.734
499.97,1,92.933
499.97,1,93.132
499.97,1,93.331
499.97,1,93.53
499.97,1,93.729
499.97,1,93.928
499.97,1,94.127
499.97,1,94.326
499.97,1,94.525
499.97,1,94.724
499.97,1,94.923
499.98,1,95.122
499.98,1,95.321
499.98,1,95.52
499.98,1,95.719
499.98,1,95.918
499.98,1,96.117
499.98,1,96.316
499.98,1,96.515
499.98,1,96.714
499.98,1,96.913
499.98,1,97.112
499.98,1,97.311
499.98,1,97.51
499.98,1,97.709
499.98,1,97.908
499.98,1,98.107
499.98,1,98.306
499.98,1,98.505
499.98,1,98.704
499.98,1,98.903
499.98,1,99.102
499.98,1,99.301
499.98,1,99.5
499.98,1,99.699
499.98,1,99.898
499.98,1,100.1
499.98,1,100.3
499.98,1,100.5
499.98,1,100.69
499.98,1,100.89
499.98,1,101.09
499.98,1,101.29
499.98,1,101.49
499.98,1,101.69
499.98,1,101.89
499.98,1,102.09
499.98,1,102.29
499.98,1,102.49
499.98,1,102.68
499.98,1,102.88
499.98,1,103.08
499.98,1,103.28
499.98,1,103.48
499.98,1,103.68
499.98,1,103.88
499.98,1,104.08
499.98,1,104.28
499.98,1,104.47
499.98,1,104.67
499.98,1,104.87
499.97,1,105.07
499.97,1,105.27
499.97,1,105.47
499.97,1,105.67
499.97,1,105.87
499.97,1,106.07
499.97,1,106.27
499.97,1,106.46
499.97,1,106.66
499.97,1,106.86
499.97,1,107.06
499.97,1,107.26
499.97,1,107.46
499.97,1,107.66
499.97,1,107.86
499.96,1,108.06
499.96,1,108.26
499.96,1,108.46
499.96,1,108.65
499.96,1,108.85
499.96,1,109.05
499.96,1,109.25
499.96,1,109.45
499.96,1,109.65
499.96,1,109.85
499.95,1,110.05
499.95,1,110.25
499.95,1,110.44
499.95,1,110.64
499.95,1,110.84
499.94,1,111.04
499.94,1,111.24
499.94,1,111.44
499.94,1,111.64
499.94,1,111.84
499.93,1,112.04
499.93,1,112.24
499.93,1,112.43
499.93,1,112.63
499.93,1,112.83
499.92,1,113.03
499.92,1,113.23
499.92,1,113.43
499.92,1,113.63
499.92,1,113.83
499.91,1,114.03
499.91,1,114.23
499.91,1,114.43
499.91,1,114.62
499.91,1,114.82
499.89,1,115.02
499.89,1,115.22
499.89,1,115.42
499.89,1,115.62
499.89,1,115.82
499.87,1,116.02
499.87,1,116.22
499.87,1,116.42
499.87,1,116.61
499.87,1,116.81
499.85,1,117.01
499.85,1,117.21
499.85,1,117.41
499.85,1,117.61
499.85,1,117.81
499.82,1,118.01
499.82,1,118.21
499.82,1,118.4
499.82,1,118.6
499.82,1,118.8
499.78,1,119
499.78,1,119.2
499.78,1,119.4
499.78,1,119.6
499.78,1,119.8
499.78,1,120
499.74,1,120.2
499.74,1,120.39
499.74,1,120.59
499.74,1,120.79
499.74,1,120.99
499.7,1,121.19
499.7,1,121.39
499.7,1,121.59
499.7,1,121.79
499.7,1,121.99
499.64,1,122.19
499.64,1,122.39
499.64,1,122.58
499.64,1,122.78
499.64,1,122.98
499.58,1,123.18
499.58,1,123.38
499.58,1,123.58
499.58,1,123.78
499.58,1,123.98
499.5,1,124.18
499.5,1,124.38
499.5,1,124.57
499.5,1,124.77
499.5,1,124.97
499.41,1,125.17
499.41,1,125.37
499.41,1,125.57
499.41,1,125.77
499.41,1,125.97
499.31,1,126.17
499.31,1,126.36
499.31,1,126.56
499.31,1,126.76
499.31,1,126.96
499.18,1,127.16
499.18,1,127.36
499.18,1,127.56
499.18,1,127.76
499.18,1,127.96
499.04,1,128.16
499.04,1,128.35
499.04,1,128.55
499.04,1,128.75
499.04,1,128.95
498.87,1,129.15
498.87,1,129.35
498.87,1,129.55
498.87,1,129.75
498.87,1,129.95
498.68,1,130.15
498.68,1,130.35
498.68,1,130.54
498.68,1,130.74
498.68,1,130.94
498.46,1,131.14
498.46,1,131.34
498.46,1,131.54
498.46,1,131.74
498.46,1,131.94
498.2,1,132.14
498.2,1,132.34
498.2,1,132.53
498.2,1,132.73
498.2,1,132.93
497.91,1,133.13
497.91,1,133.33
497.91,1,133.53
497.91,1,133.73
497.91,1,133.93
497.57,1,134.13
497.57,1,134.32
497.57,1,134.52
497.57,1,134.72
497.57,1,134.92
497.18,1,135.12
497.18,1,135.32
497.18,1,135.52
497.18,1,135.72
497.18,1,135.92
496.73,1,136.12
496.73,1,136.32
496.73,1,136.51
496.73,1,136.71
496.73,1,136.91
496.22,1,137.11
496.22,1,137.31
496.22,1,137.51
496.22,1,137.71
496.22,1,137.91
495.64,1,138.11
495.64,1,138.3
495.64,1,138.5
495.64,1,138.7
495.64,1,138.9
494.99,1,139.1
494.99,1,139.3
494.99,1,139.5
494.99,1,139.7
494.99,1,139.9
494.24,1,140.1
494.24,1,140.29
494.24,1,140.49
494.24,1,140.69
494.24,1,140.89
493.4,1,141.09
493.4,1,141.29
493.4,1,141.49
493.4,1,141.69
493.4,1,141.89
492.46,1,142.09
492.46,1,142.29
492.46,1,142.48
492.46,1,142.68
492.46,1,142.88
491.4,1,143.08
491.4,1,143.28
491.4,1,143.48
491.4,1,143.68
491.4,1,143.88
490.2,1,144.08
490.2,1,144.27
490.2,1,144.47
490.2,1,144.67
490.2,1,144.87
488.87,1,145.07
488.87,1,145.27
488.87,1,145.47
488.87,1,145.67
488.87,1,145.87
487.39,1,146.07
487.39,1,146.26
487.39,1,146.46
487.39,1,146.66
487.39,1,146.86
485.74,1,147.06
485.74,1,147.26
485.74,1,147.46
485.74,1,147.66
485.74,1,147.86
483.9,1,148.06
483.9,1,148.26
483.9,1,148.45
483.9,1,148.65
483.9,1,148.85
481.88,1,149.05
481.88,1,149.25
481.88,1,149.45
481.88,1,149.65
481.88,1,149.85
479.64,1,150.05
479.64,1,150.24
479.64,1,150.44
479.64,1,150.64
479.64,1,150.84
477.18,1,151.04
477.18,1,151.24
477.18,1,151.44
477.18,1,151.64
477.18,1,151.84
474.48,1,152.04
474.48,1,152.24
474.48,1,152.43
474.48,1,152.63
474.48,1,152.83
471.53,1,153.03
471.53,1,153.23
471.53,1,153.43
471.53,1,153.63
471.53,1,153.83
468.3,1,154.03
468.3,1,154.23
468.3,1,154.42
468.3,1,154.62
468.3,1,154.82
464.79,1,155.02
464.79,1,155.22
464.79,1,155.42
464.79,1,155.62
464.79,1,155.82
460.97,1,156.02
460.97,1,156.21
460.97,1,156.41
460.97,1,156.61
460.97,1,156.81
456.84,1,157.01
456.84,1,157.21
456.84,1,157.41
456.84,1,157.61
456.84,1,157.81
452.38,1,158.01
452.38,1,158.21
452.38,1,158.4
452.38,1,158.6
452.38,1,158.8
447.58,1,159
447.58,1,159.2
447.58,1,159.4
447.58,1,159.6
447.58,1,159.8
447.58,1,160
442.41,1,160.2
442.41,1,160.39
442.41,1,160.59
442.41,1,160.79
442.41,1,160.99
436.88,1,161.19
436.88,1,161.39
436.88,1,161.59
436.88,1,161.79
436.88,1,161.99
430.97,1,162.18
430.97,1,162.38
430.97,1,162.58
430.97,1,162.78
430.97,1,162.98
424.67,1,163.18
424.67,1,163.38
424.67,1,163.58
424.67,1,163.78
424.67,1,163.98
417.98,1,164.18
417.98,1,164.37
417.98,1,164.57
417.98,1,164.77
417.98,1,164.97
410.88,1,165.17
410.88,1,165.37
410.88,1,165.57
410.88,1,165.77
410.88,1,165.97
403.38,1,166.16
403.38,1,166.36
403.38,1,166.56
403.38,1,166.76
403.38,1,166.96
395.47,1,167.16
395.47,1,167.36
395.47,1,167.56
395.47,1,167.76
395.47,1,167.96
387.15,1,168.15
387.15,1,168.35
387.15,1,168.55
387.15,1,168.75
387.15,1,168.95
378.42,1,169.15
378.42,1,169.35
378.42,1,169.55
378.42,1,169.75
378.42,1,169.95
369.29,1,170.15
369.29,1,170.34
369.29,1,170.54
369.29,1,170.74
369.29,1,170.94
359.77,1,171.14
359.77,1,171.34
359.77,1,171.54
359.77,1,171.74
359.77,1,171.94
349.86,1,172.13
349.86,1,172.33
349.86,1,172.53
349.86,1,172.73
349.86,1,172.93
339.57,1,173.13
339.57,1,173.33
339.57,1,173.53
339.57,1,173.73
339.57,1,173.93
328.93,1,174.12
328.93,1,174.32
328.93,1,174.52
328.93,1,174.72
328.93,1,174.92
317.93,1,175.12
317.93,1,175.32
317.93,1,175.52
317.93,1,175.72
317.93,1,175.92
306.61,1,176.12
306.61,1,176.31
306.61,1,176.51
306.61,1,176.71
306.61,1,176.91
294.98,1,177.11
294.98,1,177.31
294.98,1,177.51
294.98,1,177.71
294.98,1,177.91
283.07,1,178.1
283.07,1,178.3
283.07,1,178.5
283.07,1,178.7
283.07,1,178.9
270.98,1,179.1
270.98,1,179.3
270.98,1,179.5
270.98,1,179.7
270.98,1,179.9
0,1,180.1
0,1,180.29
0,1,180.49
0,1,180.69
0,1,180.89
0,1,181.09
0,1,181.29
0,1,181.49
0,1,181.69
0,1,181.89
0,1,182.09
0,1,182.28
0,1,182.48
0,1,182.68
0,1,182.88
0,1,183.08
0,1,183.28
0,1,183.48
0,1,183.68
0,1,183.88
0,1,184.07
0,1,184.27
0,1,184.47
0,1,184.67
0,1,184.87
0,1,185.07
0,1,185.27
0,1,185.47
0,1,185.67
0,1,185.87
0,1,186.07
0,1,186.26
0,1,186.46
0,1,186.66
0,1,186.86
0,1,187.06
0,1,187.26
0,1,187.46
0,1,187.66
0,1,187.86
0,1,188.05
0,1,188.25
0,1,188.45
0,1,188.65
0,1,188.85
0,1,189.05
0,1,189.25
0,1,189.45
0,1,189.65
0,1,189.85
0,1,190.04
0,1,190.24
0,1,190.44
0,1,190.64
0,1,190.84
0,1,191.04
0,1,191.24
0,1,191.44
0,1,191.64
0,1,191.84
0,1,192.04
0,1,192.23
0,1,192.43
0,1,192.63
0,1,192.83
0,1,193.03
0,1,193.23
0,1,193.43
0,1,193.63
0,1,193.83
0,1,194.02
0,1,194.22
0,1,194.42
0,1,194.62
0,1,194.82
0,1,195.02
0,1,195.22
0,1,195.42
0,1,195.62
0,1,195.82
0,1,196.01
0,1,196.21
0,1,196.41
0,1,196.61
0,1,196.81
0,1,197.01
0,1,197.21
0,1,197.41
0,1,197.61
0,1,197.81
0,1,198.01
0,1,198.2
0,1,198.4
0,1,198.6
0,1,198.8
0,1,199
