"PuMA_Matrix","vtkValidPointMask","arc_length"
0,1,0
0,1,0.199
0,1,0.398
0,1,0.597
0,1,0.796
0,1,0.995
0,1,1.194
0,1,1.393
0,1,1.592
0,1,1.791
0,1,1.99
0,1,2.189
0,1,2.388
0,1,2.587
0,1,2.786
0,1,2.985
0,1,3.184
0,1,3.383
0,1,3.582
0,1,3.781
0,1,3.98
0,1,4.179
0,1,4.378
0,1,4.577
0,1,4.776
0,1,4.975
0,1,5.174
0,1,5.373
0,1,5.572
0,1,5.771
0,1,5.97
0,1,6.169
0,1,6.368
0,1,6.567
0,1,6.766
0,1,6.965
0,1,7.164
0,1,7.363
0,1,7.562
0,1,7.761
0,1,7.96
0,1,8.159
0,1,8.358
0,1,8.557
0,1,8.756
0,1,8.955
0,1,9.154
0,1,9.353
0,1,9.552
0,1,9.751
0,1,9.95
0,1,10.149
0,1,10.348
0,1,10.547
0,1,10.746
0,1,10.945
0,1,11.144
0,1,11.343
0,1,11.542
0,1,11.741
0,1,11.94
0,1,12.139
0,1,12.338
0,1,12.537
0,1,12.736
0,1,12.935
0,1,13.134
0,1,13.333
0,1,13.532
0,1,13.731
0,1,13.93
0,1,14.129
0,1,14.328
0,1,14.527
0,1,14.726
0,1,14.925
0,1,15.124
0,1,15.323
0,1,15.522
0,1,15.721
0,1,15.92
0,1,16.119
0,1,16.318
0,1,16.517
0,1,16.716
0,1,16.915
0,1,17.114
0,1,17.313
0,1,17.512
0,1,17.711
0,1,17.91
0,1,18.109
0,1,18.308
0,1,18.507
0,1,18.706
0,1,18.905
0,1,19.104
0,1,19.303
0,1,19.502
0,1,19.701
0,1,19.9
292.32,1,20.099
292.32,1,20.298
292.32,1,20.497
292.32,1,20.696
292.32,1,20.895
305.35,1,21.094
305.35,1,21.293
305.35,1,21.492
305.35,1,21.691
305.35,1,21.89
318.1,1,22.089
318.1,1,22.288
318.1,1,22.487
318.1,1,22.686
318.1,1,22.885
330.45,1,23.084
330.45,1,23.283
330.45,1,23.482
330.45,1,23.681
330.45,1,23.88
342.37,1,24.079
342.37,1,24.278
342.37,1,24.477
342.37,1,24.676
342.37,1,24.875
353.83,1,25.074
353.83,1,25.273
353.83,1,25.472
353.83,1,25.671
353.83,1,25.87
364.82,1,26.069
364.82,1,26.268
364.82,1,26.467
364.82,1,26.666
364.82,1,26.865
375.32,1,27.064
375.32,1,27.263
375.32,1,27.462
375.32,1,27.661
375.32,1,27.86
385.31,1,28.059
385.31,1,28.258
385.31,1,28.457
385.31,1,28.656
385.31,1,28.855
394.79,1,29.054
394.79,1,29.253
394.79,1,29.452
394.79,1,29.651
394.79,1,29.85
403.76,1,30.049
403.76,1,30.248
403.76,1,30.447
403.76,1,30.646
403.76,1,30.845
412.21,1,31.044
412.21,1,31.243
412.21,1,31.442
412.21,1,31.641
412.21,1,31.84
420.15,1,32.039
420.15,1,32.238
420.15,1,32.437
420.15,1,32.636
420.15,1,32.835
427.57,1,33.034
427.57,1,33.233
427.57,1,33.432
427.57,1,33.631
427.57,1,33.83
434.5,1,34.029
434.5,1,34.228
434.5,1,34.427
434.5,1,34.626
434.5,1,34.825
440.93,1,35.024
440.93,1,35.223
440.93,1,35.422
440.93,1,35.621
440.93,1,35.82
446.89,1,36.019
446.89,1,36.218
446.89,1,36.417
446.89,1,36.616
446.89,1,36.815
452.39,1,37.014
452.39,1,37.213
452.39,1,37.412
452.39,1,37.611
452.39,1,37.81
457.45,1,38.009
457.45,1,38.208
457.45,1,38.407
457.45,1,38.606
457.45,1,38.805
462.08,1,39.004
462.08,1,39.203
462.08,1,39.402
462.08,1,39.601
462.08,1,39.8
462.08,1,39.999
466.31,1,40.198
466.31,1,40.397
466.31,1,40.596
466.31,1,40.795
466.31,1,40.994
470.16,1,41.193
470.16,1,41.392
470.16,1,41.591
470.16,1,41.79
470.16,1,41.989
473.65,1,42.188
473.65,1,42.387
473.65,1,42.586
473.65,1,42.785
473.65,1,42.984
476.8,1,43.183
476.8,1,43.382
476.8,1,43.581
476.8,1,43.78
476.8,1,43.979
479.64,1,44.178
479.64,1,44.377
479.64,1,44.576
479.64,1,44.775
479.64,1,44.974
482.18,1,45.173
482.18,1,45.372
482.18,1,45.571
482.18,1,45.77
482.18,1,45.969
484.46,1,46.168
484.46,1,46.367
484.46,1,46.566
484.46,1,46.765
484.46,1,46.964
486.48,1,47.163
486.48,1,47.362
486.48,1,47.561
486.48,1,47.76
486.48,1,47.959
488.28,1,48.158
488.28,1,48.357
488.28,1,48.556
488.28,1,48.755
488.28,1,48.954
489.87,1,49.153
489.87,1,49.352
489.87,1,49.551
489.87,1,49.75
489.87,1,49.949
491.27,1,50.148
491.27,1,50.347
491.27,1,50.546
491.27,1,50.745
491.27,1,50.944
492.51,1,51.143
492.51,1,51.342
492.51,1,51.541
492.51,1,51.74
492.51,1,51.939
493.58,1,52.138
493.58,1,52.337
493.58,1,52.536
493.58,1,52.735
493.58,1,52.934
494.52,1,53.133
494.52,1,53.332
494.52,1,53.531
494.52,1,53.73
494.52,1,53.929
495.34,1,54.128
495.34,1,54.327
495.34,1,54.526
495.34,1,54.725
495.34,1,54.924
496.04,1,55.123
496.04,1,55.322
496.04,1,55.521
496.04,1,55.72
496.04,1,55.919
496.65,1,56.118
496.65,1,56.317
496.65,1,56.516
496.65,1,56.715
496.65,1,56.914
497.18,1,57.113
497.18,1,57.312
497.18,1,57.511
497.18,1,57.71
497.18,1,57.909
497.63,1,58.108
497.63,1,58.307
497.63,1,58.506
497.63,1,58.705
497.63,1,58.904
498.01,1,59.103
498.01,1,59.302
498.01,1,59.501
498.01,1,59.7
498.01,1,59.899
498.34,1,60.098
498.34,1,60.297
498.34,1,60.496
498.34,1,60.695
498.34,1,60.894
498.61,1,61.093
498.61,1,61.292
498.61,1,61.491
498.61,1,61.69
498.61,1,61.889
498.85,1,62.088
498.85,1,62.287
498.85,1,62.486
498.85,1,62.685
498.85,1,62.884
499.05,1,63.083
499.05,1,63.282
499.05,1,63.481
499.05,1,63.68
499.05,1,63.879
499.21,1,64.078
499.21,1,64.277
499.21,1,64.476
499.21,1,64.675
499.21,1,64.874
499.35,1,65.073
499.35,1,65.272
499.35,1,65.471
499.35,1,65.67
499.35,1,65.869
499.47,1,66.068
499.47,1,66.267
499.47,1,66.466
499.47,1,66.665
499.47,1,66.864
499.56,1,67.063
499.56,1,67.262
499.56,1,67.461
499.56,1,67.66
499.56,1,67.859
499.64,1,68.058
499.64,1,68.257
499.64,1,68.456
499.64,1,68.655
499.64,1,68.854
499.71,1,69.053
499.71,1,69.252
499.71,1,69.451
499.71,1,69.65
499.71,1,69.849
499.76,1,70.048
499.76,1,70.247
499.76,1,70.446
499.76,1,70.645
499.76,1,70.844
499.81,1,71.043
499.81,1,71.242
499.81,1,71.441
499.81,1,71.64
499.81,1,71.839
499.85,1,72.038
499.85,1,72.237
499.85,1,72.436
499.85,1,72.635
499.85,1,72.834
499.88,1,73.033
499.88,1,73.232
499.88,1,73.431
499.88,1,73.63
499.88,1,73.829
499.9,1,74.028
499.9,1,74.227
499.9,1,74.426
499.9,1,74.625
499.9,1,74.824
499.92,1,75.023
499.92,1,75.222
499.92,1,75.421
499.92,1,75.62
499.92,1,75.819
499.94,1,76.018
499.94,1,76.217
499.94,1,76.416
499.94,1,76.615
499.94,1,76.814
499.95,1,77.013
499.95,1,77.212
499.95,1,77.411
499.95,1,77.61
499.95,1,77.809
499.96,1,78.008
499.96,1,78.207
499.96,1,78.406
499.96,1,78.605
499.96,1,78.804
499.97,1,79.003
499.97,1,79.202
499.97,1,79.401
499.97,1,79.6
499.97,1,79.799
499.97,1,79.998
499.97,1,80.197
499.97,1,80.396
499.97,1,80.595
499.97,1,80.794
499.97,1,80.993
499.98,1,81.192
499.98,1,81.391
499.98,1,81.59
499.98,1,81.789
499.98,1,81.988
499.98,1,82.187
499.98,1,82.386
499.98,1,82.585
499.98,1,82.784
499.98,1,82.983
499.99,1,83.182
499.99,1,83.381
499.99,1,83.58
499.99,1,83.779
499.99,1,83.978
499.99,1,84.177
499.99,1,84.376
499.99,1,84.575
499.99,1,84.774
499.99,1,84.973
499.99,1,85.172
499.99,1,85.371
499.99,1,85.57
499.99,1,85.769
499.99,1,85.968
499.99,1,86.167
499.99,1,86.366
499.99,1,86.565
499.99,1,86.764
499.99,1,86.963
499.99,1,87.162
499.99,1,87.361
499.99,1,87.56
499.99,1,87.759
499.99,1,87.958
500,1,88.157
500,1,88.356
500,1,88.555
500,1,88.754
500,1,88.953
500,1,89.152
500,1,89.351
500,1,89.55
500,1,89.749
500,1,89.948
500,1,90.147
500,1,90.346
500,1,90.545
500,1,90.744
500,1,90.943
500,1,91.142
500,1,91.341
500,1,91.54
500,1,91.739
500,1,91.938
500,1,92.137
500,1,92.336
500,1,92.535
500,1,92.734
500,1,92.933
500,1,93.132
500,1,93.331
500,1,93.53
500,1,93.729
500,1,93.928
500,1,94.127
500,1,94.326
500,1,94.525
500,1,94.724
500,1,94.923
500,1,95.122
500,1,95.321
500,1,95.52
500,1,95.719
500,1,95.918
500,1,96.117
500,1,96.316
500,1,96.515
500,1,96.714
500,1,96.913
500,1,97.112
500,1,97.311
500,1,97.51
500,1,97.709
500,1,97.908
500,1,98.107
500,1,98.306
500,1,98.505
500,1,98.704
500,1,98.903
500,1,99.102
500,1,99.301
500,1,99.5
500,1,99.699
500,1,99.898
500,1,100.1
500,1,100.3
500,1,100.5
500,1,100.69
500,1,100.89
500,1,101.09
500,1,101.29
500,1,101.49
500,1,101.69
500,1,101.89
500,1,102.09
500,1,102.29
500,1,102.49
500,1,102.68
500,1,102.88
500,1,103.08
500,1,103.28
500,1,103.48
500,1,103.68
500,1,103.88
500,1,104.08
500,1,104.28
500,1,104.47
500,1,104.67
500,1,104.87
500,1,105.07
500,1,105.27
500,1,105.47
500,1,105.67
500,1,105.87
500,1,106.07
500,1,106.27
500,1,106.46
500,1,106.66
500,1,106.86
500,1,107.06
500,1,107.26
500,1,107.46
500,1,107.66
500,1,107.86
500,1,108.06
500,1,108.26
500,1,108.46
500,1,108.65
500,1,108.85
500,1,109.05
500,1,109.25
500,1,109.45
500,1,109.65
500,1,109.85
500,1,110.05
500,1,110.25
500,1,110.44
500,1,110.64
500,1,110.84
500,1,111.04
500,1,111.24
500,1,111.44
500,1,111.64
500,1,111.84
499.99,1,112.04
499.99,1,112.24
499.99,1,112.43
499.99,1,112.63
499.99,1,112.83
499.99,1,113.03
499.99,1,113.23
499.99,1,113.43
499.99,1,113.63
499.99,1,113.83
499.99,1,114.03
499.99,1,114.23
499.99,1,114.43
499.99,1,114.62
499.99,1,114.82
499.99,1,115.02
499.99,1,115.22
499.99,1,115.42
499.99,1,115.62
499.99,1,115.82
499.99,1,116.02
499.99,1,116.22
499.99,1,116.42
499.99,1,116.61
499.99,1,116.81
499.98,1,117.01
499.98,1,117.21
499.98,1,117.41
499.98,1,117.61
499.98,1,117.81
499.98,1,118.01
499.98,1,118.21
499.98,1,118.4
499.98,1,118.6
499.98,1,118.8
499.97,1,119
499.97,1,119.2
499.97,1,119.4
499.97,1,119.6
499.97,1,119.8
499.97,1,120
499.97,1,120.2
499.97,1,120.39
499.97,1,120.59
499.97,1,120.79
499.97,1,120.99
499.96,1,121.19
499.96,1,121.39
499.96,1,121.59
499.96,1,121.79
499.96,1,121.99
499.95,1,122.19
499.95,1,122.39
499.95,1,122.58
499.95,1,122.78
499.95,1,122.98
499.94,1,123.18
499.94,1,123.38
499.94,1,123.58
499.94,1,123.78
499.94,1,123.98
499.92,1,124.18
499.92,1,124.38
499.92,1,124.57
499.92,1,124.77
499.92,1,124.97
499.9,1,125.17
499.9,1,125.37
499.9,1,125.57
499.9,1,125.77
499.9,1,125.97
499.88,1,126.17
499.88,1,126.36
499.88,1,126.56
499.88,1,126.76
499.88,1,126.96
499.85,1,127.16
499.85,1,127.36
499.85,1,127.56
499.85,1,127.76
499.85,1,127.96
499.81,1,128.16
499.81,1,128.35
499.81,1,128.55
499.81,1,128.75
499.81,1,128.95
499.76,1,129.15
499.76,1,129.35
499.76,1,129.55
499.76,1,129.75
499.76,1,129.95
499.71,1,130.15
499.71,1,130.35
499.71,1,130.54
499.71,1,130.74
499.71,1,130.94
499.64,1,131.14
499.64,1,131.34
499.64,1,131.54
499.64,1,131.74
499.64,1,131.94
499.56,1,132.14
499.56,1,132.34
499.56,1,132.53
499.56,1,132.73
499.56,1,132.93
499.47,1,133.13
499.47,1,133.33
499.47,1,133.53
499.47,1,133.73
499.47,1,133.93
499.35,1,134.13
499.35,1,134.32
499.35,1,134.52
499.35,1,134.72
499.35,1,134.92
499.21,1,135.12
499.21,1,135.32
499.21,1,135.52
499.21,1,135.72
499.21,1,135.92
499.05,1,136.12
499.05,1,136.32
499.05,1,136.51
499.05,1,136.71
499.05,1,136.91
498.85,1,137.11
498.85,1,137.31
498.85,1,137.51
498.85,1,137.71
498.85,1,137.91
498.61,1,138.11
498.61,1,138.3
498.61,1,138.5
498.61,1,138.7
498.61,1,138.9
498.34,1,139.1
498.34,1,139.3
498.34,1,139.5
498.34,1,139.7
498.34,1,139.9
498.01,1,140.1
498.01,1,140.29
498.01,1,140.49
498.01,1,140.69
498.01,1,140.89
497.63,1,141.09
497.63,1,141.29
497.63,1,141.49
497.63,1,141.69
497.63,1,141.89
497.18,1,142.09
497.18,1,142.29
497.18,1,142.48
497.18,1,142.68
497.18,1,142.88
496.65,1,143.08
496.65,1,143.28
496.65,1,143.48
496.65,1,143.68
496.65,1,143.88
496.04,1,144.08
496.04,1,144.27
496.04,1,144.47
496.04,1,144.67
496.04,1,144.87
495.34,1,145.07
495.34,1,145.27
495.34,1,145.47
495.34,1,145.67
495.34,1,145.87
494.52,1,146.07
494.52,1,146.26
494.52,1,146.46
494.52,1,146.66
494.52,1,146.86
493.58,1,147.06
493.58,1,147.26
493.58,1,147.46
493.58,1,147.66
493.58,1,147.86
492.51,1,148.06
492.51,1,148.26
492.51,1,148.45
492.51,1,148.65
492.51,1,148.85
491.27,1,149.05
491.27,1,149.25
491.27,1,149.45
491.27,1,149.65
491.27,1,149.85
489.87,1,150.05
489.87,1,150.24
489.87,1,150.44
489.87,1,150.64
489.87,1,150.84
488.28,1,151.04
488.28,1,151.24
488.28,1,151.44
488.28,1,151.64
488.28,1,151.84
486.48,1,152.04
486.48,1,152.24
486.48,1,152.43
486.48,1,152.63
486.48,1,152.83
484.46,1,153.03
484.46,1,153.23
484.46,1,153.43
484.46,1,153.63
484.46,1,153.83
482.18,1,154.03
482.18,1,154.23
482.18,1,154.42
482.18,1,154.62
482.18,1,154.82
479.64,1,155.02
479.64,1,155.22
479.64,1,155.42
479.64,1,155.62
479.64,1,155.82
476.8,1,156.02
476.8,1,156.21
476.8,1,156.41
476.8,1,156.61
476.8,1,156.81
473.65,1,157.01
473.65,1,157.21
473.65,1,157.41
473.65,1,157.61
473.65,1,157.81
470.16,1,158.01
470.16,1,158.21
470.16,1,158.4
470.16,1,158.6
470.16,1,158.8
466.31,1,159
466.31,1,159.2
466.31,1,159.4
466.31,1,159.6
466.31,1,159.8
466.31,1,160
462.08,1,160.2
462.08,1,160.39
462.08,1,160.59
462.08,1,160.79
462.08,1,160.99
457.45,1,161.19
457.45,1,161.39
457.45,1,161.59
457.45,1,161.79
457.45,1,161.99
452.39,1,162.18
452.39,1,162.38
452.39,1,162.58
452.39,1,162.78
452.39,1,162.98
446.89,1,163.18
446.89,1,163.38
446.89,1,163.58
446.89,1,163.78
446.89,1,163.98
440.93,1,164.18
440.93,1,164.37
440.93,1,164.57
440.93,1,164.77
440.93,1,164.97
434.5,1,165.17
434.5,1,165.37
434.5,1,165.57
434.5,1,165.77
434.5,1,165.97
427.57,1,166.16
427.57,1,166.36
427.57,1,166.56
427.57,1,166.76
427.57,1,166.96
420.15,1,167.16
420.15,1,167.36
420.15,1,167.56
420.15,1,167.76
420.15,1,167.96
412.21,1,168.15
412.21,1,168.35
412.21,1,168.55
412.21,1,168.75
412.21,1,168.95
403.76,1,169.15
403.76,1,169.35
403.76,1,169.55
403.76,1,169.75
403.76,1,169.95
394.79,1,170.15
394.79,1,170.34
394.79,1,170.54
394.79,1,170.74
394.79,1,170.94
385.31,1,171.14
385.31,1,171.34
385.31,1,171.54
385.31,1,171.74
385.31,1,171.94
375.32,1,172.13
375.32,1,172.33
375.32,1,172.53
375.32,1,172.73
375.32,1,172.93
364.82,1,173.13
364.82,1,173.33
364.82,1,173.53
364.82,1,173.73
364.82,1,173.93
353.83,1,174.12
353.83,1,174.32
353.83,1,174.52
353.83,1,174.72
353.83,1,174.92
342.37,1,175.12
342.37,1,175.32
342.37,1,175.52
342.37,1,175.72
342.37,1,175.92
330.45,1,176.12
330.45,1,176.31
330.45,1,176.51
330.45,1,176.71
330.45,1,176.91
318.1,1,177.11
318.1,1,177.31
318.1,1,177.51
318.1,1,177.71
318.1,1,177.91
305.35,1,178.1
305.35,1,178.3
305.35,1,178.5
305.35,1,178.7
305.35,1,178.9
292.32,1,179.1
292.32,1,179.3
292.32,1,179.5
292.32,1,179.7
292.32,1,179.9
0,1,180.1
0,1,180.29
0,1,180.49
0,1,180.69
0,1,180.89
0,1,181.09
0,1,181.29
0,1,181.49
0,1,181.69
0,1,181.89
0,1,182.09
0,1,182.28
0,1,182.48
0,1,182.68
0,1,182.88
0,1,183.08
0,1,183.28
0,1,183.48
0,1,183.68
0,1,183.88
0,1,184.07
0,1,184.27
0,1,184.47
0,1,184.67
0,1,184.87
0,1,185.07
0,1,185.27
0,1,185.47
0,1,185.67
0,1,185.87
0,1,186.07
0,1,186.26
0,1,186.46
0,1,186.66
0,1,186.86
0,1,187.06
0,1,187.26
0,1,187.46
0,1,187.66
0,1,187.86
0,1,188.05
0,1,188.25
0,1,188.45
0,1,188.65
0,1,188.85
0,1,189.05
0,1,189.25
0,1,189.45
0,1,189.65
0,1,189.85
0,1,190.04
0,1,190.24
0,1,190.44
0,1,190.64
0,1,190.84
0,1,191.04
0,1,191.24
0,1,191.44
0,1,191.64
0,1,191.84
0,1,192.04
0,1,192.23
0,1,192.43
0,1,192.63
0,1,192.83
0,1,193.03
0,1,193.23
0,1,193.43
0,1,193.63
0,1,193.83
0,1,194.02
0,1,194.22
0,1,194.42
0,1,194.62
0,1,194.82
0,1,195.02
0,1,195.22
0,1,195.42
0,1,195.62
0,1,195.82
0,1,196.01
0,1,196.21
0,1,196.41
0,1,196.61
0,1,196.81
0,1,197.01
0,1,197.21
0,1,197.41
0,1,197.61
0,1,197.81
0,1,198.01
0,1,198.2
0,1,198.4
0,1,198.6
0,1,198.8
0,1,199
