"PuMA_Matrix","vtkValidPointMask","arc_length"
0,1,0
0,1,0.199
0,1,0.398
0,1,0.597
0,1,0.796
0,1,0.995
0,1,1.194
0,1,1.393
0,1,1.592
0,1,1.791
0,1,1.99
0,1,2.189
0,1,2.388
0,1,2.587
0,1,2.786
0,1,2.985
0,1,3.184
0,1,3.383
0,1,3.582
0,1,3.781
0,1,3.98
0,1,4.179
0,1,4.378
0,1,4.577
0,1,4.776
0,1,4.975
0,1,5.174
0,1,5.373
0,1,5.572
0,1,5.771
0,1,5.97
0,1,6.169
0,1,6.368
0,1,6.567
0,1,6.766
0,1,6.965
0,1,7.164
0,1,7.363
0,1,7.562
0,1,7.761
0,1,7.96
0,1,8.159
0,1,8.358
0,1,8.557
0,1,8.756
0,1,8.955
0,1,9.154
0,1,9.353
0,1,9.552
0,1,9.751
0,1,9.95
0,1,10.149
0,1,10.348
0,1,10.547
0,1,10.746
0,1,10.945
0,1,11.144
0,1,11.343
0,1,11.542
0,1,11.741
0,1,11.94
0,1,12.139
0,1,12.338
0,1,12.537
0,1,12.736
0,1,12.935
0,1,13.134
0,1,13.333
0,1,13.532
0,1,13.731
0,1,13.93
0,1,14.129
0,1,14.328
0,1,14.527
0,1,14.726
0,1,14.925
0,1,15.124
0,1,15.323
0,1,15.522
0,1,15.721
0,1,15.92
0,1,16.119
0,1,16.318
0,1,16.517
0,1,16.716
0,1,16.915
0,1,17.114
0,1,17.313
0,1,17.512
0,1,17.711
0,1,17.91
0,1,18.109
0,1,18.308
0,1,18.507
0,1,18.706
0,1,18.905
0,1,19.104
0,1,19.303
0,1,19.502
0,1,19.701
0,1,19.9
301.46,1,20.099
301.46,1,20.298
301.46,1,20.497
301.46,1,20.696
301.46,1,20.895
314.88,1,21.094
314.88,1,21.293
314.88,1,21.492
314.88,1,21.691
314.88,1,21.89
327.97,1,22.089
327.97,1,22.288
327.97,1,22.487
327.97,1,22.686
327.97,1,22.885
340.6,1,23.084
340.6,1,23.283
340.6,1,23.482
340.6,1,23.681
340.6,1,23.88
352.73,1,24.079
352.73,1,24.278
352.73,1,24.477
352.73,1,24.676
352.73,1,24.875
364.35,1,25.074
364.35,1,25.273
364.35,1,25.472
364.35,1,25.671
364.35,1,25.87
375.42,1,26.069
375.42,1,26.268
375.42,1,26.467
375.42,1,26.666
375.42,1,26.865
385.94,1,27.064
385.94,1,27.263
385.94,1,27.462
385.94,1,27.661
385.94,1,27.86
395.89,1,28.059
395.89,1,28.258
395.89,1,28.457
395.89,1,28.656
395.89,1,28.855
405.27,1,29.054
405.27,1,29.253
405.27,1,29.452
405.27,1,29.651
405.27,1,29.85
414.08,1,30.049
414.08,1,30.248
414.08,1,30.447
414.08,1,30.646
414.08,1,30.845
422.32,1,31.044
422.32,1,31.243
422.32,1,31.442
422.32,1,31.641
422.32,1,31.84
430,1,32.039
430,1,32.238
430,1,32.437
430,1,32.636
430,1,32.835
437.12,1,33.034
437.12,1,33.233
437.12,1,33.432
437.12,1,33.631
437.12,1,33.83
443.71,1,34.029
443.71,1,34.228
443.71,1,34.427
443.71,1,34.626
443.71,1,34.825
449.77,1,35.024
449.77,1,35.223
449.77,1,35.422
449.77,1,35.621
449.77,1,35.82
455.33,1,36.019
455.33,1,36.218
455.33,1,36.417
455.33,1,36.616
455.33,1,36.815
460.41,1,37.014
460.41,1,37.213
460.41,1,37.412
460.41,1,37.611
460.41,1,37.81
465.03,1,38.009
465.03,1,38.208
465.03,1,38.407
465.03,1,38.606
465.03,1,38.805
469.22,1,39.004
469.22,1,39.203
469.22,1,39.402
469.22,1,39.601
469.22,1,39.8
469.22,1,39.999
472.99,1,40.198
472.99,1,40.397
472.99,1,40.596
472.99,1,40.795
472.99,1,40.994
476.39,1,41.193
476.39,1,41.392
476.39,1,41.591
476.39,1,41.79
476.39,1,41.989
479.43,1,42.188
479.43,1,42.387
479.43,1,42.586
479.43,1,42.785
479.43,1,42.984
482.15,1,43.183
482.15,1,43.382
482.15,1,43.581
482.15,1,43.78
482.15,1,43.979
484.55,1,44.178
484.55,1,44.377
484.55,1,44.576
484.55,1,44.775
484.55,1,44.974
486.68,1,45.173
486.68,1,45.372
486.68,1,45.571
486.68,1,45.77
486.68,1,45.969
488.56,1,46.168
488.56,1,46.367
488.56,1,46.566
488.56,1,46.765
488.56,1,46.964
490.21,1,47.163
490.21,1,47.362
490.21,1,47.561
490.21,1,47.76
490.21,1,47.959
491.65,1,48.158
491.65,1,48.357
491.65,1,48.556
491.65,1,48.755
491.65,1,48.954
492.9,1,49.153
492.9,1,49.352
492.9,1,49.551
492.9,1,49.75
492.9,1,49.949
493.99,1,50.148
493.99,1,50.347
493.99,1,50.546
493.99,1,50.745
493.99,1,50.944
494.92,1,51.143
494.92,1,51.342
494.92,1,51.541
494.92,1,51.74
494.92,1,51.939
495.73,1,52.138
495.73,1,52.337
495.73,1,52.536
495.73,1,52.735
495.73,1,52.934
496.42,1,53.133
496.42,1,53.332
496.42,1,53.531
496.42,1,53.73
496.42,1,53.929
497.01,1,54.128
497.01,1,54.327
497.01,1,54.526
497.01,1,54.725
497.01,1,54.924
497.51,1,55.123
497.51,1,55.322
497.51,1,55.521
497.51,1,55.72
497.51,1,55.919
497.94,1,56.118
497.94,1,56.317
497.94,1,56.516
497.94,1,56.715
497.94,1,56.914
498.3,1,57.113
498.3,1,57.312
498.3,1,57.511
498.3,1,57.71
498.3,1,57.909
498.6,1,58.108
498.6,1,58.307
498.6,1,58.506
498.6,1,58.705
498.6,1,58.904
498.85,1,59.103
498.85,1,59.302
498.85,1,59.501
498.85,1,59.7
498.85,1,59.899
499.06,1,60.098
499.06,1,60.297
499.06,1,60.496
499.06,1,60.695
499.06,1,60.894
499.23,1,61.093
499.23,1,61.292
499.23,1,61.491
499.23,1,61.69
499.23,1,61.889
499.38,1,62.088
499.38,1,62.287
499.38,1,62.486
499.38,1,62.685
499.38,1,62.884
499.5,1,63.083
499.5,1,63.282
499.5,1,63.481
499.5,1,63.68
499.5,1,63.879
499.59,1,64.078
499.59,1,64.277
499.59,1,64.476
499.59,1,64.675
499.59,1,64.874
499.67,1,65.073
499.67,1,65.272
499.67,1,65.471
499.67,1,65.67
499.67,1,65.869
499.74,1,66.068
499.74,1,66.267
499.74,1,66.466
499.74,1,66.665
499.74,1,66.864
499.79,1,67.063
499.79,1,67.262
499.79,1,67.461
499.79,1,67.66
499.79,1,67.859
499.83,1,68.058
499.83,1,68.257
499.83,1,68.456
499.83,1,68.655
499.83,1,68.854
499.87,1,69.053
499.87,1,69.252
499.87,1,69.451
499.87,1,69.65
499.87,1,69.849
499.89,1,70.048
499.89,1,70.247
499.89,1,70.446
499.89,1,70.645
499.89,1,70.844
499.92,1,71.043
499.92,1,71.242
499.92,1,71.441
499.92,1,71.64
499.92,1,71.839
499.93,1,72.038
499.93,1,72.237
499.93,1,72.436
499.93,1,72.635
499.93,1,72.834
499.95,1,73.033
499.95,1,73.232
499.95,1,73.431
499.95,1,73.63
499.95,1,73.829
499.96,1,74.028
499.96,1,74.227
499.96,1,74.426
499.96,1,74.625
499.96,1,74.824
499.97,1,75.023
499.97,1,75.222
499.97,1,75.421
499.97,1,75.62
499.97,1,75.819
499.98,1,76.018
499.98,1,76.217
499.98,1,76.416
499.98,1,76.615
499.98,1,76.814
499.98,1,77.013
499.98,1,77.212
499.98,1,77.411
499.98,1,77.61
499.98,1,77.809
499.99,1,78.008
499.99,1,78.207
499.99,1,78.406
499.99,1,78.605
499.99,1,78.804
499.99,1,79.003
499.99,1,79.202
499.99,1,79.401
499.99,1,79.6
499.99,1,79.799
499.99,1,79.998
499.99,1,80.197
499.99,1,80.396
499.99,1,80.595
499.99,1,80.794
499.99,1,80.993
499.99,1,81.192
499.99,1,81.391
499.99,1,81.59
499.99,1,81.789
499.99,1,81.988
499.99,1,82.187
499.99,1,82.386
499.99,1,82.585
499.99,1,82.784
499.99,1,82.983
500,1,83.182
500,1,83.381
500,1,83.58
500,1,83.779
500,1,83.978
500,1,84.177
500,1,84.376
500,1,84.575
500,1,84.774
500,1,84.973
500,1,85.172
500,1,85.371
500,1,85.57
500,1,85.769
500,1,85.968
500,1,86.167
500,1,86.366
500,1,86.565
500,1,86.764
500,1,86.963
500,1,87.162
500,1,87.361
500,1,87.56
500,1,87.759
500,1,87.958
500,1,88.157
500,1,88.356
500,1,88.555
500,1,88.754
500,1,88.953
500,1,89.152
500,1,89.351
500,1,89.55
500,1,89.749
500,1,89.948
500,1,90.147
500,1,90.346
500,1,90.545
500,1,90.744
500,1,90.943
500,1,91.142
500,1,91.341
500,1,91.54
500,1,91.739
500,1,91.938
500,1,92.137
500,1,92.336
500,1,92.535
500,1,92.734
500,1,92.933
500,1,93.132
500,1,93.331
500,1,93.53
500,1,93.729
500,1,93.928
500,1,94.127
500,1,94.326
500,1,94.525
500,1,94.724
500,1,94.923
500,1,95.122
500,1,95.321
500,1,95.52
500,1,95.719
500,1,95.918
500,1,96.117
500,1,96.316
500,1,96.515
500,1,96.714
500,1,96.913
500,1,97.112
500,1,97.311
500,1,97.51
500,1,97.709
500,1,97.908
500,1,98.107
500,1,98.306
500,1,98.505
500,1,98.704
500,1,98.903
500,1,99.102
500,1,99.301
500,1,99.5
500,1,99.699
500,1,99.898
500,1,100.1
500,1,100.3
500,1,100.5
500,1,100.69
500,1,100.89
500,1,101.09
500,1,101.29
500,1,101.49
500,1,101.69
500,1,101.89
500,1,102.09
500,1,102.29
500,1,102.49
500,1,102.68
500,1,102.88
500,1,103.08
500,1,103.28
500,1,103.48
500,1,103.68
500,1,103.88
500,1,104.08
500,1,104.28
500,1,104.47
500,1,104.67
500,1,104.87
500,1,105.07
500,1,105.27
500,1,105.47
500,1,105.67
500,1,105.87
500,1,106.07
500,1,106.27
500,1,106.46
500,1,106.66
500,1,106.86
500,1,107.06
500,1,107.26
500,1,107.46
500,1,107.66
500,1,107.86
500,1,108.06
500,1,108.26
500,1,108.46
500,1,108.65
500,1,108.85
500,1,109.05
500,1,109.25
500,1,109.45
500,1,109.65
500,1,109.85
500,1,110.05
500,1,110.25
500,1,110.44
500,1,110.64
500,1,110.84
500,1,111.04
500,1,111.24
500,1,111.44
500,1,111.64
500,1,111.84
500,1,112.04
500,1,112.24
500,1,112.43
500,1,112.63
500,1,112.83
500,1,113.03
500,1,113.23
500,1,113.43
500,1,113.63
500,1,113.83
500,1,114.03
500,1,114.23
500,1,114.43
500,1,114.62
500,1,114.82
500,1,115.02
500,1,115.22
500,1,115.42
500,1,115.62
500,1,115.82
500,1,116.02
500,1,116.22
500,1,116.42
500,1,116.61
500,1,116.81
499.99,1,117.01
499.99,1,117.21
499.99,1,117.41
499.99,1,117.61
499.99,1,117.81
499.99,1,118.01
499.99,1,118.21
499.99,1,118.4
499.99,1,118.6
499.99,1,118.8
499.99,1,119
499.99,1,119.2
499.99,1,119.4
499.99,1,119.6
499.99,1,119.8
499.99,1,120
499.99,1,120.2
499.99,1,120.39
499.99,1,120.59
499.99,1,120.79
499.99,1,120.99
499.99,1,121.19
499.99,1,121.39
499.99,1,121.59
499.99,1,121.79
499.99,1,121.99
499.98,1,122.19
499.98,1,122.39
499.98,1,122.58
499.98,1,122.78
499.98,1,122.98
499.98,1,123.18
499.98,1,123.38
499.98,1,123.58
499.98,1,123.78
499.98,1,123.98
499.97,1,124.18
499.97,1,124.38
499.97,1,124.57
499.97,1,124.77
499.97,1,124.97
499.96,1,125.17
499.96,1,125.37
499.96,1,125.57
499.96,1,125.77
499.96,1,125.97
499.95,1,126.17
499.95,1,126.36
499.95,1,126.56
499.95,1,126.76
499.95,1,126.96
499.93,1,127.16
499.93,1,127.36
499.93,1,127.56
499.93,1,127.76
499.93,1,127.96
499.92,1,128.16
499.92,1,128.35
499.92,1,128.55
499.92,1,128.75
499.92,1,128.95
499.89,1,129.15
499.89,1,129.35
499.89,1,129.55
499.89,1,129.75
499.89,1,129.95
499.87,1,130.15
499.87,1,130.35
499.87,1,130.54
499.87,1,130.74
499.87,1,130.94
499.83,1,131.14
499.83,1,131.34
499.83,1,131.54
499.83,1,131.74
499.83,1,131.94
499.79,1,132.14
499.79,1,132.34
499.79,1,132.53
499.79,1,132.73
499.79,1,132.93
499.74,1,133.13
499.74,1,133.33
499.74,1,133.53
499.74,1,133.73
499.74,1,133.93
499.67,1,134.13
499.67,1,134.32
499.67,1,134.52
499.67,1,134.72
499.67,1,134.92
499.59,1,135.12
499.59,1,135.32
499.59,1,135.52
499.59,1,135.72
499.59,1,135.92
499.5,1,136.12
499.5,1,136.32
499.5,1,136.51
499.5,1,136.71
499.5,1,136.91
499.38,1,137.11
499.38,1,137.31
499.38,1,137.51
499.38,1,137.71
499.38,1,137.91
499.23,1,138.11
499.23,1,138.3
499.23,1,138.5
499.23,1,138.7
499.23,1,138.9
499.06,1,139.1
499.06,1,139.3
499.06,1,139.5
499.06,1,139.7
499.06,1,139.9
498.85,1,140.1
498.85,1,140.29
498.85,1,140.49
498.85,1,140.69
498.85,1,140.89
498.6,1,141.09
498.6,1,141.29
498.6,1,141.49
498.6,1,141.69
498.6,1,141.89
498.3,1,142.09
498.3,1,142.29
498.3,1,142.48
498.3,1,142.68
498.3,1,142.88
497.94,1,143.08
497.94,1,143.28
497.94,1,143.48
497.94,1,143.68
497.94,1,143.88
497.51,1,144.08
497.51,1,144.27
497.51,1,144.47
497.51,1,144.67
497.51,1,144.87
497.01,1,145.07
497.01,1,145.27
497.01,1,145.47
497.01,1,145.67
497.01,1,145.87
496.42,1,146.07
496.42,1,146.26
496.42,1,146.46
496.42,1,146.66
496.42,1,146.86
495.73,1,147.06
495.73,1,147.26
495.73,1,147.46
495.73,1,147.66
495.73,1,147.86
494.92,1,148.06
494.92,1,148.26
494.92,1,148.45
494.92,1,148.65
494.92,1,148.85
493.99,1,149.05
493.99,1,149.25
493.99,1,149.45
493.99,1,149.65
493.99,1,149.85
492.9,1,150.05
492.9,1,150.24
492.9,1,150.44
492.9,1,150.64
492.9,1,150.84
491.65,1,151.04
491.65,1,151.24
491.65,1,151.44
491.65,1,151.64
491.65,1,151.84
490.21,1,152.04
490.21,1,152.24
490.21,1,152.43
490.21,1,152.63
490.21,1,152.83
488.56,1,153.03
488.56,1,153.23
488.56,1,153.43
488.56,1,153.63
488.56,1,153.83
486.68,1,154.03
486.68,1,154.23
486.68,1,154.42
486.68,1,154.62
486.68,1,154.82
484.55,1,155.02
484.55,1,155.22
484.55,1,155.42
484.55,1,155.62
484.55,1,155.82
482.15,1,156.02
482.15,1,156.21
482.15,1,156.41
482.15,1,156.61
482.15,1,156.81
479.43,1,157.01
479.43,1,157.21
479.43,1,157.41
479.43,1,157.61
479.43,1,157.81
476.39,1,158.01
476.39,1,158.21
476.39,1,158.4
476.39,1,158.6
476.39,1,158.8
472.99,1,159
472.99,1,159.2
472.99,1,159.4
472.99,1,159.6
472.99,1,159.8
472.99,1,160
469.22,1,160.2
469.22,1,160.39
469.22,1,160.59
469.22,1,160.79
469.22,1,160.99
465.03,1,161.19
465.03,1,161.39
465.03,1,161.59
465.03,1,161.79
465.03,1,161.99
460.41,1,162.18
460.41,1,162.38
460.41,1,162.58
460.41,1,162.78
460.41,1,162.98
455.33,1,163.18
455.33,1,163.38
455.33,1,163.58
455.33,1,163.78
455.33,1,163.98
449.77,1,164.18
449.77,1,164.37
449.77,1,164.57
449.77,1,164.77
449.77,1,164.97
443.71,1,165.17
443.71,1,165.37
443.71,1,165.57
443.71,1,165.77
443.71,1,165.97
437.12,1,166.16
437.12,1,166.36
437.12,1,166.56
437.12,1,166.76
437.12,1,166.96
430,1,167.16
430,1,167.36
430,1,167.56
430,1,167.76
430,1,167.96
422.32,1,168.15
422.32,1,168.35
422.32,1,168.55
422.32,1,168.75
422.32,1,168.95
414.08,1,169.15
414.08,1,169.35
414.08,1,169.55
414.08,1,169.75
414.08,1,169.95
405.27,1,170.15
405.27,1,170.34
405.27,1,170.54
405.27,1,170.74
405.27,1,170.94
395.89,1,171.14
395.89,1,171.34
395.89,1,171.54
395.89,1,171.74
395.89,1,171.94
385.94,1,172.13
385.94,1,172.33
385.94,1,172.53
385.94,1,172.73
385.94,1,172.93
375.42,1,173.13
375.42,1,173.33
375.42,1,173.53
375.42,1,173.73
375.42,1,173.93
364.35,1,174.12
364.35,1,174.32
364.35,1,174.52
364.35,1,174.72
364.35,1,174.92
352.73,1,175.12
352.73,1,175.32
352.73,1,175.52
352.73,1,175.72
352.73,1,175.92
340.6,1,176.12
340.6,1,176.31
340.6,1,176.51
340.6,1,176.71
340.6,1,176.91
327.97,1,177.11
327.97,1,177.31
327.97,1,177.51
327.97,1,177.71
327.97,1,177.91
314.88,1,178.1
314.88,1,178.3
314.88,1,178.5
314.88,1,178.7
314.88,1,178.9
301.46,1,179.1
301.46,1,179.3
301.46,1,179.5
301.46,1,179.7
301.46,1,179.9
0,1,180.1
0,1,180.29
0,1,180.49
0,1,180.69
0,1,180.89
0,1,181.09
0,1,181.29
0,1,181.49
0,1,181.69
0,1,181.89
0,1,182.09
0,1,182.28
0,1,182.48
0,1,182.68
0,1,182.88
0,1,183.08
0,1,183.28
0,1,183.48
0,1,183.68
0,1,183.88
0,1,184.07
0,1,184.27
0,1,184.47
0,1,184.67
0,1,184.87
0,1,185.07
0,1,185.27
0,1,185.47
0,1,185.67
0,1,185.87
0,1,186.07
0,1,186.26
0,1,186.46
0,1,186.66
0,1,186.86
0,1,187.06
0,1,187.26
0,1,187.46
0,1,187.66
0,1,187.86
0,1,188.05
0,1,188.25
0,1,188.45
0,1,188.65
0,1,188.85
0,1,189.05
0,1,189.25
0,1,189.45
0,1,189.65
0,1,189.85
0,1,190.04
0,1,190.24
0,1,190.44
0,1,190.64
0,1,190.84
0,1,191.04
0,1,191.24
0,1,191.44
0,1,191.64
0,1,191.84
0,1,192.04
0,1,192.23
0,1,192.43
0,1,192.63
0,1,192.83
0,1,193.03
0,1,193.23
0,1,193.43
0,1,193.63
0,1,193.83
0,1,194.02
0,1,194.22
0,1,194.42
0,1,194.62
0,1,194.82
0,1,195.02
0,1,195.22
0,1,195.42
0,1,195.62
0,1,195.82
0,1,196.01
0,1,196.21
0,1,196.41
0,1,196.61
0,1,196.81
0,1,197.01
0,1,197.21
0,1,197.41
0,1,197.61
0,1,197.81
0,1,198.01
0,1,198.2
0,1,198.4
0,1,198.6
0,1,198.8
0,1,199
