"PuMA_Matrix","vtkValidPointMask","arc_length"
0,1,0
0,1,0.199
0,1,0.398
0,1,0.597
0,1,0.796
0,1,0.995
0,1,1.194
0,1,1.393
0,1,1.592
0,1,1.791
0,1,1.99
0,1,2.189
0,1,2.388
0,1,2.587
0,1,2.786
0,1,2.985
0,1,3.184
0,1,3.383
0,1,3.582
0,1,3.781
0,1,3.98
0,1,4.179
0,1,4.378
0,1,4.577
0,1,4.776
0,1,4.975
0,1,5.174
0,1,5.373
0,1,5.572
0,1,5.771
0,1,5.97
0,1,6.169
0,1,6.368
0,1,6.567
0,1,6.766
0,1,6.965
0,1,7.164
0,1,7.363
0,1,7.562
0,1,7.761
0,1,7.96
0,1,8.159
0,1,8.358
0,1,8.557
0,1,8.756
0,1,8.955
0,1,9.154
0,1,9.353
0,1,9.552
0,1,9.751
0,1,9.95
0,1,10.149
0,1,10.348
0,1,10.547
0,1,10.746
0,1,10.945
0,1,11.144
0,1,11.343
0,1,11.542
0,1,11.741
0,1,11.94
0,1,12.139
0,1,12.338
0,1,12.537
0,1,12.736
0,1,12.935
0,1,13.134
0,1,13.333
0,1,13.532
0,1,13.731
0,1,13.93
0,1,14.129
0,1,14.328
0,1,14.527
0,1,14.726
0,1,14.925
0,1,15.124
0,1,15.323
0,1,15.522
0,1,15.721
0,1,15.92
0,1,16.119
0,1,16.318
0,1,16.517
0,1,16.716
0,1,16.915
0,1,17.114
0,1,17.313
0,1,17.512
0,1,17.711
0,1,17.91
0,1,18.109
0,1,18.308
0,1,18.507
0,1,18.706
0,1,18.905
0,1,19.104
0,1,19.303
0,1,19.502
0,1,19.701
0,1,19.9
281.42,1,20.099
281.42,1,20.298
281.42,1,20.497
281.42,1,20.696
281.42,1,20.895
293.97,1,21.094
293.97,1,21.293
293.97,1,21.492
293.97,1,21.691
293.97,1,21.89
306.3,1,22.089
306.3,1,22.288
306.3,1,22.487
306.3,1,22.686
306.3,1,22.885
318.29,1,23.084
318.29,1,23.283
318.29,1,23.482
318.29,1,23.681
318.29,1,23.88
329.92,1,24.079
329.92,1,24.278
329.92,1,24.477
329.92,1,24.676
329.92,1,24.875
341.17,1,25.074
341.17,1,25.273
341.17,1,25.472
341.17,1,25.671
341.17,1,25.87
352,1,26.069
352,1,26.268
352,1,26.467
352,1,26.666
352,1,26.865
362.42,1,27.064
362.42,1,27.263
362.42,1,27.462
362.42,1,27.661
362.42,1,27.86
372.4,1,28.059
372.4,1,28.258
372.4,1,28.457
372.4,1,28.656
372.4,1,28.855
381.94,1,29.054
381.94,1,29.253
381.94,1,29.452
381.94,1,29.651
381.94,1,29.85
391.02,1,30.049
391.02,1,30.248
391.02,1,30.447
391.02,1,30.646
391.02,1,30.845
399.65,1,31.044
399.65,1,31.243
399.65,1,31.442
399.65,1,31.641
399.65,1,31.84
407.81,1,32.039
407.81,1,32.238
407.81,1,32.437
407.81,1,32.636
407.81,1,32.835
415.53,1,33.034
415.53,1,33.233
415.53,1,33.432
415.53,1,33.631
415.53,1,33.83
422.78,1,34.029
422.78,1,34.228
422.78,1,34.427
422.78,1,34.626
422.78,1,34.825
429.59,1,35.024
429.59,1,35.223
429.59,1,35.422
429.59,1,35.621
429.59,1,35.82
435.96,1,36.019
435.96,1,36.218
435.96,1,36.417
435.96,1,36.616
435.96,1,36.815
441.9,1,37.014
441.9,1,37.213
441.9,1,37.412
441.9,1,37.611
441.9,1,37.81
447.43,1,38.009
447.43,1,38.208
447.43,1,38.407
447.43,1,38.606
447.43,1,38.805
452.55,1,39.004
452.55,1,39.203
452.55,1,39.402
452.55,1,39.601
452.55,1,39.8
452.55,1,39.999
457.28,1,40.198
457.28,1,40.397
457.28,1,40.596
457.28,1,40.795
457.28,1,40.994
461.64,1,41.193
461.64,1,41.392
461.64,1,41.591
461.64,1,41.79
461.64,1,41.989
465.64,1,42.188
465.64,1,42.387
465.64,1,42.586
465.64,1,42.785
465.64,1,42.984
469.31,1,43.183
469.31,1,43.382
469.31,1,43.581
469.31,1,43.78
469.31,1,43.979
472.65,1,44.178
472.65,1,44.377
472.65,1,44.576
472.65,1,44.775
472.65,1,44.974
475.7,1,45.173
475.7,1,45.372
475.7,1,45.571
475.7,1,45.77
475.7,1,45.969
478.46,1,46.168
478.46,1,46.367
478.46,1,46.566
478.46,1,46.765
478.46,1,46.964
480.96,1,47.163
480.96,1,47.362
480.96,1,47.561
480.96,1,47.76
480.96,1,47.959
483.21,1,48.158
483.21,1,48.357
483.21,1,48.556
483.21,1,48.755
483.21,1,48.954
485.23,1,49.153
485.23,1,49.352
485.23,1,49.551
485.23,1,49.75
485.23,1,49.949
487.05,1,50.148
487.05,1,50.347
487.05,1,50.546
487.05,1,50.745
487.05,1,50.944
488.67,1,51.143
488.67,1,51.342
488.67,1,51.541
488.67,1,51.74
488.67,1,51.939
490.12,1,52.138
490.12,1,52.337
490.12,1,52.536
490.12,1,52.735
490.12,1,52.934
491.4,1,53.133
491.4,1,53.332
491.4,1,53.531
491.4,1,53.73
491.4,1,53.929
492.53,1,54.128
492.53,1,54.327
492.53,1,54.526
492.53,1,54.725
492.53,1,54.924
493.54,1,55.123
493.54,1,55.322
493.54,1,55.521
493.54,1,55.72
493.54,1,55.919
494.42,1,56.118
494.42,1,56.317
494.42,1,56.516
494.42,1,56.715
494.42,1,56.914
495.19,1,57.113
495.19,1,57.312
495.19,1,57.511
495.19,1,57.71
495.19,1,57.909
495.87,1,58.108
495.87,1,58.307
495.87,1,58.506
495.87,1,58.705
495.87,1,58.904
496.46,1,59.103
496.46,1,59.302
496.46,1,59.501
496.46,1,59.7
496.46,1,59.899
496.98,1,60.098
496.98,1,60.297
496.98,1,60.496
496.98,1,60.695
496.98,1,60.894
497.42,1,61.093
497.42,1,61.292
497.42,1,61.491
497.42,1,61.69
497.42,1,61.889
497.81,1,62.088
497.81,1,62.287
497.81,1,62.486
497.81,1,62.685
497.81,1,62.884
498.14,1,63.083
498.14,1,63.282
498.14,1,63.481
498.14,1,63.68
498.14,1,63.879
498.42,1,64.078
498.42,1,64.277
498.42,1,64.476
498.42,1,64.675
498.42,1,64.874
498.67,1,65.073
498.67,1,65.272
498.67,1,65.471
498.67,1,65.67
498.67,1,65.869
498.88,1,66.068
498.88,1,66.267
498.88,1,66.466
498.88,1,66.665
498.88,1,66.864
499.06,1,67.063
499.06,1,67.262
499.06,1,67.461
499.06,1,67.66
499.06,1,67.859
499.21,1,68.058
499.21,1,68.257
499.21,1,68.456
499.21,1,68.655
499.21,1,68.854
499.34,1,69.053
499.34,1,69.252
499.34,1,69.451
499.34,1,69.65
499.34,1,69.849
499.45,1,70.048
499.45,1,70.247
499.45,1,70.446
499.45,1,70.645
499.45,1,70.844
499.54,1,71.043
499.54,1,71.242
499.54,1,71.441
499.54,1,71.64
499.54,1,71.839
499.62,1,72.038
499.62,1,72.237
499.62,1,72.436
499.62,1,72.635
499.62,1,72.834
499.68,1,73.033
499.68,1,73.232
499.68,1,73.431
499.68,1,73.63
499.68,1,73.829
499.74,1,74.028
499.74,1,74.227
499.74,1,74.426
499.74,1,74.625
499.74,1,74.824
499.78,1,75.023
499.78,1,75.222
499.78,1,75.421
499.78,1,75.62
499.78,1,75.819
499.82,1,76.018
499.82,1,76.217
499.82,1,76.416
499.82,1,76.615
499.82,1,76.814
499.85,1,77.013
499.85,1,77.212
499.85,1,77.411
499.85,1,77.61
499.85,1,77.809
499.88,1,78.008
499.88,1,78.207
499.88,1,78.406
499.88,1,78.605
499.88,1,78.804
499.9,1,79.003
499.9,1,79.202
499.9,1,79.401
499.9,1,79.6
499.9,1,79.799
499.9,1,79.998
499.92,1,80.197
499.92,1,80.396
499.92,1,80.595
499.92,1,80.794
499.92,1,80.993
499.93,1,81.192
499.93,1,81.391
499.93,1,81.59
499.93,1,81.789
499.93,1,81.988
499.94,1,82.187
499.94,1,82.386
499.94,1,82.585
499.94,1,82.784
499.94,1,82.983
499.95,1,83.182
499.95,1,83.381
499.95,1,83.58
499.95,1,83.779
499.95,1,83.978
499.96,1,84.177
499.96,1,84.376
499.96,1,84.575
499.96,1,84.774
499.96,1,84.973
499.97,1,85.172
499.97,1,85.371
499.97,1,85.57
499.97,1,85.769
499.97,1,85.968
499.97,1,86.167
499.97,1,86.366
499.97,1,86.565
499.97,1,86.764
499.97,1,86.963
499.98,1,87.162
499.98,1,87.361
499.98,1,87.56
499.98,1,87.759
499.98,1,87.958
499.98,1,88.157
499.98,1,88.356
499.98,1,88.555
499.98,1,88.754
499.98,1,88.953
499.99,1,89.152
499.99,1,89.351
499.99,1,89.55
499.99,1,89.749
499.99,1,89.948
499.99,1,90.147
499.99,1,90.346
499.99,1,90.545
499.99,1,90.744
499.99,1,90.943
499.99,1,91.142
499.99,1,91.341
499.99,1,91.54
499.99,1,91.739
499.99,1,91.938
499.99,1,92.137
499.99,1,92.336
499.99,1,92.535
499.99,1,92.734
499.99,1,92.933
499.99,1,93.132
499.99,1,93.331
499.99,1,93.53
499.99,1,93.729
499.99,1,93.928
499.99,1,94.127
499.99,1,94.326
499.99,1,94.525
499.99,1,94.724
499.99,1,94.923
499.99,1,95.122
499.99,1,95.321
499.99,1,95.52
499.99,1,95.719
499.99,1,95.918
499.99,1,96.117
499.99,1,96.316
499.99,1,96.515
499.99,1,96.714
499.99,1,96.913
500,1,97.112
500,1,97.311
500,1,97.51
500,1,97.709
500,1,97.908
500,1,98.107
500,1,98.306
500,1,98.505
500,1,98.704
500,1,98.903
500,1,99.102
500,1,99.301
500,1,99.5
500,1,99.699
500,1,99.898
500,1,100.1
500,1,100.3
500,1,100.5
500,1,100.69
500,1,100.89
500,1,101.09
500,1,101.29
500,1,101.49
500,1,101.69
500,1,101.89
500,1,102.09
500,1,102.29
500,1,102.49
500,1,102.68
500,1,102.88
499.99,1,103.08
499.99,1,103.28
499.99,1,103.48
499.99,1,103.68
499.99,1,103.88
499.99,1,104.08
499.99,1,104.28
499.99,1,104.47
499.99,1,104.67
499.99,1,104.87
499.99,1,105.07
499.99,1,105.27
499.99,1,105.47
499.99,1,105.67
499.99,1,105.87
499.99,1,106.07
499.99,1,106.27
499.99,1,106.46
499.99,1,106.66
499.99,1,106.86
499.99,1,107.06
499.99,1,107.26
499.99,1,107.46
499.99,1,107.66
499.99,1,107.86
499.99,1,108.06
499.99,1,108.26
499.99,1,108.46
499.99,1,108.65
499.99,1,108.85
499.99,1,109.05
499.99,1,109.25
499.99,1,109.45
499.99,1,109.65
499.99,1,109.85
499.99,1,110.05
499.99,1,110.25
499.99,1,110.44
499.99,1,110.64
499.99,1,110.84
499.98,1,111.04
499.98,1,111.24
499.98,1,111.44
499.98,1,111.64
499.98,1,111.84
499.98,1,112.04
499.98,1,112.24
499.98,1,112.43
499.98,1,112.63
499.98,1,112.83
499.97,1,113.03
499.97,1,113.23
499.97,1,113.43
499.97,1,113.63
499.97,1,113.83
499.97,1,114.03
499.97,1,114.23
499.97,1,114.43
499.97,1,114.62
499.97,1,114.82
499.96,1,115.02
499.96,1,115.22
499.96,1,115.42
499.96,1,115.62
499.96,1,115.82
499.95,1,116.02
499.95,1,116.22
499.95,1,116.42
499.95,1,116.61
499.95,1,116.81
499.94,1,117.01
499.94,1,117.21
499.94,1,117.41
499.94,1,117.61
499.94,1,117.81
499.93,1,118.01
499.93,1,118.21
499.93,1,118.4
499.93,1,118.6
499.93,1,118.8
499.92,1,119
499.92,1,119.2
499.92,1,119.4
499.92,1,119.6
499.92,1,119.8
499.92,1,120
499.9,1,120.2
499.9,1,120.39
499.9,1,120.59
499.9,1,120.79
499.9,1,120.99
499.88,1,121.19
499.88,1,121.39
499.88,1,121.59
499.88,1,121.79
499.88,1,121.99
499.85,1,122.19
499.85,1,122.39
499.85,1,122.58
499.85,1,122.78
499.85,1,122.98
499.82,1,123.18
499.82,1,123.38
499.82,1,123.58
499.82,1,123.78
499.82,1,123.98
499.78,1,124.18
499.78,1,124.38
499.78,1,124.57
499.78,1,124.77
499.78,1,124.97
499.74,1,125.17
499.74,1,125.37
499.74,1,125.57
499.74,1,125.77
499.74,1,125.97
499.68,1,126.17
499.68,1,126.36
499.68,1,126.56
499.68,1,126.76
499.68,1,126.96
499.62,1,127.16
499.62,1,127.36
499.62,1,127.56
499.62,1,127.76
499.62,1,127.96
499.54,1,128.16
499.54,1,128.35
499.54,1,128.55
499.54,1,128.75
499.54,1,128.95
499.45,1,129.15
499.45,1,129.35
499.45,1,129.55
499.45,1,129.75
499.45,1,129.95
499.34,1,130.15
499.34,1,130.35
499.34,1,130.54
499.34,1,130.74
499.34,1,130.94
499.21,1,131.14
499.21,1,131.34
499.21,1,131.54
499.21,1,131.74
499.21,1,131.94
499.06,1,132.14
499.06,1,132.34
499.06,1,132.53
499.06,1,132.73
499.06,1,132.93
498.88,1,133.13
498.88,1,133.33
498.88,1,133.53
498.88,1,133.73
498.88,1,133.93
498.67,1,134.13
498.67,1,134.32
498.67,1,134.52
498.67,1,134.72
498.67,1,134.92
498.42,1,135.12
498.42,1,135.32
498.42,1,135.52
498.42,1,135.72
498.42,1,135.92
498.14,1,136.12
498.14,1,136.32
498.14,1,136.51
498.14,1,136.71
498.14,1,136.91
497.81,1,137.11
497.81,1,137.31
497.81,1,137.51
497.81,1,137.71
497.81,1,137.91
497.42,1,138.11
497.42,1,138.3
497.42,1,138.5
497.42,1,138.7
497.42,1,138.9
496.98,1,139.1
496.98,1,139.3
496.98,1,139.5
496.98,1,139.7
496.98,1,139.9
496.46,1,140.1
496.46,1,140.29
496.46,1,140.49
496.46,1,140.69
496.46,1,140.89
495.87,1,141.09
495.87,1,141.29
495.87,1,141.49
495.87,1,141.69
495.87,1,141.89
495.19,1,142.09
495.19,1,142.29
495.19,1,142.48
495.19,1,142.68
495.19,1,142.88
494.42,1,143.08
494.42,1,143.28
494.42,1,143.48
494.42,1,143.68
494.42,1,143.88
493.54,1,144.08
493.54,1,144.27
493.54,1,144.47
493.54,1,144.67
493.54,1,144.87
492.53,1,145.07
492.53,1,145.27
492.53,1,145.47
492.53,1,145.67
492.53,1,145.87
491.4,1,146.07
491.4,1,146.26
491.4,1,146.46
491.4,1,146.66
491.4,1,146.86
490.12,1,147.06
490.12,1,147.26
490.12,1,147.46
490.12,1,147.66
490.12,1,147.86
488.67,1,148.06
488.67,1,148.26
488.67,1,148.45
488.67,1,148.65
488.67,1,148.85
487.05,1,149.05
487.05,1,149.25
487.05,1,149.45
487.05,1,149.65
487.05,1,149.85
485.23,1,150.05
485.23,1,150.24
485.23,1,150.44
485.23,1,150.64
485.23,1,150.84
483.21,1,151.04
483.21,1,151.24
483.21,1,151.44
483.21,1,151.64
483.21,1,151.84
480.96,1,152.04
480.96,1,152.24
480.96,1,152.43
480.96,1,152.63
480.96,1,152.83
478.46,1,153.03
478.46,1,153.23
478.46,1,153.43
478.46,1,153.63
478.46,1,153.83
475.7,1,154.03
475.7,1,154.23
475.7,1,154.42
475.7,1,154.62
475.7,1,154.82
472.65,1,155.02
472.65,1,155.22
472.65,1,155.42
472.65,1,155.62
472.65,1,155.82
469.31,1,156.02
469.31,1,156.21
469.31,1,156.41
469.31,1,156.61
469.31,1,156.81
465.64,1,157.01
465.64,1,157.21
465.64,1,157.41
465.64,1,157.61
465.64,1,157.81
461.64,1,158.01
461.64,1,158.21
461.64,1,158.4
461.64,1,158.6
461.64,1,158.8
457.28,1,159
457.28,1,159.2
457.28,1,159.4
457.28,1,159.6
457.28,1,159.8
457.28,1,160
452.55,1,160.2
452.55,1,160.39
452.55,1,160.59
452.55,1,160.79
452.55,1,160.99
447.43,1,161.19
447.43,1,161.39
447.43,1,161.59
447.43,1,161.79
447.43,1,161.99
441.9,1,162.18
441.9,1,162.38
441.9,1,162.58
441.9,1,162.78
441.9,1,162.98
435.96,1,163.18
435.96,1,163.38
435.96,1,163.58
435.96,1,163.78
435.96,1,163.98
429.59,1,164.18
429.59,1,164.37
429.59,1,164.57
429.59,1,164.77
429.59,1,164.97
422.78,1,165.17
422.78,1,165.37
422.78,1,165.57
422.78,1,165.77
422.78,1,165.97
415.53,1,166.16
415.53,1,166.36
415.53,1,166.56
415.53,1,166.76
415.53,1,166.96
407.81,1,167.16
407.81,1,167.36
407.81,1,167.56
407.81,1,167.76
407.81,1,167.96
399.65,1,168.15
399.65,1,168.35
399.65,1,168.55
399.65,1,168.75
399.65,1,168.95
391.02,1,169.15
391.02,1,169.35
391.02,1,169.55
391.02,1,169.75
391.02,1,169.95
381.94,1,170.15
381.94,1,170.34
381.94,1,170.54
381.94,1,170.74
381.94,1,170.94
372.4,1,171.14
372.4,1,171.34
372.4,1,171.54
372.4,1,171.74
372.4,1,171.94
362.42,1,172.13
362.42,1,172.33
362.42,1,172.53
362.42,1,172.73
362.42,1,172.93
352,1,173.13
352,1,173.33
352,1,173.53
352,1,173.73
352,1,173.93
341.17,1,174.12
341.17,1,174.32
341.17,1,174.52
341.17,1,174.72
341.17,1,174.92
329.92,1,175.12
329.92,1,175.32
329.92,1,175.52
329.92,1,175.72
329.92,1,175.92
318.29,1,176.12
318.29,1,176.31
318.29,1,176.51
318.29,1,176.71
318.29,1,176.91
306.3,1,177.11
306.3,1,177.31
306.3,1,177.51
306.3,1,177.71
306.3,1,177.91
293.97,1,178.1
293.97,1,178.3
293.97,1,178.5
293.97,1,178.7
293.97,1,178.9
281.42,1,179.1
281.42,1,179.3
281.42,1,179.5
281.42,1,179.7
281.42,1,179.9
0,1,180.1
0,1,180.29
0,1,180.49
0,1,180.69
0,1,180.89
0,1,181.09
0,1,181.29
0,1,181.49
0,1,181.69
0,1,181.89
0,1,182.09
0,1,182.28
0,1,182.48
0,1,182.68
0,1,182.88
0,1,183.08
0,1,183.28
0,1,183.48
0,1,183.68
0,1,183.88
0,1,184.07
0,1,184.27
0,1,184.47
0,1,184.67
0,1,184.87
0,1,185.07
0,1,185.27
0,1,185.47
0,1,185.67
0,1,185.87
0,1,186.07
0,1,186.26
0,1,186.46
0,1,186.66
0,1,186.86
0,1,187.06
0,1,187.26
0,1,187.46
0,1,187.66
0,1,187.86
0,1,188.05
0,1,188.25
0,1,188.45
0,1,188.65
0,1,188.85
0,1,189.05
0,1,189.25
0,1,189.45
0,1,189.65
0,1,189.85
0,1,190.04
0,1,190.24
0,1,190.44
0,1,190.64
0,1,190.84
0,1,191.04
0,1,191.24
0,1,191.44
0,1,191.64
0,1,191.84
0,1,192.04
0,1,192.23
0,1,192.43
0,1,192.63
0,1,192.83
0,1,193.03
0,1,193.23
0,1,193.43
0,1,193.63
0,1,193.83
0,1,194.02
0,1,194.22
0,1,194.42
0,1,194.62
0,1,194.82
0,1,195.02
0,1,195.22
0,1,195.42
0,1,195.62
0,1,195.82
0,1,196.01
0,1,196.21
0,1,196.41
0,1,196.61
0,1,196.81
0,1,197.01
0,1,197.21
0,1,197.41
0,1,197.61
0,1,197.81
0,1,198.01
0,1,198.2
0,1,198.4
0,1,198.6
0,1,198.8
0,1,199
