"PuMA_Matrix","vtkValidPointMask","arc_length"
0,1,0
0,1,0.199
0,1,0.398
0,1,0.597
0,1,0.796
0,1,0.995
0,1,1.194
0,1,1.393
0,1,1.592
0,1,1.791
0,1,1.99
0,1,2.189
0,1,2.388
0,1,2.587
0,1,2.786
0,1,2.985
0,1,3.184
0,1,3.383
0,1,3.582
0,1,3.781
0,1,3.98
0,1,4.179
0,1,4.378
0,1,4.577
0,1,4.776
0,1,4.975
0,1,5.174
0,1,5.373
0,1,5.572
0,1,5.771
0,1,5.97
0,1,6.169
0,1,6.368
0,1,6.567
0,1,6.766
0,1,6.965
0,1,7.164
0,1,7.363
0,1,7.562
0,1,7.761
0,1,7.96
0,1,8.159
0,1,8.358
0,1,8.557
0,1,8.756
0,1,8.955
0,1,9.154
0,1,9.353
0,1,9.552
0,1,9.751
0,1,9.95
0,1,10.149
0,1,10.348
0,1,10.547
0,1,10.746
0,1,10.945
0,1,11.144
0,1,11.343
0,1,11.542
0,1,11.741
0,1,11.94
0,1,12.139
0,1,12.338
0,1,12.537
0,1,12.736
0,1,12.935
0,1,13.134
0,1,13.333
0,1,13.532
0,1,13.731
0,1,13.93
0,1,14.129
0,1,14.328
0,1,14.527
0,1,14.726
0,1,14.925
0,1,15.124
0,1,15.323
0,1,15.522
0,1,15.721
0,1,15.92
0,1,16.119
0,1,16.318
0,1,16.517
0,1,16.716
0,1,16.915
0,1,17.114
0,1,17.313
0,1,17.512
0,1,17.711
0,1,17.91
0,1,18.109
0,1,18.308
0,1,18.507
0,1,18.706
0,1,18.905
0,1,19.104
0,1,19.303
0,1,19.502
0,1,19.701
0,1,19.9
261.32,1,20.099
261.32,1,20.298
261.32,1,20.497
261.32,1,20.696
261.32,1,20.895
272.97,1,21.094
272.97,1,21.293
272.97,1,21.492
272.97,1,21.691
272.97,1,21.89
284.48,1,22.089
284.48,1,22.288
284.48,1,22.487
284.48,1,22.686
284.48,1,22.885
295.76,1,23.084
295.76,1,23.283
295.76,1,23.482
295.76,1,23.681
295.76,1,23.88
306.77,1,24.079
306.77,1,24.278
306.77,1,24.477
306.77,1,24.676
306.77,1,24.875
317.51,1,25.074
317.51,1,25.273
317.51,1,25.472
317.51,1,25.671
317.51,1,25.87
327.94,1,26.069
327.94,1,26.268
327.94,1,26.467
327.94,1,26.666
327.94,1,26.865
338.07,1,27.064
338.07,1,27.263
338.07,1,27.462
338.07,1,27.661
338.07,1,27.86
347.87,1,28.059
347.87,1,28.258
347.87,1,28.457
347.87,1,28.656
347.87,1,28.855
357.33,1,29.054
357.33,1,29.253
357.33,1,29.452
357.33,1,29.651
357.33,1,29.85
366.44,1,30.049
366.44,1,30.248
366.44,1,30.447
366.44,1,30.646
366.44,1,30.845
375.2,1,31.044
375.2,1,31.243
375.2,1,31.442
375.2,1,31.641
375.2,1,31.84
383.6,1,32.039
383.6,1,32.238
383.6,1,32.437
383.6,1,32.636
383.6,1,32.835
391.64,1,33.034
391.64,1,33.233
391.64,1,33.432
391.64,1,33.631
391.64,1,33.83
399.31,1,34.029
399.31,1,34.228
399.31,1,34.427
399.31,1,34.626
399.31,1,34.825
406.61,1,35.024
406.61,1,35.223
406.61,1,35.422
406.61,1,35.621
406.61,1,35.82
413.54,1,36.019
413.54,1,36.218
413.54,1,36.417
413.54,1,36.616
413.54,1,36.815
420.12,1,37.014
420.12,1,37.213
420.12,1,37.412
420.12,1,37.611
420.12,1,37.81
426.33,1,38.009
426.33,1,38.208
426.33,1,38.407
426.33,1,38.606
426.33,1,38.805
432.19,1,39.004
432.19,1,39.203
432.19,1,39.402
432.19,1,39.601
432.19,1,39.8
432.19,1,39.999
437.7,1,40.198
437.7,1,40.397
437.7,1,40.596
437.7,1,40.795
437.7,1,40.994
442.88,1,41.193
442.88,1,41.392
442.88,1,41.591
442.88,1,41.79
442.88,1,41.989
447.73,1,42.188
447.73,1,42.387
447.73,1,42.586
447.73,1,42.785
447.73,1,42.984
452.26,1,43.183
452.26,1,43.382
452.26,1,43.581
452.26,1,43.78
452.26,1,43.979
456.48,1,44.178
456.48,1,44.377
456.48,1,44.576
456.48,1,44.775
456.48,1,44.974
460.4,1,45.173
460.4,1,45.372
460.4,1,45.571
460.4,1,45.77
460.4,1,45.969
464.04,1,46.168
464.04,1,46.367
464.04,1,46.566
464.04,1,46.765
464.04,1,46.964
467.41,1,47.163
467.41,1,47.362
467.41,1,47.561
467.41,1,47.76
467.41,1,47.959
470.53,1,48.158
470.53,1,48.357
470.53,1,48.556
470.53,1,48.755
470.53,1,48.954
473.39,1,49.153
473.39,1,49.352
473.39,1,49.551
473.39,1,49.75
473.39,1,49.949
476.03,1,50.148
476.03,1,50.347
476.03,1,50.546
476.03,1,50.745
476.03,1,50.944
478.44,1,51.143
478.44,1,51.342
478.44,1,51.541
478.44,1,51.74
478.44,1,51.939
480.65,1,52.138
480.65,1,52.337
480.65,1,52.536
480.65,1,52.735
480.65,1,52.934
482.67,1,53.133
482.67,1,53.332
482.67,1,53.531
482.67,1,53.73
482.67,1,53.929
484.5,1,54.128
484.5,1,54.327
484.5,1,54.526
484.5,1,54.725
484.5,1,54.924
486.17,1,55.123
486.17,1,55.322
486.17,1,55.521
486.17,1,55.72
486.17,1,55.919
487.68,1,56.118
487.68,1,56.317
487.68,1,56.516
487.68,1,56.715
487.68,1,56.914
489.05,1,57.113
489.05,1,57.312
489.05,1,57.511
489.05,1,57.71
489.05,1,57.909
490.28,1,58.108
490.28,1,58.307
490.28,1,58.506
490.28,1,58.705
490.28,1,58.904
491.39,1,59.103
491.39,1,59.302
491.39,1,59.501
491.39,1,59.7
491.39,1,59.899
492.39,1,60.098
492.39,1,60.297
492.39,1,60.496
492.39,1,60.695
492.39,1,60.894
493.28,1,61.093
493.28,1,61.292
493.28,1,61.491
493.28,1,61.69
493.28,1,61.889
494.08,1,62.088
494.08,1,62.287
494.08,1,62.486
494.08,1,62.685
494.08,1,62.884
494.8,1,63.083
494.8,1,63.282
494.8,1,63.481
494.8,1,63.68
494.8,1,63.879
495.43,1,64.078
495.43,1,64.277
495.43,1,64.476
495.43,1,64.675
495.43,1,64.874
496,1,65.073
496,1,65.272
496,1,65.471
496,1,65.67
496,1,65.869
496.5,1,66.068
496.5,1,66.267
496.5,1,66.466
496.5,1,66.665
496.5,1,66.864
496.94,1,67.063
496.94,1,67.262
496.94,1,67.461
496.94,1,67.66
496.94,1,67.859
497.33,1,68.058
497.33,1,68.257
497.33,1,68.456
497.33,1,68.655
497.33,1,68.854
497.67,1,69.053
497.67,1,69.252
497.67,1,69.451
497.67,1,69.65
497.67,1,69.849
497.98,1,70.048
497.98,1,70.247
497.98,1,70.446
497.98,1,70.645
497.98,1,70.844
498.24,1,71.043
498.24,1,71.242
498.24,1,71.441
498.24,1,71.64
498.24,1,71.839
498.48,1,72.038
498.48,1,72.237
498.48,1,72.436
498.48,1,72.635
498.48,1,72.834
498.68,1,73.033
498.68,1,73.232
498.68,1,73.431
498.68,1,73.63
498.68,1,73.829
498.86,1,74.028
498.86,1,74.227
498.86,1,74.426
498.86,1,74.625
498.86,1,74.824
499.01,1,75.023
499.01,1,75.222
499.01,1,75.421
499.01,1,75.62
499.01,1,75.819
499.15,1,76.018
499.15,1,76.217
499.15,1,76.416
499.15,1,76.615
499.15,1,76.814
499.26,1,77.013
499.26,1,77.212
499.26,1,77.411
499.26,1,77.61
499.26,1,77.809
499.36,1,78.008
499.36,1,78.207
499.36,1,78.406
499.36,1,78.605
499.36,1,78.804
499.45,1,79.003
499.45,1,79.202
499.45,1,79.401
499.45,1,79.6
499.45,1,79.799
499.45,1,79.998
499.53,1,80.197
499.53,1,80.396
499.53,1,80.595
499.53,1,80.794
499.53,1,80.993
499.59,1,81.192
499.59,1,81.391
499.59,1,81.59
499.59,1,81.789
499.59,1,81.988
499.65,1,82.187
499.65,1,82.386
499.65,1,82.585
499.65,1,82.784
499.65,1,82.983
499.7,1,83.182
499.7,1,83.381
499.7,1,83.58
499.7,1,83.779
499.7,1,83.978
499.74,1,84.177
499.74,1,84.376
499.74,1,84.575
499.74,1,84.774
499.74,1,84.973
499.77,1,85.172
499.77,1,85.371
499.77,1,85.57
499.77,1,85.769
499.77,1,85.968
499.8,1,86.167
499.8,1,86.366
499.8,1,86.565
499.8,1,86.764
499.8,1,86.963
499.83,1,87.162
499.83,1,87.361
499.83,1,87.56
499.83,1,87.759
499.83,1,87.958
499.85,1,88.157
499.85,1,88.356
499.85,1,88.555
499.85,1,88.754
499.85,1,88.953
499.87,1,89.152
499.87,1,89.351
499.87,1,89.55
499.87,1,89.749
499.87,1,89.948
499.88,1,90.147
499.88,1,90.346
499.88,1,90.545
499.88,1,90.744
499.88,1,90.943
499.9,1,91.142
499.9,1,91.341
499.9,1,91.54
499.9,1,91.739
499.9,1,91.938
499.91,1,92.137
499.91,1,92.336
499.91,1,92.535
499.91,1,92.734
499.91,1,92.933
499.92,1,93.132
499.92,1,93.331
499.92,1,93.53
499.92,1,93.729
499.92,1,93.928
499.92,1,94.127
499.92,1,94.326
499.92,1,94.525
499.92,1,94.724
499.92,1,94.923
499.93,1,95.122
499.93,1,95.321
499.93,1,95.52
499.93,1,95.719
499.93,1,95.918
499.94,1,96.117
499.94,1,96.316
499.94,1,96.515
499.94,1,96.714
499.94,1,96.913
499.94,1,97.112
499.94,1,97.311
499.94,1,97.51
499.94,1,97.709
499.94,1,97.908
499.94,1,98.107
499.94,1,98.306
499.94,1,98.505
499.94,1,98.704
499.94,1,98.903
499.94,1,99.102
499.94,1,99.301
499.94,1,99.5
499.94,1,99.699
499.94,1,99.898
499.94,1,100.1
499.94,1,100.3
499.94,1,100.5
499.94,1,100.69
499.94,1,100.89
499.94,1,101.09
499.94,1,101.29
499.94,1,101.49
499.94,1,101.69
499.94,1,101.89
499.94,1,102.09
499.94,1,102.29
499.94,1,102.49
499.94,1,102.68
499.94,1,102.88
499.94,1,103.08
499.94,1,103.28
499.94,1,103.48
499.94,1,103.68
499.94,1,103.88
499.93,1,104.08
499.93,1,104.28
499.93,1,104.47
499.93,1,104.67
499.93,1,104.87
499.92,1,105.07
499.92,1,105.27
499.92,1,105.47
499.92,1,105.67
499.92,1,105.87
499.92,1,106.07
499.92,1,106.27
499.92,1,106.46
499.92,1,106.66
499.92,1,106.86
499.91,1,107.06
499.91,1,107.26
499.91,1,107.46
499.91,1,107.66
499.91,1,107.86
499.9,1,108.06
499.9,1,108.26
499.9,1,108.46
499.9,1,108.65
499.9,1,108.85
499.88,1,109.05
499.88,1,109.25
499.88,1,109.45
499.88,1,109.65
499.88,1,109.85
499.87,1,110.05
499.87,1,110.25
499.87,1,110.44
499.87,1,110.64
499.87,1,110.84
499.85,1,111.04
499.85,1,111.24
499.85,1,111.44
499.85,1,111.64
499.85,1,111.84
499.83,1,112.04
499.83,1,112.24
499.83,1,112.43
499.83,1,112.63
499.83,1,112.83
499.8,1,113.03
499.8,1,113.23
499.8,1,113.43
499.8,1,113.63
499.8,1,113.83
499.77,1,114.03
499.77,1,114.23
499.77,1,114.43
499.77,1,114.62
499.77,1,114.82
499.74,1,115.02
499.74,1,115.22
499.74,1,115.42
499.74,1,115.62
499.74,1,115.82
499.7,1,116.02
499.7,1,116.22
499.7,1,116.42
499.7,1,116.61
499.7,1,116.81
499.65,1,117.01
499.65,1,117.21
499.65,1,117.41
499.65,1,117.61
499.65,1,117.81
499.59,1,118.01
499.59,1,118.21
499.59,1,118.4
499.59,1,118.6
499.59,1,118.8
499.53,1,119
499.53,1,119.2
499.53,1,119.4
499.53,1,119.6
499.53,1,119.8
499.53,1,120
499.45,1,120.2
499.45,1,120.39
499.45,1,120.59
499.45,1,120.79
499.45,1,120.99
499.36,1,121.19
499.36,1,121.39
499.36,1,121.59
499.36,1,121.79
499.36,1,121.99
499.26,1,122.19
499.26,1,122.39
499.26,1,122.58
499.26,1,122.78
499.26,1,122.98
499.15,1,123.18
499.15,1,123.38
499.15,1,123.58
499.15,1,123.78
499.15,1,123.98
499.01,1,124.18
499.01,1,124.38
499.01,1,124.57
499.01,1,124.77
499.01,1,124.97
498.86,1,125.17
498.86,1,125.37
498.86,1,125.57
498.86,1,125.77
498.86,1,125.97
498.68,1,126.17
498.68,1,126.36
498.68,1,126.56
498.68,1,126.76
498.68,1,126.96
498.48,1,127.16
498.48,1,127.36
498.48,1,127.56
498.48,1,127.76
498.48,1,127.96
498.24,1,128.16
498.24,1,128.35
498.24,1,128.55
498.24,1,128.75
498.24,1,128.95
497.98,1,129.15
497.98,1,129.35
497.98,1,129.55
497.98,1,129.75
497.98,1,129.95
497.67,1,130.15
497.67,1,130.35
497.67,1,130.54
497.67,1,130.74
497.67,1,130.94
497.33,1,131.14
497.33,1,131.34
497.33,1,131.54
497.33,1,131.74
497.33,1,131.94
496.94,1,132.14
496.94,1,132.34
496.94,1,132.53
496.94,1,132.73
496.94,1,132.93
496.5,1,133.13
496.5,1,133.33
496.5,1,133.53
496.5,1,133.73
496.5,1,133.93
496,1,134.13
496,1,134.32
496,1,134.52
496,1,134.72
496,1,134.92
495.43,1,135.12
495.43,1,135.32
495.43,1,135.52
495.43,1,135.72
495.43,1,135.92
494.8,1,136.12
494.8,1,136.32
494.8,1,136.51
494.8,1,136.71
494.8,1,136.91
494.08,1,137.11
494.08,1,137.31
494.08,1,137.51
494.08,1,137.71
494.08,1,137.91
493.28,1,138.11
493.28,1,138.3
493.28,1,138.5
493.28,1,138.7
493.28,1,138.9
492.39,1,139.1
492.39,1,139.3
492.39,1,139.5
492.39,1,139.7
492.39,1,139.9
491.39,1,140.1
491.39,1,140.29
491.39,1,140.49
491.39,1,140.69
491.39,1,140.89
490.28,1,141.09
490.28,1,141.29
490.28,1,141.49
490.28,1,141.69
490.28,1,141.89
489.05,1,142.09
489.05,1,142.29
489.05,1,142.48
489.05,1,142.68
489.05,1,142.88
487.68,1,143.08
487.68,1,143.28
487.68,1,143.48
487.68,1,143.68
487.68,1,143.88
486.17,1,144.08
486.17,1,144.27
486.17,1,144.47
486.17,1,144.67
486.17,1,144.87
484.5,1,145.07
484.5,1,145.27
484.5,1,145.47
484.5,1,145.67
484.5,1,145.87
482.67,1,146.07
482.67,1,146.26
482.67,1,146.46
482.67,1,146.66
482.67,1,146.86
480.65,1,147.06
480.65,1,147.26
480.65,1,147.46
480.65,1,147.66
480.65,1,147.86
478.44,1,148.06
478.44,1,148.26
478.44,1,148.45
478.44,1,148.65
478.44,1,148.85
476.03,1,149.05
476.03,1,149.25
476.03,1,149.45
476.03,1,149.65
476.03,1,149.85
473.39,1,150.05
473.39,1,150.24
473.39,1,150.44
473.39,1,150.64
473.39,1,150.84
470.53,1,151.04
470.53,1,151.24
470.53,1,151.44
470.53,1,151.64
470.53,1,151.84
467.41,1,152.04
467.41,1,152.24
467.41,1,152.43
467.41,1,152.63
467.41,1,152.83
464.04,1,153.03
464.04,1,153.23
464.04,1,153.43
464.04,1,153.63
464.04,1,153.83
460.4,1,154.03
460.4,1,154.23
460.4,1,154.42
460.4,1,154.62
460.4,1,154.82
456.48,1,155.02
456.48,1,155.22
456.48,1,155.42
456.48,1,155.62
456.48,1,155.82
452.26,1,156.02
452.26,1,156.21
452.26,1,156.41
452.26,1,156.61
452.26,1,156.81
447.73,1,157.01
447.73,1,157.21
447.73,1,157.41
447.73,1,157.61
447.73,1,157.81
442.88,1,158.01
442.88,1,158.21
442.88,1,158.4
442.88,1,158.6
442.88,1,158.8
437.7,1,159
437.7,1,159.2
437.7,1,159.4
437.7,1,159.6
437.7,1,159.8
437.7,1,160
432.19,1,160.2
432.19,1,160.39
432.19,1,160.59
432.19,1,160.79
432.19,1,160.99
426.33,1,161.19
426.33,1,161.39
426.33,1,161.59
426.33,1,161.79
426.33,1,161.99
420.12,1,162.18
420.12,1,162.38
420.12,1,162.58
420.12,1,162.78
420.12,1,162.98
413.54,1,163.18
413.54,1,163.38
413.54,1,163.58
413.54,1,163.78
413.54,1,163.98
406.61,1,164.18
406.61,1,164.37
406.61,1,164.57
406.61,1,164.77
406.61,1,164.97
399.31,1,165.17
399.31,1,165.37
399.31,1,165.57
399.31,1,165.77
399.31,1,165.97
391.64,1,166.16
391.64,1,166.36
391.64,1,166.56
391.64,1,166.76
391.64,1,166.96
383.6,1,167.16
383.6,1,167.36
383.6,1,167.56
383.6,1,167.76
383.6,1,167.96
375.2,1,168.15
375.2,1,168.35
375.2,1,168.55
375.2,1,168.75
375.2,1,168.95
366.44,1,169.15
366.44,1,169.35
366.44,1,169.55
366.44,1,169.75
366.44,1,169.95
357.33,1,170.15
357.33,1,170.34
357.33,1,170.54
357.33,1,170.74
357.33,1,170.94
347.87,1,171.14
347.87,1,171.34
347.87,1,171.54
347.87,1,171.74
347.87,1,171.94
338.07,1,172.13
338.07,1,172.33
338.07,1,172.53
338.07,1,172.73
338.07,1,172.93
327.94,1,173.13
327.94,1,173.33
327.94,1,173.53
327.94,1,173.73
327.94,1,173.93
317.51,1,174.12
317.51,1,174.32
317.51,1,174.52
317.51,1,174.72
317.51,1,174.92
306.77,1,175.12
306.77,1,175.32
306.77,1,175.52
306.77,1,175.72
306.77,1,175.92
295.76,1,176.12
295.76,1,176.31
295.76,1,176.51
295.76,1,176.71
295.76,1,176.91
284.48,1,177.11
284.48,1,177.31
284.48,1,177.51
284.48,1,177.71
284.48,1,177.91
272.97,1,178.1
272.97,1,178.3
272.97,1,178.5
272.97,1,178.7
272.97,1,178.9
261.32,1,179.1
261.32,1,179.3
261.32,1,179.5
261.32,1,179.7
261.32,1,179.9
0,1,180.1
0,1,180.29
0,1,180.49
0,1,180.69
0,1,180.89
0,1,181.09
0,1,181.29
0,1,181.49
0,1,181.69
0,1,181.89
0,1,182.09
0,1,182.28
0,1,182.48
0,1,182.68
0,1,182.88
0,1,183.08
0,1,183.28
0,1,183.48
0,1,183.68
0,1,183.88
0,1,184.07
0,1,184.27
0,1,184.47
0,1,184.67
0,1,184.87
0,1,185.07
0,1,185.27
0,1,185.47
0,1,185.67
0,1,185.87
0,1,186.07
0,1,186.26
0,1,186.46
0,1,186.66
0,1,186.86
0,1,187.06
0,1,187.26
0,1,187.46
0,1,187.66
0,1,187.86
0,1,188.05
0,1,188.25
0,1,188.45
0,1,188.65
0,1,188.85
0,1,189.05
0,1,189.25
0,1,189.45
0,1,189.65
0,1,189.85
0,1,190.04
0,1,190.24
0,1,190.44
0,1,190.64
0,1,190.84
0,1,191.04
0,1,191.24
0,1,191.44
0,1,191.64
0,1,191.84
0,1,192.04
0,1,192.23
0,1,192.43
0,1,192.63
0,1,192.83
0,1,193.03
0,1,193.23
0,1,193.43
0,1,193.63
0,1,193.83
0,1,194.02
0,1,194.22
0,1,194.42
0,1,194.62
0,1,194.82
0,1,195.02
0,1,195.22
0,1,195.42
0,1,195.62
0,1,195.82
0,1,196.01
0,1,196.21
0,1,196.41
0,1,196.61
0,1,196.81
0,1,197.01
0,1,197.21
0,1,197.41
0,1,197.61
0,1,197.81
0,1,198.01
0,1,198.2
0,1,198.4
0,1,198.6
0,1,198.8
0,1,199
