"PuMA_Matrix","vtkValidPointMask","arc_length"
0,1,0
0,1,0.199
0,1,0.398
0,1,0.597
0,1,0.796
0,1,0.995
0,1,1.194
0,1,1.393
0,1,1.592
0,1,1.791
0,1,1.99
0,1,2.189
0,1,2.388
0,1,2.587
0,1,2.786
0,1,2.985
0,1,3.184
0,1,3.383
0,1,3.582
0,1,3.781
0,1,3.98
0,1,4.179
0,1,4.378
0,1,4.577
0,1,4.776
0,1,4.975
0,1,5.174
0,1,5.373
0,1,5.572
0,1,5.771
0,1,5.97
0,1,6.169
0,1,6.368
0,1,6.567
0,1,6.766
0,1,6.965
0,1,7.164
0,1,7.363
0,1,7.562
0,1,7.761
0,1,7.96
0,1,8.159
0,1,8.358
0,1,8.557
0,1,8.756
0,1,8.955
0,1,9.154
0,1,9.353
0,1,9.552
0,1,9.751
0,1,9.95
0,1,10.149
0,1,10.348
0,1,10.547
0,1,10.746
0,1,10.945
0,1,11.144
0,1,11.343
0,1,11.542
0,1,11.741
0,1,11.94
0,1,12.139
0,1,12.338
0,1,12.537
0,1,12.736
0,1,12.935
0,1,13.134
0,1,13.333
0,1,13.532
0,1,13.731
0,1,13.93
0,1,14.129
0,1,14.328
0,1,14.527
0,1,14.726
0,1,14.925
0,1,15.124
0,1,15.323
0,1,15.522
0,1,15.721
0,1,15.92
0,1,16.119
0,1,16.318
0,1,16.517
0,1,16.716
0,1,16.915
0,1,17.114
0,1,17.313
0,1,17.512
0,1,17.711
0,1,17.91
0,1,18.109
0,1,18.308
0,1,18.507
0,1,18.706
0,1,18.905
0,1,19.104
0,1,19.303
0,1,19.502
0,1,19.701
0,1,19.9
285.84,1,20.099
285.84,1,20.298
285.84,1,20.497
285.84,1,20.696
285.84,1,20.895
298.59,1,21.094
298.59,1,21.293
298.59,1,21.492
298.59,1,21.691
298.59,1,21.89
311.09,1,22.089
311.09,1,22.288
311.09,1,22.487
311.09,1,22.686
311.09,1,22.885
323.23,1,23.084
323.23,1,23.283
323.23,1,23.482
323.23,1,23.681
323.23,1,23.88
334.98,1,24.079
334.98,1,24.278
334.98,1,24.477
334.98,1,24.676
334.98,1,24.875
346.32,1,25.074
346.32,1,25.273
346.32,1,25.472
346.32,1,25.671
346.32,1,25.87
357.22,1,26.069
357.22,1,26.268
357.22,1,26.467
357.22,1,26.666
357.22,1,26.865
367.68,1,27.064
367.68,1,27.263
367.68,1,27.462
367.68,1,27.661
367.68,1,27.86
377.67,1,28.059
377.67,1,28.258
377.67,1,28.457
377.67,1,28.656
377.67,1,28.855
387.19,1,29.054
387.19,1,29.253
387.19,1,29.452
387.19,1,29.651
387.19,1,29.85
396.24,1,30.049
396.24,1,30.248
396.24,1,30.447
396.24,1,30.646
396.24,1,30.845
404.8,1,31.044
404.8,1,31.243
404.8,1,31.442
404.8,1,31.641
404.8,1,31.84
412.89,1,32.039
412.89,1,32.238
412.89,1,32.437
412.89,1,32.636
412.89,1,32.835
420.49,1,33.034
420.49,1,33.233
420.49,1,33.432
420.49,1,33.631
420.49,1,33.83
427.62,1,34.029
427.62,1,34.228
427.62,1,34.427
427.62,1,34.626
427.62,1,34.825
434.29,1,35.024
434.29,1,35.223
434.29,1,35.422
434.29,1,35.621
434.29,1,35.82
440.5,1,36.019
440.5,1,36.218
440.5,1,36.417
440.5,1,36.616
440.5,1,36.815
446.27,1,37.014
446.27,1,37.213
446.27,1,37.412
446.27,1,37.611
446.27,1,37.81
451.61,1,38.009
451.61,1,38.208
451.61,1,38.407
451.61,1,38.606
451.61,1,38.805
456.54,1,39.004
456.54,1,39.203
456.54,1,39.402
456.54,1,39.601
456.54,1,39.8
456.54,1,39.999
461.08,1,40.198
461.08,1,40.397
461.08,1,40.596
461.08,1,40.795
461.08,1,40.994
465.23,1,41.193
465.23,1,41.392
465.23,1,41.591
465.23,1,41.79
465.23,1,41.989
469.03,1,42.188
469.03,1,42.387
469.03,1,42.586
469.03,1,42.785
469.03,1,42.984
472.49,1,43.183
472.49,1,43.382
472.49,1,43.581
472.49,1,43.78
472.49,1,43.979
475.63,1,44.178
475.63,1,44.377
475.63,1,44.576
475.63,1,44.775
475.63,1,44.974
478.48,1,45.173
478.48,1,45.372
478.48,1,45.571
478.48,1,45.77
478.48,1,45.969
481.04,1,46.168
481.04,1,46.367
481.04,1,46.566
481.04,1,46.765
481.04,1,46.964
483.35,1,47.163
483.35,1,47.362
483.35,1,47.561
483.35,1,47.76
483.35,1,47.959
485.41,1,48.158
485.41,1,48.357
485.41,1,48.556
485.41,1,48.755
485.41,1,48.954
487.26,1,49.153
487.26,1,49.352
487.26,1,49.551
487.26,1,49.75
487.26,1,49.949
488.9,1,50.148
488.9,1,50.347
488.9,1,50.546
488.9,1,50.745
488.9,1,50.944
490.36,1,51.143
490.36,1,51.342
490.36,1,51.541
490.36,1,51.74
490.36,1,51.939
491.65,1,52.138
491.65,1,52.337
491.65,1,52.536
491.65,1,52.735
491.65,1,52.934
492.79,1,53.133
492.79,1,53.332
492.79,1,53.531
492.79,1,53.73
492.79,1,53.929
493.79,1,54.128
493.79,1,54.327
493.79,1,54.526
493.79,1,54.725
493.79,1,54.924
494.66,1,55.123
494.66,1,55.322
494.66,1,55.521
494.66,1,55.72
494.66,1,55.919
495.43,1,56.118
495.43,1,56.317
495.43,1,56.516
495.43,1,56.715
495.43,1,56.914
496.09,1,57.113
496.09,1,57.312
496.09,1,57.511
496.09,1,57.71
496.09,1,57.909
496.67,1,58.108
496.67,1,58.307
496.67,1,58.506
496.67,1,58.705
496.67,1,58.904
497.17,1,59.103
497.17,1,59.302
497.17,1,59.501
497.17,1,59.7
497.17,1,59.899
497.6,1,60.098
497.6,1,60.297
497.6,1,60.496
497.6,1,60.695
497.6,1,60.894
497.98,1,61.093
497.98,1,61.292
497.98,1,61.491
497.98,1,61.69
497.98,1,61.889
498.29,1,62.088
498.29,1,62.287
498.29,1,62.486
498.29,1,62.685
498.29,1,62.884
498.57,1,63.083
498.57,1,63.282
498.57,1,63.481
498.57,1,63.68
498.57,1,63.879
498.8,1,64.078
498.8,1,64.277
498.8,1,64.476
498.8,1,64.675
498.8,1,64.874
498.99,1,65.073
498.99,1,65.272
498.99,1,65.471
498.99,1,65.67
498.99,1,65.869
499.16,1,66.068
499.16,1,66.267
499.16,1,66.466
499.16,1,66.665
499.16,1,66.864
499.3,1,67.063
499.3,1,67.262
499.3,1,67.461
499.3,1,67.66
499.3,1,67.859
499.42,1,68.058
499.42,1,68.257
499.42,1,68.456
499.42,1,68.655
499.42,1,68.854
499.52,1,69.053
499.52,1,69.252
499.52,1,69.451
499.52,1,69.65
499.52,1,69.849
499.6,1,70.048
499.6,1,70.247
499.6,1,70.446
499.6,1,70.645
499.6,1,70.844
499.67,1,71.043
499.67,1,71.242
499.67,1,71.441
499.67,1,71.64
499.67,1,71.839
499.73,1,72.038
499.73,1,72.237
499.73,1,72.436
499.73,1,72.635
499.73,1,72.834
499.78,1,73.033
499.78,1,73.232
499.78,1,73.431
499.78,1,73.63
499.78,1,73.829
499.82,1,74.028
499.82,1,74.227
499.82,1,74.426
499.82,1,74.625
499.82,1,74.824
499.85,1,75.023
499.85,1,75.222
499.85,1,75.421
499.85,1,75.62
499.85,1,75.819
499.88,1,76.018
499.88,1,76.217
499.88,1,76.416
499.88,1,76.615
499.88,1,76.814
499.9,1,77.013
499.9,1,77.212
499.9,1,77.411
499.9,1,77.61
499.9,1,77.809
499.92,1,78.008
499.92,1,78.207
499.92,1,78.406
499.92,1,78.605
499.92,1,78.804
499.93,1,79.003
499.93,1,79.202
499.93,1,79.401
499.93,1,79.6
499.93,1,79.799
499.93,1,79.998
499.95,1,80.197
499.95,1,80.396
499.95,1,80.595
499.95,1,80.794
499.95,1,80.993
499.96,1,81.192
499.96,1,81.391
499.96,1,81.59
499.96,1,81.789
499.96,1,81.988
499.97,1,82.187
499.97,1,82.386
499.97,1,82.585
499.97,1,82.784
499.97,1,82.983
499.97,1,83.182
499.97,1,83.381
499.97,1,83.58
499.97,1,83.779
499.97,1,83.978
499.98,1,84.177
499.98,1,84.376
499.98,1,84.575
499.98,1,84.774
499.98,1,84.973
499.98,1,85.172
499.98,1,85.371
499.98,1,85.57
499.98,1,85.769
499.98,1,85.968
499.98,1,86.167
499.98,1,86.366
499.98,1,86.565
499.98,1,86.764
499.98,1,86.963
499.99,1,87.162
499.99,1,87.361
499.99,1,87.56
499.99,1,87.759
499.99,1,87.958
499.99,1,88.157
499.99,1,88.356
499.99,1,88.555
499.99,1,88.754
499.99,1,88.953
499.99,1,89.152
499.99,1,89.351
499.99,1,89.55
499.99,1,89.749
499.99,1,89.948
499.99,1,90.147
499.99,1,90.346
499.99,1,90.545
499.99,1,90.744
499.99,1,90.943
499.99,1,91.142
499.99,1,91.341
499.99,1,91.54
499.99,1,91.739
499.99,1,91.938
500,1,92.137
500,1,92.336
500,1,92.535
500,1,92.734
500,1,92.933
500,1,93.132
500,1,93.331
500,1,93.53
500,1,93.729
500,1,93.928
500,1,94.127
500,1,94.326
500,1,94.525
500,1,94.724
500,1,94.923
500,1,95.122
500,1,95.321
500,1,95.52
500,1,95.719
500,1,95.918
500,1,96.117
500,1,96.316
500,1,96.515
500,1,96.714
500,1,96.913
500,1,97.112
500,1,97.311
500,1,97.51
500,1,97.709
500,1,97.908
500,1,98.107
500,1,98.306
500,1,98.505
500,1,98.704
500,1,98.903
500,1,99.102
500,1,99.301
500,1,99.5
500,1,99.699
500,1,99.898
500,1,100.1
500,1,100.3
500,1,100.5
500,1,100.69
500,1,100.89
500,1,101.09
500,1,101.29
500,1,101.49
500,1,101.69
500,1,101.89
500,1,102.09
500,1,102.29
500,1,102.49
500,1,102.68
500,1,102.88
500,1,103.08
500,1,103.28
500,1,103.48
500,1,103.68
500,1,103.88
500,1,104.08
500,1,104.28
500,1,104.47
500,1,104.67
500,1,104.87
500,1,105.07
500,1,105.27
500,1,105.47
500,1,105.67
500,1,105.87
500,1,106.07
500,1,106.27
500,1,106.46
500,1,106.66
500,1,106.86
500,1,107.06
500,1,107.26
500,1,107.46
500,1,107.66
500,1,107.86
499.99,1,108.06
499.99,1,108.26
499.99,1,108.46
499.99,1,108.65
499.99,1,108.85
499.99,1,109.05
499.99,1,109.25
499.99,1,109.45
499.99,1,109.65
499.99,1,109.85
499.99,1,110.05
499.99,1,110.25
499.99,1,110.44
499.99,1,110.64
499.99,1,110.84
499.99,1,111.04
499.99,1,111.24
499.99,1,111.44
499.99,1,111.64
499.99,1,111.84
499.99,1,112.04
499.99,1,112.24
499.99,1,112.43
499.99,1,112.63
499.99,1,112.83
499.98,1,113.03
499.98,1,113.23
499.98,1,113.43
499.98,1,113.63
499.98,1,113.83
499.98,1,114.03
499.98,1,114.23
499.98,1,114.43
499.98,1,114.62
499.98,1,114.82
499.98,1,115.02
499.98,1,115.22
499.98,1,115.42
499.98,1,115.62
499.98,1,115.82
499.97,1,116.02
499.97,1,116.22
499.97,1,116.42
499.97,1,116.61
499.97,1,116.81
499.97,1,117.01
499.97,1,117.21
499.97,1,117.41
499.97,1,117.61
499.97,1,117.81
499.96,1,118.01
499.96,1,118.21
499.96,1,118.4
499.96,1,118.6
499.96,1,118.8
499.95,1,119
499.95,1,119.2
499.95,1,119.4
499.95,1,119.6
499.95,1,119.8
499.95,1,120
499.93,1,120.2
499.93,1,120.39
499.93,1,120.59
499.93,1,120.79
499.93,1,120.99
499.92,1,121.19
499.92,1,121.39
499.92,1,121.59
499.92,1,121.79
499.92,1,121.99
499.9,1,122.19
499.9,1,122.39
499.9,1,122.58
499.9,1,122.78
499.9,1,122.98
499.88,1,123.18
499.88,1,123.38
499.88,1,123.58
499.88,1,123.78
499.88,1,123.98
499.85,1,124.18
499.85,1,124.38
499.85,1,124.57
499.85,1,124.77
499.85,1,124.97
499.82,1,125.17
499.82,1,125.37
499.82,1,125.57
499.82,1,125.77
499.82,1,125.97
499.78,1,126.17
499.78,1,126.36
499.78,1,126.56
499.78,1,126.76
499.78,1,126.96
499.73,1,127.16
499.73,1,127.36
499.73,1,127.56
499.73,1,127.76
499.73,1,127.96
499.67,1,128.16
499.67,1,128.35
499.67,1,128.55
499.67,1,128.75
499.67,1,128.95
499.6,1,129.15
499.6,1,129.35
499.6,1,129.55
499.6,1,129.75
499.6,1,129.95
499.52,1,130.15
499.52,1,130.35
499.52,1,130.54
499.52,1,130.74
499.52,1,130.94
499.42,1,131.14
499.42,1,131.34
499.42,1,131.54
499.42,1,131.74
499.42,1,131.94
499.3,1,132.14
499.3,1,132.34
499.3,1,132.53
499.3,1,132.73
499.3,1,132.93
499.16,1,133.13
499.16,1,133.33
499.16,1,133.53
499.16,1,133.73
499.16,1,133.93
498.99,1,134.13
498.99,1,134.32
498.99,1,134.52
498.99,1,134.72
498.99,1,134.92
498.8,1,135.12
498.8,1,135.32
498.8,1,135.52
498.8,1,135.72
498.8,1,135.92
498.57,1,136.12
498.57,1,136.32
498.57,1,136.51
498.57,1,136.71
498.57,1,136.91
498.29,1,137.11
498.29,1,137.31
498.29,1,137.51
498.29,1,137.71
498.29,1,137.91
497.98,1,138.11
497.98,1,138.3
497.98,1,138.5
497.98,1,138.7
497.98,1,138.9
497.6,1,139.1
497.6,1,139.3
497.6,1,139.5
497.6,1,139.7
497.6,1,139.9
497.17,1,140.1
497.17,1,140.29
497.17,1,140.49
497.17,1,140.69
497.17,1,140.89
496.67,1,141.09
496.67,1,141.29
496.67,1,141.49
496.67,1,141.69
496.67,1,141.89
496.09,1,142.09
496.09,1,142.29
496.09,1,142.48
496.09,1,142.68
496.09,1,142.88
495.43,1,143.08
495.43,1,143.28
495.43,1,143.48
495.43,1,143.68
495.43,1,143.88
494.66,1,144.08
494.66,1,144.27
494.66,1,144.47
494.66,1,144.67
494.66,1,144.87
493.79,1,145.07
493.79,1,145.27
493.79,1,145.47
493.79,1,145.67
493.79,1,145.87
492.79,1,146.07
492.79,1,146.26
492.79,1,146.46
492.79,1,146.66
492.79,1,146.86
491.65,1,147.06
491.65,1,147.26
491.65,1,147.46
491.65,1,147.66
491.65,1,147.86
490.36,1,148.06
490.36,1,148.26
490.36,1,148.45
490.36,1,148.65
490.36,1,148.85
488.9,1,149.05
488.9,1,149.25
488.9,1,149.45
488.9,1,149.65
488.9,1,149.85
487.26,1,150.05
487.26,1,150.24
487.26,1,150.44
487.26,1,150.64
487.26,1,150.84
485.41,1,151.04
485.41,1,151.24
485.41,1,151.44
485.41,1,151.64
485.41,1,151.84
483.35,1,152.04
483.35,1,152.24
483.35,1,152.43
483.35,1,152.63
483.35,1,152.83
481.04,1,153.03
481.04,1,153.23
481.04,1,153.43
481.04,1,153.63
481.04,1,153.83
478.48,1,154.03
478.48,1,154.23
478.48,1,154.42
478.48,1,154.62
478.48,1,154.82
475.63,1,155.02
475.63,1,155.22
475.63,1,155.42
475.63,1,155.62
475.63,1,155.82
472.49,1,156.02
472.49,1,156.21
472.49,1,156.41
472.49,1,156.61
472.49,1,156.81
469.03,1,157.01
469.03,1,157.21
469.03,1,157.41
469.03,1,157.61
469.03,1,157.81
465.23,1,158.01
465.23,1,158.21
465.23,1,158.4
465.23,1,158.6
465.23,1,158.8
461.08,1,159
461.08,1,159.2
461.08,1,159.4
461.08,1,159.6
461.08,1,159.8
461.08,1,160
456.54,1,160.2
456.54,1,160.39
456.54,1,160.59
456.54,1,160.79
456.54,1,160.99
451.61,1,161.19
451.61,1,161.39
451.61,1,161.59
451.61,1,161.79
451.61,1,161.99
446.27,1,162.18
446.27,1,162.38
446.27,1,162.58
446.27,1,162.78
446.27,1,162.98
440.5,1,163.18
440.5,1,163.38
440.5,1,163.58
440.5,1,163.78
440.5,1,163.98
434.29,1,164.18
434.29,1,164.37
434.29,1,164.57
434.29,1,164.77
434.29,1,164.97
427.62,1,165.17
427.62,1,165.37
427.62,1,165.57
427.62,1,165.77
427.62,1,165.97
420.49,1,166.16
420.49,1,166.36
420.49,1,166.56
420.49,1,166.76
420.49,1,166.96
412.89,1,167.16
412.89,1,167.36
412.89,1,167.56
412.89,1,167.76
412.89,1,167.96
404.8,1,168.15
404.8,1,168.35
404.8,1,168.55
404.8,1,168.75
404.8,1,168.95
396.24,1,169.15
396.24,1,169.35
396.24,1,169.55
396.24,1,169.75
396.24,1,169.95
387.19,1,170.15
387.19,1,170.34
387.19,1,170.54
387.19,1,170.74
387.19,1,170.94
377.67,1,171.14
377.67,1,171.34
377.67,1,171.54
377.67,1,171.74
377.67,1,171.94
367.68,1,172.13
367.68,1,172.33
367.68,1,172.53
367.68,1,172.73
367.68,1,172.93
357.22,1,173.13
357.22,1,173.33
357.22,1,173.53
357.22,1,173.73
357.22,1,173.93
346.32,1,174.12
346.32,1,174.32
346.32,1,174.52
346.32,1,174.72
346.32,1,174.92
334.98,1,175.12
334.98,1,175.32
334.98,1,175.52
334.98,1,175.72
334.98,1,175.92
323.23,1,176.12
323.23,1,176.31
323.23,1,176.51
323.23,1,176.71
323.23,1,176.91
311.09,1,177.11
311.09,1,177.31
311.09,1,177.51
311.09,1,177.71
311.09,1,177.91
298.59,1,178.1
298.59,1,178.3
298.59,1,178.5
298.59,1,178.7
298.59,1,178.9
285.84,1,179.1
285.84,1,179.3
285.84,1,179.5
285.84,1,179.7
285.84,1,179.9
0,1,180.1
0,1,180.29
0,1,180.49
0,1,180.69
0,1,180.89
0,1,181.09
0,1,181.29
0,1,181.49
0,1,181.69
0,1,181.89
0,1,182.09
0,1,182.28
0,1,182.48
0,1,182.68
0,1,182.88
0,1,183.08
0,1,183.28
0,1,183.48
0,1,183.68
0,1,183.88
0,1,184.07
0,1,184.27
0,1,184.47
0,1,184.67
0,1,184.87
0,1,185.07
0,1,185.27
0,1,185.47
0,1,185.67
0,1,185.87
0,1,186.07
0,1,186.26
0,1,186.46
0,1,186.66
0,1,186.86
0,1,187.06
0,1,187.26
0,1,187.46
0,1,187.66
0,1,187.86
0,1,188.05
0,1,188.25
0,1,188.45
0,1,188.65
0,1,188.85
0,1,189.05
0,1,189.25
0,1,189.45
0,1,189.65
0,1,189.85
0,1,190.04
0,1,190.24
0,1,190.44
0,1,190.64
0,1,190.84
0,1,191.04
0,1,191.24
0,1,191.44
0,1,191.64
0,1,191.84
0,1,192.04
0,1,192.23
0,1,192.43
0,1,192.63
0,1,192.83
0,1,193.03
0,1,193.23
0,1,193.43
0,1,193.63
0,1,193.83
0,1,194.02
0,1,194.22
0,1,194.42
0,1,194.62
0,1,194.82
0,1,195.02
0,1,195.22
0,1,195.42
0,1,195.62
0,1,195.82
0,1,196.01
0,1,196.21
0,1,196.41
0,1,196.61
0,1,196.81
0,1,197.01
0,1,197.21
0,1,197.41
0,1,197.61
0,1,197.81
0,1,198.01
0,1,198.2
0,1,198.4
0,1,198.6
0,1,198.8
0,1,199
