"PuMA_Matrix","vtkValidPointMask","arc_length"
0,1,0
0,1,0.199
0,1,0.398
0,1,0.597
0,1,0.796
0,1,0.995
0,1,1.194
0,1,1.393
0,1,1.592
0,1,1.791
0,1,1.99
0,1,2.189
0,1,2.388
0,1,2.587
0,1,2.786
0,1,2.985
0,1,3.184
0,1,3.383
0,1,3.582
0,1,3.781
0,1,3.98
0,1,4.179
0,1,4.378
0,1,4.577
0,1,4.776
0,1,4.975
0,1,5.174
0,1,5.373
0,1,5.572
0,1,5.771
0,1,5.97
0,1,6.169
0,1,6.368
0,1,6.567
0,1,6.766
0,1,6.965
0,1,7.164
0,1,7.363
0,1,7.562
0,1,7.761
0,1,7.96
0,1,8.159
0,1,8.358
0,1,8.557
0,1,8.756
0,1,8.955
0,1,9.154
0,1,9.353
0,1,9.552
0,1,9.751
0,1,9.95
0,1,10.149
0,1,10.348
0,1,10.547
0,1,10.746
0,1,10.945
0,1,11.144
0,1,11.343
0,1,11.542
0,1,11.741
0,1,11.94
0,1,12.139
0,1,12.338
0,1,12.537
0,1,12.736
0,1,12.935
0,1,13.134
0,1,13.333
0,1,13.532
0,1,13.731
0,1,13.93
0,1,14.129
0,1,14.328
0,1,14.527
0,1,14.726
0,1,14.925
0,1,15.124
0,1,15.323
0,1,15.522
0,1,15.721
0,1,15.92
0,1,16.119
0,1,16.318
0,1,16.517
0,1,16.716
0,1,16.915
0,1,17.114
0,1,17.313
0,1,17.512
0,1,17.711
0,1,17.91
0,1,18.109
0,1,18.308
0,1,18.507
0,1,18.706
0,1,18.905
0,1,19.104
0,1,19.303
0,1,19.502
0,1,19.701
0,1,19.9
304.24,1,20.099
304.24,1,20.298
304.24,1,20.497
304.24,1,20.696
304.24,1,20.895
317.78,1,21.094
317.78,1,21.293
317.78,1,21.492
317.78,1,21.691
317.78,1,21.89
330.97,1,22.089
330.97,1,22.288
330.97,1,22.487
330.97,1,22.686
330.97,1,22.885
343.68,1,23.084
343.68,1,23.283
343.68,1,23.482
343.68,1,23.681
343.68,1,23.88
355.87,1,24.079
355.87,1,24.278
355.87,1,24.477
355.87,1,24.676
355.87,1,24.875
367.52,1,25.074
367.52,1,25.273
367.52,1,25.472
367.52,1,25.671
367.52,1,25.87
378.61,1,26.069
378.61,1,26.268
378.61,1,26.467
378.61,1,26.666
378.61,1,26.865
389.13,1,27.064
389.13,1,27.263
389.13,1,27.462
389.13,1,27.661
389.13,1,27.86
399.06,1,28.059
399.06,1,28.258
399.06,1,28.457
399.06,1,28.656
399.06,1,28.855
408.4,1,29.054
408.4,1,29.253
408.4,1,29.452
408.4,1,29.651
408.4,1,29.85
417.14,1,30.049
417.14,1,30.248
417.14,1,30.447
417.14,1,30.646
417.14,1,30.845
425.31,1,31.044
425.31,1,31.243
425.31,1,31.442
425.31,1,31.641
425.31,1,31.84
432.89,1,32.039
432.89,1,32.238
432.89,1,32.437
432.89,1,32.636
432.89,1,32.835
439.92,1,33.034
439.92,1,33.233
439.92,1,33.432
439.92,1,33.631
439.92,1,33.83
446.39,1,34.029
446.39,1,34.228
446.39,1,34.427
446.39,1,34.626
446.39,1,34.825
452.33,1,35.024
452.33,1,35.223
452.33,1,35.422
452.33,1,35.621
452.33,1,35.82
457.76,1,36.019
457.76,1,36.218
457.76,1,36.417
457.76,1,36.616
457.76,1,36.815
462.7,1,37.014
462.7,1,37.213
462.7,1,37.412
462.7,1,37.611
462.7,1,37.81
467.18,1,38.009
467.18,1,38.208
467.18,1,38.407
467.18,1,38.606
467.18,1,38.805
471.23,1,39.004
471.23,1,39.203
471.23,1,39.402
471.23,1,39.601
471.23,1,39.8
471.23,1,39.999
474.86,1,40.198
474.86,1,40.397
474.86,1,40.596
474.86,1,40.795
474.86,1,40.994
478.12,1,41.193
478.12,1,41.392
478.12,1,41.591
478.12,1,41.79
478.12,1,41.989
481.02,1,42.188
481.02,1,42.387
481.02,1,42.586
481.02,1,42.785
481.02,1,42.984
483.6,1,43.183
483.6,1,43.382
483.6,1,43.581
483.6,1,43.78
483.6,1,43.979
485.88,1,44.178
485.88,1,44.377
485.88,1,44.576
485.88,1,44.775
485.88,1,44.974
487.89,1,45.173
487.89,1,45.372
487.89,1,45.571
487.89,1,45.77
487.89,1,45.969
489.65,1,46.168
489.65,1,46.367
489.65,1,46.566
489.65,1,46.765
489.65,1,46.964
491.18,1,47.163
491.18,1,47.362
491.18,1,47.561
491.18,1,47.76
491.18,1,47.959
492.52,1,48.158
492.52,1,48.357
492.52,1,48.556
492.52,1,48.755
492.52,1,48.954
493.68,1,49.153
493.68,1,49.352
493.68,1,49.551
493.68,1,49.75
493.68,1,49.949
494.68,1,50.148
494.68,1,50.347
494.68,1,50.546
494.68,1,50.745
494.68,1,50.944
495.53,1,51.143
495.53,1,51.342
495.53,1,51.541
495.53,1,51.74
495.53,1,51.939
496.26,1,52.138
496.26,1,52.337
496.26,1,52.536
496.26,1,52.735
496.26,1,52.934
496.89,1,53.133
496.89,1,53.332
496.89,1,53.531
496.89,1,53.73
496.89,1,53.929
497.42,1,54.128
497.42,1,54.327
497.42,1,54.526
497.42,1,54.725
497.42,1,54.924
497.86,1,55.123
497.86,1,55.322
497.86,1,55.521
497.86,1,55.72
497.86,1,55.919
498.24,1,56.118
498.24,1,56.317
498.24,1,56.516
498.24,1,56.715
498.24,1,56.914
498.56,1,57.113
498.56,1,57.312
498.56,1,57.511
498.56,1,57.71
498.56,1,57.909
498.82,1,58.108
498.82,1,58.307
498.82,1,58.506
498.82,1,58.705
498.82,1,58.904
499.04,1,59.103
499.04,1,59.302
499.04,1,59.501
499.04,1,59.7
499.04,1,59.899
499.22,1,60.098
499.22,1,60.297
499.22,1,60.496
499.22,1,60.695
499.22,1,60.894
499.37,1,61.093
499.37,1,61.292
499.37,1,61.491
499.37,1,61.69
499.37,1,61.889
499.49,1,62.088
499.49,1,62.287
499.49,1,62.486
499.49,1,62.685
499.49,1,62.884
499.59,1,63.083
499.59,1,63.282
499.59,1,63.481
499.59,1,63.68
499.59,1,63.879
499.67,1,64.078
499.67,1,64.277
499.67,1,64.476
499.67,1,64.675
499.67,1,64.874
499.74,1,65.073
499.74,1,65.272
499.74,1,65.471
499.74,1,65.67
499.74,1,65.869
499.79,1,66.068
499.79,1,66.267
499.79,1,66.466
499.79,1,66.665
499.79,1,66.864
499.83,1,67.063
499.83,1,67.262
499.83,1,67.461
499.83,1,67.66
499.83,1,67.859
499.87,1,68.058
499.87,1,68.257
499.87,1,68.456
499.87,1,68.655
499.87,1,68.854
499.9,1,69.053
499.9,1,69.252
499.9,1,69.451
499.9,1,69.65
499.9,1,69.849
499.92,1,70.048
499.92,1,70.247
499.92,1,70.446
499.92,1,70.645
499.92,1,70.844
499.94,1,71.043
499.94,1,71.242
499.94,1,71.441
499.94,1,71.64
499.94,1,71.839
499.95,1,72.038
499.95,1,72.237
499.95,1,72.436
499.95,1,72.635
499.95,1,72.834
499.96,1,73.033
499.96,1,73.232
499.96,1,73.431
499.96,1,73.63
499.96,1,73.829
499.97,1,74.028
499.97,1,74.227
499.97,1,74.426
499.97,1,74.625
499.97,1,74.824
499.98,1,75.023
499.98,1,75.222
499.98,1,75.421
499.98,1,75.62
499.98,1,75.819
499.98,1,76.018
499.98,1,76.217
499.98,1,76.416
499.98,1,76.615
499.98,1,76.814
499.99,1,77.013
499.99,1,77.212
499.99,1,77.411
499.99,1,77.61
499.99,1,77.809
499.99,1,78.008
499.99,1,78.207
499.99,1,78.406
499.99,1,78.605
499.99,1,78.804
499.99,1,79.003
499.99,1,79.202
499.99,1,79.401
499.99,1,79.6
499.99,1,79.799
499.99,1,79.998
499.99,1,80.197
499.99,1,80.396
499.99,1,80.595
499.99,1,80.794
499.99,1,80.993
500,1,81.192
500,1,81.391
500,1,81.59
500,1,81.789
500,1,81.988
500,1,82.187
500,1,82.386
500,1,82.585
500,1,82.784
500,1,82.983
500,1,83.182
500,1,83.381
500,1,83.58
500,1,83.779
500,1,83.978
500,1,84.177
500,1,84.376
500,1,84.575
500,1,84.774
500,1,84.973
500,1,85.172
500,1,85.371
500,1,85.57
500,1,85.769
500,1,85.968
500,1,86.167
500,1,86.366
500,1,86.565
500,1,86.764
500,1,86.963
500,1,87.162
500,1,87.361
500,1,87.56
500,1,87.759
500,1,87.958
500,1,88.157
500,1,88.356
500,1,88.555
500,1,88.754
500,1,88.953
500,1,89.152
500,1,89.351
500,1,89.55
500,1,89.749
500,1,89.948
500,1,90.147
500,1,90.346
500,1,90.545
500,1,90.744
500,1,90.943
500,1,91.142
500,1,91.341
500,1,91.54
500,1,91.739
500,1,91.938
500,1,92.137
500,1,92.336
500,1,92.535
500,1,92.734
500,1,92.933
500,1,93.132
500,1,93.331
500,1,93.53
500,1,93.729
500,1,93.928
500,1,94.127
500,1,94.326
500,1,94.525
500,1,94.724
500,1,94.923
500,1,95.122
500,1,95.321
500,1,95.52
500,1,95.719
500,1,95.918
500,1,96.117
500,1,96.316
500,1,96.515
500,1,96.714
500,1,96.913
500,1,97.112
500,1,97.311
500,1,97.51
500,1,97.709
500,1,97.908
500,1,98.107
500,1,98.306
500,1,98.505
500,1,98.704
500,1,98.903
500,1,99.102
500,1,99.301
500,1,99.5
500,1,99.699
500,1,99.898
500,1,100.1
500,1,100.3
500,1,100.5
500,1,100.69
500,1,100.89
500,1,101.09
500,1,101.29
500,1,101.49
500,1,101.69
500,1,101.89
500,1,102.09
500,1,102.29
500,1,102.49
500,1,102.68
500,1,102.88
500,1,103.08
500,1,103.28
500,1,103.48
500,1,103.68
500,1,103.88
500,1,104.08
500,1,104.28
500,1,104.47
500,1,104.67
500,1,104.87
500,1,105.07
500,1,105.27
500,1,105.47
500,1,105.67
500,1,105.87
500,1,106.07
500,1,106.27
500,1,106.46
500,1,106.66
500,1,106.86
500,1,107.06
500,1,107.26
500,1,107.46
500,1,107.66
500,1,107.86
500,1,108.06
500,1,108.26
500,1,108.46
500,1,108.65
500,1,108.85
500,1,109.05
500,1,109.25
500,1,109.45
500,1,109.65
500,1,109.85
500,1,110.05
500,1,110.25
500,1,110.44
500,1,110.64
500,1,110.84
500,1,111.04
500,1,111.24
500,1,111.44
500,1,111.64
500,1,111.84
500,1,112.04
500,1,112.24
500,1,112.43
500,1,112.63
500,1,112.83
500,1,113.03
500,1,113.23
500,1,113.43
500,1,113.63
500,1,113.83
500,1,114.03
500,1,114.23
500,1,114.43
500,1,114.62
500,1,114.82
500,1,115.02
500,1,115.22
500,1,115.42
500,1,115.62
500,1,115.82
500,1,116.02
500,1,116.22
500,1,116.42
500,1,116.61
500,1,116.81
500,1,117.01
500,1,117.21
500,1,117.41
500,1,117.61
500,1,117.81
500,1,118.01
500,1,118.21
500,1,118.4
500,1,118.6
500,1,118.8
499.99,1,119
499.99,1,119.2
499.99,1,119.4
499.99,1,119.6
499.99,1,119.8
499.99,1,120
499.99,1,120.2
499.99,1,120.39
499.99,1,120.59
499.99,1,120.79
499.99,1,120.99
499.99,1,121.19
499.99,1,121.39
499.99,1,121.59
499.99,1,121.79
499.99,1,121.99
499.99,1,122.19
499.99,1,122.39
499.99,1,122.58
499.99,1,122.78
499.99,1,122.98
499.98,1,123.18
499.98,1,123.38
499.98,1,123.58
499.98,1,123.78
499.98,1,123.98
499.98,1,124.18
499.98,1,124.38
499.98,1,124.57
499.98,1,124.77
499.98,1,124.97
499.97,1,125.17
499.97,1,125.37
499.97,1,125.57
499.97,1,125.77
499.97,1,125.97
499.96,1,126.17
499.96,1,126.36
499.96,1,126.56
499.96,1,126.76
499.96,1,126.96
499.95,1,127.16
499.95,1,127.36
499.95,1,127.56
499.95,1,127.76
499.95,1,127.96
499.94,1,128.16
499.94,1,128.35
499.94,1,128.55
499.94,1,128.75
499.94,1,128.95
499.92,1,129.15
499.92,1,129.35
499.92,1,129.55
499.92,1,129.75
499.92,1,129.95
499.9,1,130.15
499.9,1,130.35
499.9,1,130.54
499.9,1,130.74
499.9,1,130.94
499.87,1,131.14
499.87,1,131.34
499.87,1,131.54
499.87,1,131.74
499.87,1,131.94
499.83,1,132.14
499.83,1,132.34
499.83,1,132.53
499.83,1,132.73
499.83,1,132.93
499.79,1,133.13
499.79,1,133.33
499.79,1,133.53
499.79,1,133.73
499.79,1,133.93
499.74,1,134.13
499.74,1,134.32
499.74,1,134.52
499.74,1,134.72
499.74,1,134.92
499.67,1,135.12
499.67,1,135.32
499.67,1,135.52
499.67,1,135.72
499.67,1,135.92
499.59,1,136.12
499.59,1,136.32
499.59,1,136.51
499.59,1,136.71
499.59,1,136.91
499.49,1,137.11
499.49,1,137.31
499.49,1,137.51
499.49,1,137.71
499.49,1,137.91
499.37,1,138.11
499.37,1,138.3
499.37,1,138.5
499.37,1,138.7
499.37,1,138.9
499.22,1,139.1
499.22,1,139.3
499.22,1,139.5
499.22,1,139.7
499.22,1,139.9
499.04,1,140.1
499.04,1,140.29
499.04,1,140.49
499.04,1,140.69
499.04,1,140.89
498.82,1,141.09
498.82,1,141.29
498.82,1,141.49
498.82,1,141.69
498.82,1,141.89
498.56,1,142.09
498.56,1,142.29
498.56,1,142.48
498.56,1,142.68
498.56,1,142.88
498.24,1,143.08
498.24,1,143.28
498.24,1,143.48
498.24,1,143.68
498.24,1,143.88
497.86,1,144.08
497.86,1,144.27
497.86,1,144.47
497.86,1,144.67
497.86,1,144.87
497.42,1,145.07
497.42,1,145.27
497.42,1,145.47
497.42,1,145.67
497.42,1,145.87
496.89,1,146.07
496.89,1,146.26
496.89,1,146.46
496.89,1,146.66
496.89,1,146.86
496.26,1,147.06
496.26,1,147.26
496.26,1,147.46
496.26,1,147.66
496.26,1,147.86
495.53,1,148.06
495.53,1,148.26
495.53,1,148.45
495.53,1,148.65
495.53,1,148.85
494.68,1,149.05
494.68,1,149.25
494.68,1,149.45
494.68,1,149.65
494.68,1,149.85
493.68,1,150.05
493.68,1,150.24
493.68,1,150.44
493.68,1,150.64
493.68,1,150.84
492.52,1,151.04
492.52,1,151.24
492.52,1,151.44
492.52,1,151.64
492.52,1,151.84
491.18,1,152.04
491.18,1,152.24
491.18,1,152.43
491.18,1,152.63
491.18,1,152.83
489.65,1,153.03
489.65,1,153.23
489.65,1,153.43
489.65,1,153.63
489.65,1,153.83
487.89,1,154.03
487.89,1,154.23
487.89,1,154.42
487.89,1,154.62
487.89,1,154.82
485.88,1,155.02
485.88,1,155.22
485.88,1,155.42
485.88,1,155.62
485.88,1,155.82
483.6,1,156.02
483.6,1,156.21
483.6,1,156.41
483.6,1,156.61
483.6,1,156.81
481.02,1,157.01
481.02,1,157.21
481.02,1,157.41
481.02,1,157.61
481.02,1,157.81
478.12,1,158.01
478.12,1,158.21
478.12,1,158.4
478.12,1,158.6
478.12,1,158.8
474.86,1,159
474.86,1,159.2
474.86,1,159.4
474.86,1,159.6
474.86,1,159.8
474.86,1,160
471.23,1,160.2
471.23,1,160.39
471.23,1,160.59
471.23,1,160.79
471.23,1,160.99
467.18,1,161.19
467.18,1,161.39
467.18,1,161.59
467.18,1,161.79
467.18,1,161.99
462.7,1,162.18
462.7,1,162.38
462.7,1,162.58
462.7,1,162.78
462.7,1,162.98
457.76,1,163.18
457.76,1,163.38
457.76,1,163.58
457.76,1,163.78
457.76,1,163.98
452.33,1,164.18
452.33,1,164.37
452.33,1,164.57
452.33,1,164.77
452.33,1,164.97
446.39,1,165.17
446.39,1,165.37
446.39,1,165.57
446.39,1,165.77
446.39,1,165.97
439.92,1,166.16
439.92,1,166.36
439.92,1,166.56
439.92,1,166.76
439.92,1,166.96
432.89,1,167.16
432.89,1,167.36
432.89,1,167.56
432.89,1,167.76
432.89,1,167.96
425.31,1,168.15
425.31,1,168.35
425.31,1,168.55
425.31,1,168.75
425.31,1,168.95
417.14,1,169.15
417.14,1,169.35
417.14,1,169.55
417.14,1,169.75
417.14,1,169.95
408.4,1,170.15
408.4,1,170.34
408.4,1,170.54
408.4,1,170.74
408.4,1,170.94
399.06,1,171.14
399.06,1,171.34
399.06,1,171.54
399.06,1,171.74
399.06,1,171.94
389.13,1,172.13
389.13,1,172.33
389.13,1,172.53
389.13,1,172.73
389.13,1,172.93
378.61,1,173.13
378.61,1,173.33
378.61,1,173.53
378.61,1,173.73
378.61,1,173.93
367.52,1,174.12
367.52,1,174.32
367.52,1,174.52
367.52,1,174.72
367.52,1,174.92
355.87,1,175.12
355.87,1,175.32
355.87,1,175.52
355.87,1,175.72
355.87,1,175.92
343.68,1,176.12
343.68,1,176.31
343.68,1,176.51
343.68,1,176.71
343.68,1,176.91
330.97,1,177.11
330.97,1,177.31
330.97,1,177.51
330.97,1,177.71
330.97,1,177.91
317.78,1,178.1
317.78,1,178.3
317.78,1,178.5
317.78,1,178.7
317.78,1,178.9
304.24,1,179.1
304.24,1,179.3
304.24,1,179.5
304.24,1,179.7
304.24,1,179.9
0,1,180.1
0,1,180.29
0,1,180.49
0,1,180.69
0,1,180.89
0,1,181.09
0,1,181.29
0,1,181.49
0,1,181.69
0,1,181.89
0,1,182.09
0,1,182.28
0,1,182.48
0,1,182.68
0,1,182.88
0,1,183.08
0,1,183.28
0,1,183.48
0,1,183.68
0,1,183.88
0,1,184.07
0,1,184.27
0,1,184.47
0,1,184.67
0,1,184.87
0,1,185.07
0,1,185.27
0,1,185.47
0,1,185.67
0,1,185.87
0,1,186.07
0,1,186.26
0,1,186.46
0,1,186.66
0,1,186.86
0,1,187.06
0,1,187.26
0,1,187.46
0,1,187.66
0,1,187.86
0,1,188.05
0,1,188.25
0,1,188.45
0,1,188.65
0,1,188.85
0,1,189.05
0,1,189.25
0,1,189.45
0,1,189.65
0,1,189.85
0,1,190.04
0,1,190.24
0,1,190.44
0,1,190.64
0,1,190.84
0,1,191.04
0,1,191.24
0,1,191.44
0,1,191.64
0,1,191.84
0,1,192.04
0,1,192.23
0,1,192.43
0,1,192.63
0,1,192.83
0,1,193.03
0,1,193.23
0,1,193.43
0,1,193.63
0,1,193.83
0,1,194.02
0,1,194.22
0,1,194.42
0,1,194.62
0,1,194.82
0,1,195.02
0,1,195.22
0,1,195.42
0,1,195.62
0,1,195.82
0,1,196.01
0,1,196.21
0,1,196.41
0,1,196.61
0,1,196.81
0,1,197.01
0,1,197.21
0,1,197.41
0,1,197.61
0,1,197.81
0,1,198.01
0,1,198.2
0,1,198.4
0,1,198.6
0,1,198.8
0,1,199
