"PuMA_Matrix","vtkValidPointMask","arc_length"
0,1,0
0,1,0.199
0,1,0.398
0,1,0.597
0,1,0.796
0,1,0.995
0,1,1.194
0,1,1.393
0,1,1.592
0,1,1.791
0,1,1.99
0,1,2.189
0,1,2.388
0,1,2.587
0,1,2.786
0,1,2.985
0,1,3.184
0,1,3.383
0,1,3.582
0,1,3.781
0,1,3.98
0,1,4.179
0,1,4.378
0,1,4.577
0,1,4.776
0,1,4.975
0,1,5.174
0,1,5.373
0,1,5.572
0,1,5.771
0,1,5.97
0,1,6.169
0,1,6.368
0,1,6.567
0,1,6.766
0,1,6.965
0,1,7.164
0,1,7.363
0,1,7.562
0,1,7.761
0,1,7.96
0,1,8.159
0,1,8.358
0,1,8.557
0,1,8.756
0,1,8.955
0,1,9.154
0,1,9.353
0,1,9.552
0,1,9.751
0,1,9.95
0,1,10.149
0,1,10.348
0,1,10.547
0,1,10.746
0,1,10.945
0,1,11.144
0,1,11.343
0,1,11.542
0,1,11.741
0,1,11.94
0,1,12.139
0,1,12.338
0,1,12.537
0,1,12.736
0,1,12.935
0,1,13.134
0,1,13.333
0,1,13.532
0,1,13.731
0,1,13.93
0,1,14.129
0,1,14.328
0,1,14.527
0,1,14.726
0,1,14.925
0,1,15.124
0,1,15.323
0,1,15.522
0,1,15.721
0,1,15.92
0,1,16.119
0,1,16.318
0,1,16.517
0,1,16.716
0,1,16.915
0,1,17.114
0,1,17.313
0,1,17.512
0,1,17.711
0,1,17.91
0,1,18.109
0,1,18.308
0,1,18.507
0,1,18.706
0,1,18.905
0,1,19.104
0,1,19.303
0,1,19.502
0,1,19.701
0,1,19.9
271.87,1,20.099
271.87,1,20.298
271.87,1,20.497
271.87,1,20.696
271.87,1,20.895
283.99,1,21.094
283.99,1,21.293
283.99,1,21.492
283.99,1,21.691
283.99,1,21.89
295.94,1,22.089
295.94,1,22.288
295.94,1,22.487
295.94,1,22.686
295.94,1,22.885
307.6,1,23.084
307.6,1,23.283
307.6,1,23.482
307.6,1,23.681
307.6,1,23.88
318.95,1,24.079
318.95,1,24.278
318.95,1,24.477
318.95,1,24.676
318.95,1,24.875
329.96,1,25.074
329.96,1,25.273
329.96,1,25.472
329.96,1,25.671
329.96,1,25.87
340.63,1,26.069
340.63,1,26.268
340.63,1,26.467
340.63,1,26.666
340.63,1,26.865
350.93,1,27.064
350.93,1,27.263
350.93,1,27.462
350.93,1,27.661
350.93,1,27.86
360.85,1,28.059
360.85,1,28.258
360.85,1,28.457
360.85,1,28.656
360.85,1,28.855
370.37,1,29.054
370.37,1,29.253
370.37,1,29.452
370.37,1,29.651
370.37,1,29.85
379.5,1,30.049
379.5,1,30.248
379.5,1,30.447
379.5,1,30.646
379.5,1,30.845
388.22,1,31.044
388.22,1,31.243
388.22,1,31.442
388.22,1,31.641
388.22,1,31.84
396.53,1,32.039
396.53,1,32.238
396.53,1,32.437
396.53,1,32.636
396.53,1,32.835
404.42,1,33.034
404.42,1,33.233
404.42,1,33.432
404.42,1,33.631
404.42,1,33.83
411.91,1,34.029
411.91,1,34.228
411.91,1,34.427
411.91,1,34.626
411.91,1,34.825
418.98,1,35.024
418.98,1,35.223
418.98,1,35.422
418.98,1,35.621
418.98,1,35.82
425.65,1,36.019
425.65,1,36.218
425.65,1,36.417
425.65,1,36.616
425.65,1,36.815
431.93,1,37.014
431.93,1,37.213
431.93,1,37.412
431.93,1,37.611
431.93,1,37.81
437.81,1,38.009
437.81,1,38.208
437.81,1,38.407
437.81,1,38.606
437.81,1,38.805
443.31,1,39.004
443.31,1,39.203
443.31,1,39.402
443.31,1,39.601
443.31,1,39.8
443.31,1,39.999
448.43,1,40.198
448.43,1,40.397
448.43,1,40.596
448.43,1,40.795
448.43,1,40.994
453.2,1,41.193
453.2,1,41.392
453.2,1,41.591
453.2,1,41.79
453.2,1,41.989
457.63,1,42.188
457.63,1,42.387
457.63,1,42.586
457.63,1,42.785
457.63,1,42.984
461.72,1,43.183
461.72,1,43.382
461.72,1,43.581
461.72,1,43.78
461.72,1,43.979
465.5,1,44.178
465.5,1,44.377
465.5,1,44.576
465.5,1,44.775
465.5,1,44.974
468.97,1,45.173
468.97,1,45.372
468.97,1,45.571
468.97,1,45.77
468.97,1,45.969
472.16,1,46.168
472.16,1,46.367
472.16,1,46.566
472.16,1,46.765
472.16,1,46.964
475.07,1,47.163
475.07,1,47.362
475.07,1,47.561
475.07,1,47.76
475.07,1,47.959
477.74,1,48.158
477.74,1,48.357
477.74,1,48.556
477.74,1,48.755
477.74,1,48.954
480.16,1,49.153
480.16,1,49.352
480.16,1,49.551
480.16,1,49.75
480.16,1,49.949
482.36,1,50.148
482.36,1,50.347
482.36,1,50.546
482.36,1,50.745
482.36,1,50.944
484.35,1,51.143
484.35,1,51.342
484.35,1,51.541
484.35,1,51.74
484.35,1,51.939
486.15,1,52.138
486.15,1,52.337
486.15,1,52.536
486.15,1,52.735
486.15,1,52.934
487.77,1,53.133
487.77,1,53.332
487.77,1,53.531
487.77,1,53.73
487.77,1,53.929
489.22,1,54.128
489.22,1,54.327
489.22,1,54.526
489.22,1,54.725
489.22,1,54.924
490.52,1,55.123
490.52,1,55.322
490.52,1,55.521
490.52,1,55.72
490.52,1,55.919
491.69,1,56.118
491.69,1,56.317
491.69,1,56.516
491.69,1,56.715
491.69,1,56.914
492.72,1,57.113
492.72,1,57.312
492.72,1,57.511
492.72,1,57.71
492.72,1,57.909
493.65,1,58.108
493.65,1,58.307
493.65,1,58.506
493.65,1,58.705
493.65,1,58.904
494.46,1,59.103
494.46,1,59.302
494.46,1,59.501
494.46,1,59.7
494.46,1,59.899
495.19,1,60.098
495.19,1,60.297
495.19,1,60.496
495.19,1,60.695
495.19,1,60.894
495.82,1,61.093
495.82,1,61.292
495.82,1,61.491
495.82,1,61.69
495.82,1,61.889
496.38,1,62.088
496.38,1,62.287
496.38,1,62.486
496.38,1,62.685
496.38,1,62.884
496.87,1,63.083
496.87,1,63.282
496.87,1,63.481
496.87,1,63.68
496.87,1,63.879
497.31,1,64.078
497.31,1,64.277
497.31,1,64.476
497.31,1,64.675
497.31,1,64.874
497.68,1,65.073
497.68,1,65.272
497.68,1,65.471
497.68,1,65.67
497.68,1,65.869
498.01,1,66.068
498.01,1,66.267
498.01,1,66.466
498.01,1,66.665
498.01,1,66.864
498.29,1,67.063
498.29,1,67.262
498.29,1,67.461
498.29,1,67.66
498.29,1,67.859
498.54,1,68.058
498.54,1,68.257
498.54,1,68.456
498.54,1,68.655
498.54,1,68.854
498.75,1,69.053
498.75,1,69.252
498.75,1,69.451
498.75,1,69.65
498.75,1,69.849
498.94,1,70.048
498.94,1,70.247
498.94,1,70.446
498.94,1,70.645
498.94,1,70.844
499.09,1,71.043
499.09,1,71.242
499.09,1,71.441
499.09,1,71.64
499.09,1,71.839
499.23,1,72.038
499.23,1,72.237
499.23,1,72.436
499.23,1,72.635
499.23,1,72.834
499.35,1,73.033
499.35,1,73.232
499.35,1,73.431
499.35,1,73.63
499.35,1,73.829
499.45,1,74.028
499.45,1,74.227
499.45,1,74.426
499.45,1,74.625
499.45,1,74.824
499.53,1,75.023
499.53,1,75.222
499.53,1,75.421
499.53,1,75.62
499.53,1,75.819
499.6,1,76.018
499.6,1,76.217
499.6,1,76.416
499.6,1,76.615
499.6,1,76.814
499.67,1,77.013
499.67,1,77.212
499.67,1,77.411
499.67,1,77.61
499.67,1,77.809
499.72,1,78.008
499.72,1,78.207
499.72,1,78.406
499.72,1,78.605
499.72,1,78.804
499.76,1,79.003
499.76,1,79.202
499.76,1,79.401
499.76,1,79.6
499.76,1,79.799
499.76,1,79.998
499.8,1,80.197
499.8,1,80.396
499.8,1,80.595
499.8,1,80.794
499.8,1,80.993
499.83,1,81.192
499.83,1,81.391
499.83,1,81.59
499.83,1,81.789
499.83,1,81.988
499.86,1,82.187
499.86,1,82.386
499.86,1,82.585
499.86,1,82.784
499.86,1,82.983
499.88,1,83.182
499.88,1,83.381
499.88,1,83.58
499.88,1,83.779
499.88,1,83.978
499.9,1,84.177
499.9,1,84.376
499.9,1,84.575
499.9,1,84.774
499.9,1,84.973
499.91,1,85.172
499.91,1,85.371
499.91,1,85.57
499.91,1,85.769
499.91,1,85.968
499.93,1,86.167
499.93,1,86.366
499.93,1,86.565
499.93,1,86.764
499.93,1,86.963
499.94,1,87.162
499.94,1,87.361
499.94,1,87.56
499.94,1,87.759
499.94,1,87.958
499.95,1,88.157
499.95,1,88.356
499.95,1,88.555
499.95,1,88.754
499.95,1,88.953
499.96,1,89.152
499.96,1,89.351
499.96,1,89.55
499.96,1,89.749
499.96,1,89.948
499.96,1,90.147
499.96,1,90.346
499.96,1,90.545
499.96,1,90.744
499.96,1,90.943
499.97,1,91.142
499.97,1,91.341
499.97,1,91.54
499.97,1,91.739
499.97,1,91.938
499.97,1,92.137
499.97,1,92.336
499.97,1,92.535
499.97,1,92.734
499.97,1,92.933
499.97,1,93.132
499.97,1,93.331
499.97,1,93.53
499.97,1,93.729
499.97,1,93.928
499.98,1,94.127
499.98,1,94.326
499.98,1,94.525
499.98,1,94.724
499.98,1,94.923
499.98,1,95.122
499.98,1,95.321
499.98,1,95.52
499.98,1,95.719
499.98,1,95.918
499.98,1,96.117
499.98,1,96.316
499.98,1,96.515
499.98,1,96.714
499.98,1,96.913
499.98,1,97.112
499.98,1,97.311
499.98,1,97.51
499.98,1,97.709
499.98,1,97.908
499.98,1,98.107
499.98,1,98.306
499.98,1,98.505
499.98,1,98.704
499.98,1,98.903
499.98,1,99.102
499.98,1,99.301
499.98,1,99.5
499.98,1,99.699
499.98,1,99.898
499.98,1,100.1
499.98,1,100.3
499.98,1,100.5
499.98,1,100.69
499.98,1,100.89
499.98,1,101.09
499.98,1,101.29
499.98,1,101.49
499.98,1,101.69
499.98,1,101.89
499.98,1,102.09
499.98,1,102.29
499.98,1,102.49
499.98,1,102.68
499.98,1,102.88
499.98,1,103.08
499.98,1,103.28
499.98,1,103.48
499.98,1,103.68
499.98,1,103.88
499.98,1,104.08
499.98,1,104.28
499.98,1,104.47
499.98,1,104.67
499.98,1,104.87
499.98,1,105.07
499.98,1,105.27
499.98,1,105.47
499.98,1,105.67
499.98,1,105.87
499.97,1,106.07
499.97,1,106.27
499.97,1,106.46
499.97,1,106.66
499.97,1,106.86
499.97,1,107.06
499.97,1,107.26
499.97,1,107.46
499.97,1,107.66
499.97,1,107.86
499.97,1,108.06
499.97,1,108.26
499.97,1,108.46
499.97,1,108.65
499.97,1,108.85
499.96,1,109.05
499.96,1,109.25
499.96,1,109.45
499.96,1,109.65
499.96,1,109.85
499.96,1,110.05
499.96,1,110.25
499.96,1,110.44
499.96,1,110.64
499.96,1,110.84
499.95,1,111.04
499.95,1,111.24
499.95,1,111.44
499.95,1,111.64
499.95,1,111.84
499.94,1,112.04
499.94,1,112.24
499.94,1,112.43
499.94,1,112.63
499.94,1,112.83
499.93,1,113.03
499.93,1,113.23
499.93,1,113.43
499.93,1,113.63
499.93,1,113.83
499.91,1,114.03
499.91,1,114.23
499.91,1,114.43
499.91,1,114.62
499.91,1,114.82
499.9,1,115.02
499.9,1,115.22
499.9,1,115.42
499.9,1,115.62
499.9,1,115.82
499.88,1,116.02
499.88,1,116.22
499.88,1,116.42
499.88,1,116.61
499.88,1,116.81
499.86,1,117.01
499.86,1,117.21
499.86,1,117.41
499.86,1,117.61
499.86,1,117.81
499.83,1,118.01
499.83,1,118.21
499.83,1,118.4
499.83,1,118.6
499.83,1,118.8
499.8,1,119
499.8,1,119.2
499.8,1,119.4
499.8,1,119.6
499.8,1,119.8
499.8,1,120
499.76,1,120.2
499.76,1,120.39
499.76,1,120.59
499.76,1,120.79
499.76,1,120.99
499.72,1,121.19
499.72,1,121.39
499.72,1,121.59
499.72,1,121.79
499.72,1,121.99
499.67,1,122.19
499.67,1,122.39
499.67,1,122.58
499.67,1,122.78
499.67,1,122.98
499.6,1,123.18
499.6,1,123.38
499.6,1,123.58
499.6,1,123.78
499.6,1,123.98
499.53,1,124.18
499.53,1,124.38
499.53,1,124.57
499.53,1,124.77
499.53,1,124.97
499.45,1,125.17
499.45,1,125.37
499.45,1,125.57
499.45,1,125.77
499.45,1,125.97
499.35,1,126.17
499.35,1,126.36
499.35,1,126.56
499.35,1,126.76
499.35,1,126.96
499.23,1,127.16
499.23,1,127.36
499.23,1,127.56
499.23,1,127.76
499.23,1,127.96
499.09,1,128.16
499.09,1,128.35
499.09,1,128.55
499.09,1,128.75
499.09,1,128.95
498.94,1,129.15
498.94,1,129.35
498.94,1,129.55
498.94,1,129.75
498.94,1,129.95
498.75,1,130.15
498.75,1,130.35
498.75,1,130.54
498.75,1,130.74
498.75,1,130.94
498.54,1,131.14
498.54,1,131.34
498.54,1,131.54
498.54,1,131.74
498.54,1,131.94
498.29,1,132.14
498.29,1,132.34
498.29,1,132.53
498.29,1,132.73
498.29,1,132.93
498.01,1,133.13
498.01,1,133.33
498.01,1,133.53
498.01,1,133.73
498.01,1,133.93
497.68,1,134.13
497.68,1,134.32
497.68,1,134.52
497.68,1,134.72
497.68,1,134.92
497.31,1,135.12
497.31,1,135.32
497.31,1,135.52
497.31,1,135.72
497.31,1,135.92
496.87,1,136.12
496.87,1,136.32
496.87,1,136.51
496.87,1,136.71
496.87,1,136.91
496.38,1,137.11
496.38,1,137.31
496.38,1,137.51
496.38,1,137.71
496.38,1,137.91
495.82,1,138.11
495.82,1,138.3
495.82,1,138.5
495.82,1,138.7
495.82,1,138.9
495.19,1,139.1
495.19,1,139.3
495.19,1,139.5
495.19,1,139.7
495.19,1,139.9
494.46,1,140.1
494.46,1,140.29
494.46,1,140.49
494.46,1,140.69
494.46,1,140.89
493.65,1,141.09
493.65,1,141.29
493.65,1,141.49
493.65,1,141.69
493.65,1,141.89
492.72,1,142.09
492.72,1,142.29
492.72,1,142.48
492.72,1,142.68
492.72,1,142.88
491.69,1,143.08
491.69,1,143.28
491.69,1,143.48
491.69,1,143.68
491.69,1,143.88
490.52,1,144.08
490.52,1,144.27
490.52,1,144.47
490.52,1,144.67
490.52,1,144.87
489.22,1,145.07
489.22,1,145.27
489.22,1,145.47
489.22,1,145.67
489.22,1,145.87
487.77,1,146.07
487.77,1,146.26
487.77,1,146.46
487.77,1,146.66
487.77,1,146.86
486.15,1,147.06
486.15,1,147.26
486.15,1,147.46
486.15,1,147.66
486.15,1,147.86
484.35,1,148.06
484.35,1,148.26
484.35,1,148.45
484.35,1,148.65
484.35,1,148.85
482.36,1,149.05
482.36,1,149.25
482.36,1,149.45
482.36,1,149.65
482.36,1,149.85
480.16,1,150.05
480.16,1,150.24
480.16,1,150.44
480.16,1,150.64
480.16,1,150.84
477.74,1,151.04
477.74,1,151.24
477.74,1,151.44
477.74,1,151.64
477.74,1,151.84
475.07,1,152.04
475.07,1,152.24
475.07,1,152.43
475.07,1,152.63
475.07,1,152.83
472.16,1,153.03
472.16,1,153.23
472.16,1,153.43
472.16,1,153.63
472.16,1,153.83
468.97,1,154.03
468.97,1,154.23
468.97,1,154.42
468.97,1,154.62
468.97,1,154.82
465.5,1,155.02
465.5,1,155.22
465.5,1,155.42
465.5,1,155.62
465.5,1,155.82
461.72,1,156.02
461.72,1,156.21
461.72,1,156.41
461.72,1,156.61
461.72,1,156.81
457.63,1,157.01
457.63,1,157.21
457.63,1,157.41
457.63,1,157.61
457.63,1,157.81
453.2,1,158.01
453.2,1,158.21
453.2,1,158.4
453.2,1,158.6
453.2,1,158.8
448.43,1,159
448.43,1,159.2
448.43,1,159.4
448.43,1,159.6
448.43,1,159.8
448.43,1,160
443.31,1,160.2
443.31,1,160.39
443.31,1,160.59
443.31,1,160.79
443.31,1,160.99
437.81,1,161.19
437.81,1,161.39
437.81,1,161.59
437.81,1,161.79
437.81,1,161.99
431.93,1,162.18
431.93,1,162.38
431.93,1,162.58
431.93,1,162.78
431.93,1,162.98
425.65,1,163.18
425.65,1,163.38
425.65,1,163.58
425.65,1,163.78
425.65,1,163.98
418.98,1,164.18
418.98,1,164.37
418.98,1,164.57
418.98,1,164.77
418.98,1,164.97
411.91,1,165.17
411.91,1,165.37
411.91,1,165.57
411.91,1,165.77
411.91,1,165.97
404.42,1,166.16
404.42,1,166.36
404.42,1,166.56
404.42,1,166.76
404.42,1,166.96
396.53,1,167.16
396.53,1,167.36
396.53,1,167.56
396.53,1,167.76
396.53,1,167.96
388.22,1,168.15
388.22,1,168.35
388.22,1,168.55
388.22,1,168.75
388.22,1,168.95
379.5,1,169.15
379.5,1,169.35
379.5,1,169.55
379.5,1,169.75
379.5,1,169.95
370.37,1,170.15
370.37,1,170.34
370.37,1,170.54
370.37,1,170.74
370.37,1,170.94
360.85,1,171.14
360.85,1,171.34
360.85,1,171.54
360.85,1,171.74
360.85,1,171.94
350.93,1,172.13
350.93,1,172.33
350.93,1,172.53
350.93,1,172.73
350.93,1,172.93
340.63,1,173.13
340.63,1,173.33
340.63,1,173.53
340.63,1,173.73
340.63,1,173.93
329.96,1,174.12
329.96,1,174.32
329.96,1,174.52
329.96,1,174.72
329.96,1,174.92
318.95,1,175.12
318.95,1,175.32
318.95,1,175.52
318.95,1,175.72
318.95,1,175.92
307.6,1,176.12
307.6,1,176.31
307.6,1,176.51
307.6,1,176.71
307.6,1,176.91
295.94,1,177.11
295.94,1,177.31
295.94,1,177.51
295.94,1,177.71
295.94,1,177.91
283.99,1,178.1
283.99,1,178.3
283.99,1,178.5
283.99,1,178.7
283.99,1,178.9
271.87,1,179.1
271.87,1,179.3
271.87,1,179.5
271.87,1,179.7
271.87,1,179.9
0,1,180.1
0,1,180.29
0,1,180.49
0,1,180.69
0,1,180.89
0,1,181.09
0,1,181.29
0,1,181.49
0,1,181.69
0,1,181.89
0,1,182.09
0,1,182.28
0,1,182.48
0,1,182.68
0,1,182.88
0,1,183.08
0,1,183.28
0,1,183.48
0,1,183.68
0,1,183.88
0,1,184.07
0,1,184.27
0,1,184.47
0,1,184.67
0,1,184.87
0,1,185.07
0,1,185.27
0,1,185.47
0,1,185.67
0,1,185.87
0,1,186.07
0,1,186.26
0,1,186.46
0,1,186.66
0,1,186.86
0,1,187.06
0,1,187.26
0,1,187.46
0,1,187.66
0,1,187.86
0,1,188.05
0,1,188.25
0,1,188.45
0,1,188.65
0,1,188.85
0,1,189.05
0,1,189.25
0,1,189.45
0,1,189.65
0,1,189.85
0,1,190.04
0,1,190.24
0,1,190.44
0,1,190.64
0,1,190.84
0,1,191.04
0,1,191.24
0,1,191.44
0,1,191.64
0,1,191.84
0,1,192.04
0,1,192.23
0,1,192.43
0,1,192.63
0,1,192.83
0,1,193.03
0,1,193.23
0,1,193.43
0,1,193.63
0,1,193.83
0,1,194.02
0,1,194.22
0,1,194.42
0,1,194.62
0,1,194.82
0,1,195.02
0,1,195.22
0,1,195.42
0,1,195.62
0,1,195.82
0,1,196.01
0,1,196.21
0,1,196.41
0,1,196.61
0,1,196.81
0,1,197.01
0,1,197.21
0,1,197.41
0,1,197.61
0,1,197.81
0,1,198.01
0,1,198.2
0,1,198.4
0,1,198.6
0,1,198.8
0,1,199
