"PuMA_Matrix","vtkValidPointMask","arc_length"
0,1,0
0,1,0.199
0,1,0.398
0,1,0.597
0,1,0.796
0,1,0.995
0,1,1.194
0,1,1.393
0,1,1.592
0,1,1.791
0,1,1.99
0,1,2.189
0,1,2.388
0,1,2.587
0,1,2.786
0,1,2.985
0,1,3.184
0,1,3.383
0,1,3.582
0,1,3.781
0,1,3.98
0,1,4.179
0,1,4.378
0,1,4.577
0,1,4.776
0,1,4.975
0,1,5.174
0,1,5.373
0,1,5.572
0,1,5.771
0,1,5.97
0,1,6.169
0,1,6.368
0,1,6.567
0,1,6.766
0,1,6.965
0,1,7.164
0,1,7.363
0,1,7.562
0,1,7.761
0,1,7.96
0,1,8.159
0,1,8.358
0,1,8.557
0,1,8.756
0,1,8.955
0,1,9.154
0,1,9.353
0,1,9.552
0,1,9.751
0,1,9.95
0,1,10.149
0,1,10.348
0,1,10.547
0,1,10.746
0,1,10.945
0,1,11.144
0,1,11.343
0,1,11.542
0,1,11.741
0,1,11.94
0,1,12.139
0,1,12.338
0,1,12.537
0,1,12.736
0,1,12.935
0,1,13.134
0,1,13.333
0,1,13.532
0,1,13.731
0,1,13.93
0,1,14.129
0,1,14.328
0,1,14.527
0,1,14.726
0,1,14.925
0,1,15.124
0,1,15.323
0,1,15.522
0,1,15.721
0,1,15.92
0,1,16.119
0,1,16.318
0,1,16.517
0,1,16.716
0,1,16.915
0,1,17.114
0,1,17.313
0,1,17.512
0,1,17.711
0,1,17.91
0,1,18.109
0,1,18.308
0,1,18.507
0,1,18.706
0,1,18.905
0,1,19.104
0,1,19.303
0,1,19.502
0,1,19.701
0,1,19.9
263.85,1,20.099
263.85,1,20.298
263.85,1,20.497
263.85,1,20.696
263.85,1,20.895
275.62,1,21.094
275.62,1,21.293
275.62,1,21.492
275.62,1,21.691
275.62,1,21.89
287.24,1,22.089
287.24,1,22.288
287.24,1,22.487
287.24,1,22.686
287.24,1,22.885
298.6,1,23.084
298.6,1,23.283
298.6,1,23.482
298.6,1,23.681
298.6,1,23.88
309.7,1,24.079
309.7,1,24.278
309.7,1,24.477
309.7,1,24.676
309.7,1,24.875
320.51,1,25.074
320.51,1,25.273
320.51,1,25.472
320.51,1,25.671
320.51,1,25.87
331,1,26.069
331,1,26.268
331,1,26.467
331,1,26.666
331,1,26.865
341.17,1,27.064
341.17,1,27.263
341.17,1,27.462
341.17,1,27.661
341.17,1,27.86
351,1,28.059
351,1,28.258
351,1,28.457
351,1,28.656
351,1,28.855
360.49,1,29.054
360.49,1,29.253
360.49,1,29.452
360.49,1,29.651
360.49,1,29.85
369.61,1,30.049
369.61,1,30.248
369.61,1,30.447
369.61,1,30.646
369.61,1,30.845
378.37,1,31.044
378.37,1,31.243
378.37,1,31.442
378.37,1,31.641
378.37,1,31.84
386.75,1,32.039
386.75,1,32.238
386.75,1,32.437
386.75,1,32.636
386.75,1,32.835
394.76,1,33.034
394.76,1,33.233
394.76,1,33.432
394.76,1,33.631
394.76,1,33.83
402.39,1,34.029
402.39,1,34.228
402.39,1,34.427
402.39,1,34.626
402.39,1,34.825
409.64,1,35.024
409.64,1,35.223
409.64,1,35.422
409.64,1,35.621
409.64,1,35.82
416.52,1,36.019
416.52,1,36.218
416.52,1,36.417
416.52,1,36.616
416.52,1,36.815
423.03,1,37.014
423.03,1,37.213
423.03,1,37.412
423.03,1,37.611
423.03,1,37.81
429.17,1,38.009
429.17,1,38.208
429.17,1,38.407
429.17,1,38.606
429.17,1,38.805
434.94,1,39.004
434.94,1,39.203
434.94,1,39.402
434.94,1,39.601
434.94,1,39.8
434.94,1,39.999
440.37,1,40.198
440.37,1,40.397
440.37,1,40.596
440.37,1,40.795
440.37,1,40.994
445.45,1,41.193
445.45,1,41.392
445.45,1,41.591
445.45,1,41.79
445.45,1,41.989
450.2,1,42.188
450.2,1,42.387
450.2,1,42.586
450.2,1,42.785
450.2,1,42.984
454.63,1,43.183
454.63,1,43.382
454.63,1,43.581
454.63,1,43.78
454.63,1,43.979
458.75,1,44.178
458.75,1,44.377
458.75,1,44.576
458.75,1,44.775
458.75,1,44.974
462.57,1,45.173
462.57,1,45.372
462.57,1,45.571
462.57,1,45.77
462.57,1,45.969
466.1,1,46.168
466.1,1,46.367
466.1,1,46.566
466.1,1,46.765
466.1,1,46.964
469.37,1,47.163
469.37,1,47.362
469.37,1,47.561
469.37,1,47.76
469.37,1,47.959
472.37,1,48.158
472.37,1,48.357
472.37,1,48.556
472.37,1,48.755
472.37,1,48.954
475.13,1,49.153
475.13,1,49.352
475.13,1,49.551
475.13,1,49.75
475.13,1,49.949
477.66,1,50.148
477.66,1,50.347
477.66,1,50.546
477.66,1,50.745
477.66,1,50.944
479.97,1,51.143
479.97,1,51.342
479.97,1,51.541
479.97,1,51.74
479.97,1,51.939
482.08,1,52.138
482.08,1,52.337
482.08,1,52.536
482.08,1,52.735
482.08,1,52.934
484,1,53.133
484,1,53.332
484,1,53.531
484,1,53.73
484,1,53.929
485.74,1,54.128
485.74,1,54.327
485.74,1,54.526
485.74,1,54.725
485.74,1,54.924
487.32,1,55.123
487.32,1,55.322
487.32,1,55.521
487.32,1,55.72
487.32,1,55.919
488.75,1,56.118
488.75,1,56.317
488.75,1,56.516
488.75,1,56.715
488.75,1,56.914
490.03,1,57.113
490.03,1,57.312
490.03,1,57.511
490.03,1,57.71
490.03,1,57.909
491.19,1,58.108
491.19,1,58.307
491.19,1,58.506
491.19,1,58.705
491.19,1,58.904
492.22,1,59.103
492.22,1,59.302
492.22,1,59.501
492.22,1,59.7
492.22,1,59.899
493.15,1,60.098
493.15,1,60.297
493.15,1,60.496
493.15,1,60.695
493.15,1,60.894
493.98,1,61.093
493.98,1,61.292
493.98,1,61.491
493.98,1,61.69
493.98,1,61.889
494.72,1,62.088
494.72,1,62.287
494.72,1,62.486
494.72,1,62.685
494.72,1,62.884
495.37,1,63.083
495.37,1,63.282
495.37,1,63.481
495.37,1,63.68
495.37,1,63.879
495.95,1,64.078
495.95,1,64.277
495.95,1,64.476
495.95,1,64.675
495.95,1,64.874
496.47,1,65.073
496.47,1,65.272
496.47,1,65.471
496.47,1,65.67
496.47,1,65.869
496.92,1,66.068
496.92,1,66.267
496.92,1,66.466
496.92,1,66.665
496.92,1,66.864
497.32,1,67.063
497.32,1,67.262
497.32,1,67.461
497.32,1,67.66
497.32,1,67.859
497.67,1,68.058
497.67,1,68.257
497.67,1,68.456
497.67,1,68.655
497.67,1,68.854
497.98,1,69.053
497.98,1,69.252
497.98,1,69.451
497.98,1,69.65
497.98,1,69.849
498.25,1,70.048
498.25,1,70.247
498.25,1,70.446
498.25,1,70.645
498.25,1,70.844
498.49,1,71.043
498.49,1,71.242
498.49,1,71.441
498.49,1,71.64
498.49,1,71.839
498.7,1,72.038
498.7,1,72.237
498.7,1,72.436
498.7,1,72.635
498.7,1,72.834
498.88,1,73.033
498.88,1,73.232
498.88,1,73.431
498.88,1,73.63
498.88,1,73.829
499.03,1,74.028
499.03,1,74.227
499.03,1,74.426
499.03,1,74.625
499.03,1,74.824
499.17,1,75.023
499.17,1,75.222
499.17,1,75.421
499.17,1,75.62
499.17,1,75.819
499.28,1,76.018
499.28,1,76.217
499.28,1,76.416
499.28,1,76.615
499.28,1,76.814
499.38,1,77.013
499.38,1,77.212
499.38,1,77.411
499.38,1,77.61
499.38,1,77.809
499.47,1,78.008
499.47,1,78.207
499.47,1,78.406
499.47,1,78.605
499.47,1,78.804
499.55,1,79.003
499.55,1,79.202
499.55,1,79.401
499.55,1,79.6
499.55,1,79.799
499.55,1,79.998
499.61,1,80.197
499.61,1,80.396
499.61,1,80.595
499.61,1,80.794
499.61,1,80.993
499.67,1,81.192
499.67,1,81.391
499.67,1,81.59
499.67,1,81.789
499.67,1,81.988
499.71,1,82.187
499.71,1,82.386
499.71,1,82.585
499.71,1,82.784
499.71,1,82.983
499.75,1,83.182
499.75,1,83.381
499.75,1,83.58
499.75,1,83.779
499.75,1,83.978
499.79,1,84.177
499.79,1,84.376
499.79,1,84.575
499.79,1,84.774
499.79,1,84.973
499.82,1,85.172
499.82,1,85.371
499.82,1,85.57
499.82,1,85.769
499.82,1,85.968
499.84,1,86.167
499.84,1,86.366
499.84,1,86.565
499.84,1,86.764
499.84,1,86.963
499.86,1,87.162
499.86,1,87.361
499.86,1,87.56
499.86,1,87.759
499.86,1,87.958
499.88,1,88.157
499.88,1,88.356
499.88,1,88.555
499.88,1,88.754
499.88,1,88.953
499.9,1,89.152
499.9,1,89.351
499.9,1,89.55
499.9,1,89.749
499.9,1,89.948
499.91,1,90.147
499.91,1,90.346
499.91,1,90.545
499.91,1,90.744
499.91,1,90.943
499.92,1,91.142
499.92,1,91.341
499.92,1,91.54
499.92,1,91.739
499.92,1,91.938
499.93,1,92.137
499.93,1,92.336
499.93,1,92.535
499.93,1,92.734
499.93,1,92.933
499.94,1,93.132
499.94,1,93.331
499.94,1,93.53
499.94,1,93.729
499.94,1,93.928
499.94,1,94.127
499.94,1,94.326
499.94,1,94.525
499.94,1,94.724
499.94,1,94.923
499.95,1,95.122
499.95,1,95.321
499.95,1,95.52
499.95,1,95.719
499.95,1,95.918
499.95,1,96.117
499.95,1,96.316
499.95,1,96.515
499.95,1,96.714
499.95,1,96.913
499.95,1,97.112
499.95,1,97.311
499.95,1,97.51
499.95,1,97.709
499.95,1,97.908
499.96,1,98.107
499.96,1,98.306
499.96,1,98.505
499.96,1,98.704
499.96,1,98.903
499.96,1,99.102
499.96,1,99.301
499.96,1,99.5
499.96,1,99.699
499.96,1,99.898
499.96,1,100.1
499.96,1,100.3
499.96,1,100.5
499.96,1,100.69
499.96,1,100.89
499.96,1,101.09
499.96,1,101.29
499.96,1,101.49
499.96,1,101.69
499.96,1,101.89
499.95,1,102.09
499.95,1,102.29
499.95,1,102.49
499.95,1,102.68
499.95,1,102.88
499.95,1,103.08
499.95,1,103.28
499.95,1,103.48
499.95,1,103.68
499.95,1,103.88
499.95,1,104.08
499.95,1,104.28
499.95,1,104.47
499.95,1,104.67
499.95,1,104.87
499.94,1,105.07
499.94,1,105.27
499.94,1,105.47
499.94,1,105.67
499.94,1,105.87
499.94,1,106.07
499.94,1,106.27
499.94,1,106.46
499.94,1,106.66
499.94,1,106.86
499.93,1,107.06
499.93,1,107.26
499.93,1,107.46
499.93,1,107.66
499.93,1,107.86
499.92,1,108.06
499.92,1,108.26
499.92,1,108.46
499.92,1,108.65
499.92,1,108.85
499.91,1,109.05
499.91,1,109.25
499.91,1,109.45
499.91,1,109.65
499.91,1,109.85
499.9,1,110.05
499.9,1,110.25
499.9,1,110.44
499.9,1,110.64
499.9,1,110.84
499.88,1,111.04
499.88,1,111.24
499.88,1,111.44
499.88,1,111.64
499.88,1,111.84
499.86,1,112.04
499.86,1,112.24
499.86,1,112.43
499.86,1,112.63
499.86,1,112.83
499.84,1,113.03
499.84,1,113.23
499.84,1,113.43
499.84,1,113.63
499.84,1,113.83
499.82,1,114.03
499.82,1,114.23
499.82,1,114.43
499.82,1,114.62
499.82,1,114.82
499.79,1,115.02
499.79,1,115.22
499.79,1,115.42
499.79,1,115.62
499.79,1,115.82
499.75,1,116.02
499.75,1,116.22
499.75,1,116.42
499.75,1,116.61
499.75,1,116.81
499.71,1,117.01
499.71,1,117.21
499.71,1,117.41
499.71,1,117.61
499.71,1,117.81
499.67,1,118.01
499.67,1,118.21
499.67,1,118.4
499.67,1,118.6
499.67,1,118.8
499.61,1,119
499.61,1,119.2
499.61,1,119.4
499.61,1,119.6
499.61,1,119.8
499.61,1,120
499.55,1,120.2
499.55,1,120.39
499.55,1,120.59
499.55,1,120.79
499.55,1,120.99
499.47,1,121.19
499.47,1,121.39
499.47,1,121.59
499.47,1,121.79
499.47,1,121.99
499.38,1,122.19
499.38,1,122.39
499.38,1,122.58
499.38,1,122.78
499.38,1,122.98
499.28,1,123.18
499.28,1,123.38
499.28,1,123.58
499.28,1,123.78
499.28,1,123.98
499.17,1,124.18
499.17,1,124.38
499.17,1,124.57
499.17,1,124.77
499.17,1,124.97
499.03,1,125.17
499.03,1,125.37
499.03,1,125.57
499.03,1,125.77
499.03,1,125.97
498.88,1,126.17
498.88,1,126.36
498.88,1,126.56
498.88,1,126.76
498.88,1,126.96
498.7,1,127.16
498.7,1,127.36
498.7,1,127.56
498.7,1,127.76
498.7,1,127.96
498.49,1,128.16
498.49,1,128.35
498.49,1,128.55
498.49,1,128.75
498.49,1,128.95
498.25,1,129.15
498.25,1,129.35
498.25,1,129.55
498.25,1,129.75
498.25,1,129.95
497.98,1,130.15
497.98,1,130.35
497.98,1,130.54
497.98,1,130.74
497.98,1,130.94
497.67,1,131.14
497.67,1,131.34
497.67,1,131.54
497.67,1,131.74
497.67,1,131.94
497.32,1,132.14
497.32,1,132.34
497.32,1,132.53
497.32,1,132.73
497.32,1,132.93
496.92,1,133.13
496.92,1,133.33
496.92,1,133.53
496.92,1,133.73
496.92,1,133.93
496.47,1,134.13
496.47,1,134.32
496.47,1,134.52
496.47,1,134.72
496.47,1,134.92
495.95,1,135.12
495.95,1,135.32
495.95,1,135.52
495.95,1,135.72
495.95,1,135.92
495.37,1,136.12
495.37,1,136.32
495.37,1,136.51
495.37,1,136.71
495.37,1,136.91
494.72,1,137.11
494.72,1,137.31
494.72,1,137.51
494.72,1,137.71
494.72,1,137.91
493.98,1,138.11
493.98,1,138.3
493.98,1,138.5
493.98,1,138.7
493.98,1,138.9
493.15,1,139.1
493.15,1,139.3
493.15,1,139.5
493.15,1,139.7
493.15,1,139.9
492.22,1,140.1
492.22,1,140.29
492.22,1,140.49
492.22,1,140.69
492.22,1,140.89
491.19,1,141.09
491.19,1,141.29
491.19,1,141.49
491.19,1,141.69
491.19,1,141.89
490.03,1,142.09
490.03,1,142.29
490.03,1,142.48
490.03,1,142.68
490.03,1,142.88
488.75,1,143.08
488.75,1,143.28
488.75,1,143.48
488.75,1,143.68
488.75,1,143.88
487.32,1,144.08
487.32,1,144.27
487.32,1,144.47
487.32,1,144.67
487.32,1,144.87
485.74,1,145.07
485.74,1,145.27
485.74,1,145.47
485.74,1,145.67
485.74,1,145.87
484,1,146.07
484,1,146.26
484,1,146.46
484,1,146.66
484,1,146.86
482.08,1,147.06
482.08,1,147.26
482.08,1,147.46
482.08,1,147.66
482.08,1,147.86
479.97,1,148.06
479.97,1,148.26
479.97,1,148.45
479.97,1,148.65
479.97,1,148.85
477.66,1,149.05
477.66,1,149.25
477.66,1,149.45
477.66,1,149.65
477.66,1,149.85
475.13,1,150.05
475.13,1,150.24
475.13,1,150.44
475.13,1,150.64
475.13,1,150.84
472.37,1,151.04
472.37,1,151.24
472.37,1,151.44
472.37,1,151.64
472.37,1,151.84
469.37,1,152.04
469.37,1,152.24
469.37,1,152.43
469.37,1,152.63
469.37,1,152.83
466.1,1,153.03
466.1,1,153.23
466.1,1,153.43
466.1,1,153.63
466.1,1,153.83
462.57,1,154.03
462.57,1,154.23
462.57,1,154.42
462.57,1,154.62
462.57,1,154.82
458.75,1,155.02
458.75,1,155.22
458.75,1,155.42
458.75,1,155.62
458.75,1,155.82
454.63,1,156.02
454.63,1,156.21
454.63,1,156.41
454.63,1,156.61
454.63,1,156.81
450.2,1,157.01
450.2,1,157.21
450.2,1,157.41
450.2,1,157.61
450.2,1,157.81
445.45,1,158.01
445.45,1,158.21
445.45,1,158.4
445.45,1,158.6
445.45,1,158.8
440.37,1,159
440.37,1,159.2
440.37,1,159.4
440.37,1,159.6
440.37,1,159.8
440.37,1,160
434.94,1,160.2
434.94,1,160.39
434.94,1,160.59
434.94,1,160.79
434.94,1,160.99
429.17,1,161.19
429.17,1,161.39
429.17,1,161.59
429.17,1,161.79
429.17,1,161.99
423.03,1,162.18
423.03,1,162.38
423.03,1,162.58
423.03,1,162.78
423.03,1,162.98
416.52,1,163.18
416.52,1,163.38
416.52,1,163.58
416.52,1,163.78
416.52,1,163.98
409.64,1,164.18
409.64,1,164.37
409.64,1,164.57
409.64,1,164.77
409.64,1,164.97
402.39,1,165.17
402.39,1,165.37
402.39,1,165.57
402.39,1,165.77
402.39,1,165.97
394.76,1,166.16
394.76,1,166.36
394.76,1,166.56
394.76,1,166.76
394.76,1,166.96
386.75,1,167.16
386.75,1,167.36
386.75,1,167.56
386.75,1,167.76
386.75,1,167.96
378.37,1,168.15
378.37,1,168.35
378.37,1,168.55
378.37,1,168.75
378.37,1,168.95
369.61,1,169.15
369.61,1,169.35
369.61,1,169.55
369.61,1,169.75
369.61,1,169.95
360.49,1,170.15
360.49,1,170.34
360.49,1,170.54
360.49,1,170.74
360.49,1,170.94
351,1,171.14
351,1,171.34
351,1,171.54
351,1,171.74
351,1,171.94
341.17,1,172.13
341.17,1,172.33
341.17,1,172.53
341.17,1,172.73
341.17,1,172.93
331,1,173.13
331,1,173.33
331,1,173.53
331,1,173.73
331,1,173.93
320.51,1,174.12
320.51,1,174.32
320.51,1,174.52
320.51,1,174.72
320.51,1,174.92
309.7,1,175.12
309.7,1,175.32
309.7,1,175.52
309.7,1,175.72
309.7,1,175.92
298.6,1,176.12
298.6,1,176.31
298.6,1,176.51
298.6,1,176.71
298.6,1,176.91
287.24,1,177.11
287.24,1,177.31
287.24,1,177.51
287.24,1,177.71
287.24,1,177.91
275.62,1,178.1
275.62,1,178.3
275.62,1,178.5
275.62,1,178.7
275.62,1,178.9
263.85,1,179.1
263.85,1,179.3
263.85,1,179.5
263.85,1,179.7
263.85,1,179.9
0,1,180.1
0,1,180.29
0,1,180.49
0,1,180.69
0,1,180.89
0,1,181.09
0,1,181.29
0,1,181.49
0,1,181.69
0,1,181.89
0,1,182.09
0,1,182.28
0,1,182.48
0,1,182.68
0,1,182.88
0,1,183.08
0,1,183.28
0,1,183.48
0,1,183.68
0,1,183.88
0,1,184.07
0,1,184.27
0,1,184.47
0,1,184.67
0,1,184.87
0,1,185.07
0,1,185.27
0,1,185.47
0,1,185.67
0,1,185.87
0,1,186.07
0,1,186.26
0,1,186.46
0,1,186.66
0,1,186.86
0,1,187.06
0,1,187.26
0,1,187.46
0,1,187.66
0,1,187.86
0,1,188.05
0,1,188.25
0,1,188.45
0,1,188.65
0,1,188.85
0,1,189.05
0,1,189.25
0,1,189.45
0,1,189.65
0,1,189.85
0,1,190.04
0,1,190.24
0,1,190.44
0,1,190.64
0,1,190.84
0,1,191.04
0,1,191.24
0,1,191.44
0,1,191.64
0,1,191.84
0,1,192.04
0,1,192.23
0,1,192.43
0,1,192.63
0,1,192.83
0,1,193.03
0,1,193.23
0,1,193.43
0,1,193.63
0,1,193.83
0,1,194.02
0,1,194.22
0,1,194.42
0,1,194.62
0,1,194.82
0,1,195.02
0,1,195.22
0,1,195.42
0,1,195.62
0,1,195.82
0,1,196.01
0,1,196.21
0,1,196.41
0,1,196.61
0,1,196.81
0,1,197.01
0,1,197.21
0,1,197.41
0,1,197.61
0,1,197.81
0,1,198.01
0,1,198.2
0,1,198.4
0,1,198.6
0,1,198.8
0,1,199
